simulation/qsim/Projeto_2.msim.vcd
$comment
	File created using the following command:
		vcd file Projeto_2.msim.vcd -direction
$end
$date
	Tue Jul 27 10:51:00 2021
$end
$version
	ModelSim Version 2020.1
$end
$timescale
	1ps
$end

$scope module despertador_vlg_vec_tst $end
$var reg 1 ! ajuste $end
$var reg 1 " clk $end
$var reg 1 # troca_modo $end
$var reg 1 $ trocar $end
$var reg 1 % up $end
$var wire 1 & AnodeOutput [3] $end
$var wire 1 ' AnodeOutput [2] $end
$var wire 1 ( AnodeOutput [1] $end
$var wire 1 ) AnodeOutput [0] $end
$var wire 1 * digito_selecionado [3] $end
$var wire 1 + digito_selecionado [2] $end
$var wire 1 , digito_selecionado [1] $end
$var wire 1 - digito_selecionado [0] $end
$var wire 1 . horas_dezenas [3] $end
$var wire 1 / horas_dezenas [2] $end
$var wire 1 0 horas_dezenas [1] $end
$var wire 1 1 horas_dezenas [0] $end
$var wire 1 2 horas_unidades [3] $end
$var wire 1 3 horas_unidades [2] $end
$var wire 1 4 horas_unidades [1] $end
$var wire 1 5 horas_unidades [0] $end
$var wire 1 6 min_dezenas [3] $end
$var wire 1 7 min_dezenas [2] $end
$var wire 1 8 min_dezenas [1] $end
$var wire 1 9 min_dezenas [0] $end
$var wire 1 : min_unidades [3] $end
$var wire 1 ; min_unidades [2] $end
$var wire 1 < min_unidades [1] $end
$var wire 1 = min_unidades [0] $end
$var wire 1 > modo_selecionado $end
$var wire 1 ? sec_dezenas [3] $end
$var wire 1 @ sec_dezenas [2] $end
$var wire 1 A sec_dezenas [1] $end
$var wire 1 B sec_dezenas [0] $end
$var wire 1 C sec_unidades [3] $end
$var wire 1 D sec_unidades [2] $end
$var wire 1 E sec_unidades [1] $end
$var wire 1 F sec_unidades [0] $end
$var wire 1 G Seg7Output [6] $end
$var wire 1 H Seg7Output [5] $end
$var wire 1 I Seg7Output [4] $end
$var wire 1 J Seg7Output [3] $end
$var wire 1 K Seg7Output [2] $end
$var wire 1 L Seg7Output [1] $end
$var wire 1 M Seg7Output [0] $end
$var wire 1 N tc_horas $end
$var wire 1 O tc_minutos $end
$var wire 1 P tc_segundos $end

$scope module i1 $end
$var wire 1 Q gnd $end
$var wire 1 R vcc $end
$var wire 1 S unknown $end
$var tri1 1 T devclrn $end
$var tri1 1 U devpor $end
$var tri1 1 V devoe $end
$var wire 1 W sec_unidades[0]~output_o $end
$var wire 1 X sec_unidades[1]~output_o $end
$var wire 1 Y sec_unidades[2]~output_o $end
$var wire 1 Z sec_unidades[3]~output_o $end
$var wire 1 [ sec_dezenas[0]~output_o $end
$var wire 1 \ sec_dezenas[1]~output_o $end
$var wire 1 ] sec_dezenas[2]~output_o $end
$var wire 1 ^ sec_dezenas[3]~output_o $end
$var wire 1 _ min_unidades[0]~output_o $end
$var wire 1 ` min_unidades[1]~output_o $end
$var wire 1 a min_unidades[2]~output_o $end
$var wire 1 b min_unidades[3]~output_o $end
$var wire 1 c min_dezenas[0]~output_o $end
$var wire 1 d min_dezenas[1]~output_o $end
$var wire 1 e min_dezenas[2]~output_o $end
$var wire 1 f min_dezenas[3]~output_o $end
$var wire 1 g horas_unidades[0]~output_o $end
$var wire 1 h horas_unidades[1]~output_o $end
$var wire 1 i horas_unidades[2]~output_o $end
$var wire 1 j horas_unidades[3]~output_o $end
$var wire 1 k horas_dezenas[0]~output_o $end
$var wire 1 l horas_dezenas[1]~output_o $end
$var wire 1 m horas_dezenas[2]~output_o $end
$var wire 1 n horas_dezenas[3]~output_o $end
$var wire 1 o tc_segundos~output_o $end
$var wire 1 p tc_minutos~output_o $end
$var wire 1 q tc_horas~output_o $end
$var wire 1 r Seg7Output[0]~output_o $end
$var wire 1 s Seg7Output[1]~output_o $end
$var wire 1 t Seg7Output[2]~output_o $end
$var wire 1 u Seg7Output[3]~output_o $end
$var wire 1 v Seg7Output[4]~output_o $end
$var wire 1 w Seg7Output[5]~output_o $end
$var wire 1 x Seg7Output[6]~output_o $end
$var wire 1 y AnodeOutput[0]~output_o $end
$var wire 1 z AnodeOutput[1]~output_o $end
$var wire 1 { AnodeOutput[2]~output_o $end
$var wire 1 | AnodeOutput[3]~output_o $end
$var wire 1 } digito_selecionado[0]~output_o $end
$var wire 1 ~ digito_selecionado[1]~output_o $end
$var wire 1 !! digito_selecionado[2]~output_o $end
$var wire 1 "! digito_selecionado[3]~output_o $end
$var wire 1 #! modo_selecionado~output_o $end
$var wire 1 $! clk~input_o $end
$var wire 1 %! ajuste~input_o $end
$var wire 1 &! troca_modo~input_o $end
$var wire 1 '! modo_ajuste~0_combout $end
$var wire 1 (! modo_ajuste~2_combout $end
$var wire 1 )! modo_ajuste~q $end
$var wire 1 *! _~7_combout $end
$var wire 1 +! cont_clock|op_4~0_combout $end
$var wire 1 ,! cont_clock|count[0]~3_combout $end
$var wire 1 -! cont_clock|count[1]~2_combout $end
$var wire 1 .! cont_clock|count[2]~1_combout $end
$var wire 1 /! cont_clock|count[3]~0_combout $end
$var wire 1 0! _~23_combout $end
$var wire 1 1! _~0_combout $end
$var wire 1 2! mod10_seg|count[2]~2_combout $end
$var wire 1 3! mod10_seg|op_2~0_combout $end
$var wire 1 4! mod10_seg|count[3]~3_combout $end
$var wire 1 5! mod10_seg|count[1]~1_combout $end
$var wire 1 6! mod10_seg|op_1~1_combout $end
$var wire 1 7! mod10_seg|count[0]~0_combout $end
$var wire 1 8! sec_unidades[0]~0_combout $end
$var wire 1 9! sec_unidades[1]~1_combout $end
$var wire 1 :! sec_unidades[2]~2_combout $end
$var wire 1 ;! sec_unidades[3]~3_combout $end
$var wire 1 <! _~1_combout $end
$var wire 1 =! mod6_seg|count[2]~2_combout $end
$var wire 1 >! mod10_seg|op_1~0_combout $end
$var wire 1 ?! tc_segundos~6_combout $end
$var wire 1 @! mod6_seg|count[1]~1_combout $end
$var wire 1 A! mod6_seg|count[0]~0_combout $end
$var wire 1 B! sec_dezenas[0]~0_combout $end
$var wire 1 C! sec_dezenas[1]~1_combout $end
$var wire 1 D! sec_dezenas[2]~2_combout $end
$var wire 1 E! trocar~input_o $end
$var wire 1 F! select_dig|digito[3]~8_combout $end
$var wire 1 G! select_dig|_~0_combout $end
$var wire 1 H! select_dig|digito[1]~5_combout $end
$var wire 1 I! select_dig|digito[0]~4_combout $end
$var wire 1 J! up~input_o $end
$var wire 1 K! acorda_min_u[0]~3_combout $end
$var wire 1 L! acorda_min_u[1]~2_combout $end
$var wire 1 M! acorda_min_u[3]~0_combout $end
$var wire 1 N! acorda_min_u[2]~1_combout $end
$var wire 1 O! op_11~0_combout $end
$var wire 1 P! _~15_combout $end
$var wire 1 Q! _~11_combout $end
$var wire 1 R! op_11~1_combout $end
$var wire 1 S! _~16_combout $end
$var wire 1 T! _~13_combout $end
$var wire 1 U! _~14_combout $end
$var wire 1 V! _~9_combout $end
$var wire 1 W! _~10_combout $end
$var wire 1 X! _~2_combout $end
$var wire 1 Y! tc_segundos~4_combout $end
$var wire 1 Z! tc_segundos~5_combout $end
$var wire 1 [! _~12_combout $end
$var wire 1 \! mod10_min|count[2]~2_combout $end
$var wire 1 ]! mod10_min|op_2~0_combout $end
$var wire 1 ^! mod10_min|count[3]~3_combout $end
$var wire 1 _! mod10_min|count[1]~1_combout $end
$var wire 1 `! mod10_min|op_1~0_combout $end
$var wire 1 a! mod10_min|count[0]~0_combout $end
$var wire 1 b! min_unidades[0]~8_combout $end
$var wire 1 c! min_unidades[1]~9_combout $end
$var wire 1 d! min_unidades[2]~10_combout $end
$var wire 1 e! min_unidades[3]~11_combout $end
$var wire 1 f! acorda_min_d[3]~5_combout $end
$var wire 1 g! acorda_min_d[0]~3_combout $end
$var wire 1 h! acorda_min_d[1]~2_combout $end
$var wire 1 i! acorda_min_d[2]~1_combout $end
$var wire 1 j! op_9~0_combout $end
$var wire 1 k! _~21_combout $end
$var wire 1 l! _~19_combout $end
$var wire 1 m! _~20_combout $end
$var wire 1 n! _~17_combout $end
$var wire 1 o! acorda_min_d[0]~4_combout $end
$var wire 1 p! _~3_combout $end
$var wire 1 q! mod10_min|tc~0_combout $end
$var wire 1 r! _~18_combout $end
$var wire 1 s! mod6_min|count[2]~2_combout $end
$var wire 1 t! mod6_min|count[1]~1_combout $end
$var wire 1 u! mod6_min|count[0]~0_combout $end
$var wire 1 v! min_dezenas[0]~8_combout $end
$var wire 1 w! min_dezenas[1]~9_combout $end
$var wire 1 x! min_dezenas[2]~10_combout $end
$var wire 1 y! acorda_hora_u[3]~6_combout $end
$var wire 1 z! acorda_hora_u[0]~3_combout $end
$var wire 1 {! acorda_hora_u[1]~2_combout $end
$var wire 1 |! acorda_hora_u[2]~1_combout $end
$var wire 1 }! op_5~0_combout $end
$var wire 1 ~! acorda_hora_u[2]~10_combout $end
$var wire 1 !" acorda_hora_u[3]~0_combout $end
$var wire 1 "" op_5~1_combout $end
$var wire 1 #" acorda_hora_u[3]~11_combout $end
$var wire 1 $" acorda_hora_d[3]~4_combout $end
$var wire 1 %" acorda_hora_d[1]~2_combout $end
$var wire 1 &" acorda_hora_d[0]~3_combout $end
$var wire 1 '" acorda_hora_d[0]~5_combout $end
$var wire 1 (" _~22_combout $end
$var wire 1 )" acorda_hora_u[1]~7_combout $end
$var wire 1 *" acorda_hora_u[1]~8_combout $end
$var wire 1 +" acorda_hora_u[1]~9_combout $end
$var wire 1 ," acorda_hora_u[0]~4_combout $end
$var wire 1 -" acorda_hora_u[0]~5_combout $end
$var wire 1 ." select_dig|digito[2]~6_combout $end
$var wire 1 /" _~4_combout $end
$var wire 1 0" _~8_combout $end
$var wire 1 1" tc_minutos~0_combout $end
$var wire 1 2" mod24|_~0_combout $end
$var wire 1 3" mod24|_~1_combout $end
$var wire 1 4" select_dig|digito[3]~7_combout $end
$var wire 1 5" _~5_combout $end
$var wire 1 6" mod24|_~3_combout $end
$var wire 1 7" mod24|_~4_combout $end
$var wire 1 8" mod24|op_5~0_combout $end
$var wire 1 9" mod24|low[2]~6_combout $end
$var wire 1 :" mod24|op_2~0_combout $end
$var wire 1 ;" mod24|low[3]~7_combout $end
$var wire 1 <" mod24|_~6_combout $end
$var wire 1 =" mod24|_~7_combout $end
$var wire 1 >" mod24|_~8_combout $end
$var wire 1 ?" mod24|_~9_combout $end
$var wire 1 @" mod24|low[1]~4_combout $end
$var wire 1 A" mod24|low[1]~5_combout $end
$var wire 1 B" mod24|op_1~0_combout $end
$var wire 1 C" mod24|_~5_combout $end
$var wire 1 D" mod24|high[0]~0_combout $end
$var wire 1 E" mod24|high[0]~1_combout $end
$var wire 1 F" mod24|high[0]~2_combout $end
$var wire 1 G" mod24|high[1]~3_combout $end
$var wire 1 H" mod24|high[1]~4_combout $end
$var wire 1 I" mod24|high[1]~5_combout $end
$var wire 1 J" tc_horas~0_combout $end
$var wire 1 K" mod24|_~2_combout $end
$var wire 1 L" mod24|low[1]~0_combout $end
$var wire 1 M" mod24|low[1]~1_combout $end
$var wire 1 N" mod24|low[0]~2_combout $end
$var wire 1 O" mod24|low[0]~3_combout $end
$var wire 1 P" horas_unidades[0]~8_combout $end
$var wire 1 Q" horas_unidades[1]~9_combout $end
$var wire 1 R" horas_unidades[2]~10_combout $end
$var wire 1 S" horas_unidades[3]~11_combout $end
$var wire 1 T" horas_dezenas[0]~8_combout $end
$var wire 1 U" horas_dezenas[1]~9_combout $end
$var wire 1 V" tc_minutos~1_combout $end
$var wire 1 W" tc_horas~1_combout $end
$var wire 1 X" tc_horas~2_combout $end
$var wire 1 Y" _~6_combout $end
$var wire 1 Z" refresh_clock|mod5|count[0]~1_combout $end
$var wire 1 [" refresh_clock|mod5|count[1]~2_combout $end
$var wire 1 \" refresh_clock|mod5|count[2]~0_combout $end
$var wire 1 ]" refresh_clock|mod5|tc~combout $end
$var wire 1 ^" refresh_clock|mod5_2|count[0]~1_combout $end
$var wire 1 _" refresh_clock|mod5_2|count[1]~2_combout $end
$var wire 1 `" refresh_clock|mod5_2|count[2]~0_combout $end
$var wire 1 a" refresh_clock|mod5_2|tc~combout $end
$var wire 1 b" refresh_clock|mod5_3|count[0]~1_combout $end
$var wire 1 c" refresh_clock|mod5_3|count[1]~2_combout $end
$var wire 1 d" refresh_clock|mod5_3|count[2]~0_combout $end
$var wire 1 e" refresh_clock|mod5_3|tc~combout $end
$var wire 1 f" refresh_clock|mod5_4|count[0]~1_combout $end
$var wire 1 g" refresh_clock|mod5_4|count[1]~2_combout $end
$var wire 1 h" refresh_clock|mod5_4|count[2]~0_combout $end
$var wire 1 i" refresh_clock|mod5_4|tc~combout $end
$var wire 1 j" refresh_clock|mod10|count[3]~1_combout $end
$var wire 1 k" refresh_clock|mod10|count[3]~2_combout $end
$var wire 1 l" refresh_clock|mod10|count[1]~4_combout $end
$var wire 1 m" refresh_clock|mod10|count[2]~3_combout $end
$var wire 1 n" refresh_clock|mod10|op_1~0_combout $end
$var wire 1 o" refresh_clock|mod10|count[0]~0_combout $end
$var wire 1 p" refresh_clock|mod10|tc~0_combout $end
$var wire 1 q" refresh_clock|mod10|tc~combout $end
$var wire 1 r" refresh_clock|clk_saida~0_combout $end
$var wire 1 s" refresh_clock|clk_saida~q $end
$var wire 1 t" chaveador|count[0]~1_combout $end
$var wire 1 u" chaveador|_~0_combout $end
$var wire 1 v" mux|dout[1]~18_combout $end
$var wire 1 w" decoder|saida[2]~4_combout $end
$var wire 1 x" decoder|saida[2]~5_combout $end
$var wire 1 y" mux|dout[1]~19_combout $end
$var wire 1 z" mux|dout[1]~20_combout $end
$var wire 1 {" mux|dout[2]~21_combout $end
$var wire 1 |" mux|dout[0]~22_combout $end
$var wire 1 }" mux|dout[0]~23_combout $end
$var wire 1 ~" decoder|saida[3]~7_combout $end
$var wire 1 !# decoder|saida[2]~6_combout $end
$var wire 1 "# bcd_7Seg_dec|a~combout $end
$var wire 1 ## bcd_7Seg_dec|b~1_combout $end
$var wire 1 $# bcd_7Seg_dec|_~0_combout $end
$var wire 1 %# bcd_7Seg_dec|d~2_combout $end
$var wire 1 &# bcd_7Seg_dec|e~1_combout $end
$var wire 1 '# bcd_7Seg_dec|f~0_combout $end
$var wire 1 (# bcd_7Seg_dec|g~1_combout $end
$var wire 1 )# mod24|low [3] $end
$var wire 1 *# mod24|low [2] $end
$var wire 1 +# mod24|low [1] $end
$var wire 1 ,# mod24|low [0] $end
$var wire 1 -# mux|dout [3] $end
$var wire 1 .# mux|dout [2] $end
$var wire 1 /# mux|dout [1] $end
$var wire 1 0# mux|dout [0] $end
$var wire 1 1# acorda_min_d [3] $end
$var wire 1 2# acorda_min_d [2] $end
$var wire 1 3# acorda_min_d [1] $end
$var wire 1 4# acorda_min_d [0] $end
$var wire 1 5# mod10_seg|count [3] $end
$var wire 1 6# mod10_seg|count [2] $end
$var wire 1 7# mod10_seg|count [1] $end
$var wire 1 8# mod10_seg|count [0] $end
$var wire 1 9# mod6_seg|count [3] $end
$var wire 1 :# mod6_seg|count [2] $end
$var wire 1 ;# mod6_seg|count [1] $end
$var wire 1 <# mod6_seg|count [0] $end
$var wire 1 =# acorda_min_u [3] $end
$var wire 1 ># acorda_min_u [2] $end
$var wire 1 ?# acorda_min_u [1] $end
$var wire 1 @# acorda_min_u [0] $end
$var wire 1 A# mod6_min|count [3] $end
$var wire 1 B# mod6_min|count [2] $end
$var wire 1 C# mod6_min|count [1] $end
$var wire 1 D# mod6_min|count [0] $end
$var wire 1 E# mod10_min|count [3] $end
$var wire 1 F# mod10_min|count [2] $end
$var wire 1 G# mod10_min|count [1] $end
$var wire 1 H# mod10_min|count [0] $end
$var wire 1 I# acorda_hora_u [3] $end
$var wire 1 J# acorda_hora_u [2] $end
$var wire 1 K# acorda_hora_u [1] $end
$var wire 1 L# acorda_hora_u [0] $end
$var wire 1 M# acorda_hora_d [3] $end
$var wire 1 N# acorda_hora_d [2] $end
$var wire 1 O# acorda_hora_d [1] $end
$var wire 1 P# acorda_hora_d [0] $end
$var wire 1 Q# mod24|high [3] $end
$var wire 1 R# mod24|high [2] $end
$var wire 1 S# mod24|high [1] $end
$var wire 1 T# mod24|high [0] $end
$var wire 1 U# chaveador|count [1] $end
$var wire 1 V# chaveador|count [0] $end
$var wire 1 W# select_dig|count [2] $end
$var wire 1 X# select_dig|count [1] $end
$var wire 1 Y# select_dig|count [0] $end
$var wire 1 Z# cont_clock|count [3] $end
$var wire 1 [# cont_clock|count [2] $end
$var wire 1 \# cont_clock|count [1] $end
$var wire 1 ]# cont_clock|count [0] $end
$var wire 1 ^# refresh_clock|mod5_2|count [2] $end
$var wire 1 _# refresh_clock|mod5_2|count [1] $end
$var wire 1 `# refresh_clock|mod5_2|count [0] $end
$var wire 1 a# refresh_clock|mod10|count [3] $end
$var wire 1 b# refresh_clock|mod10|count [2] $end
$var wire 1 c# refresh_clock|mod10|count [1] $end
$var wire 1 d# refresh_clock|mod10|count [0] $end
$var wire 1 e# refresh_clock|mod5_4|count [2] $end
$var wire 1 f# refresh_clock|mod5_4|count [1] $end
$var wire 1 g# refresh_clock|mod5_4|count [0] $end
$var wire 1 h# refresh_clock|mod5_3|count [2] $end
$var wire 1 i# refresh_clock|mod5_3|count [1] $end
$var wire 1 j# refresh_clock|mod5_3|count [0] $end
$var wire 1 k# refresh_clock|mod5|count [2] $end
$var wire 1 l# refresh_clock|mod5|count [1] $end
$var wire 1 m# refresh_clock|mod5|count [0] $end
$upscope $end
$upscope $end
$enddefinitions $end
#0
$dumpvars
0!
0"
0#
0$
0%
1)
1(
1'
0&
0-
0,
0+
0*
01
00
0/
0.
05
04
03
02
09
08
07
06
0=
0<
0;
0:
0>
0B
0A
0@
0?
0F
0E
0D
0C
0M
0L
0K
0J
0I
0H
1G
0N
0O
0P
0Q
1R
xS
1T
1U
1V
0W
0X
0Y
0Z
0[
0\
0]
0^
0_
0`
0a
0b
0c
0d
0e
0f
0g
0h
0i
0j
0k
0l
0m
0n
0o
0p
0q
0r
0s
0t
0u
0v
0w
1x
1y
1z
1{
0|
0}
0~
0!!
0"!
0#!
0$!
0%!
0&!
0'!
1(!
0)!
0*!
1+!
1,!
0-!
0.!
0/!
00!
01!
02!
03!
04!
05!
16!
17!
08!
09!
0:!
0;!
0<!
0=!
1>!
0?!
0@!
0A!
0B!
0C!
0D!
0E!
1F!
0G!
0H!
0I!
0J!
0K!
0L!
0M!
0N!
0O!
0P!
0Q!
0R!
0S!
0T!
0U!
1V!
0W!
0X!
0Y!
0Z!
0[!
0\!
0]!
0^!
0_!
1`!
0a!
0b!
0c!
0d!
0e!
0f!
0g!
0h!
0i!
0j!
0k!
0l!
0m!
1n!
0o!
0p!
0q!
0r!
0s!
0t!
0u!
0v!
0w!
0x!
0y!
0z!
0{!
0|!
0}!
0~!
0!"
0""
0#"
0$"
0%"
0&"
0'"
0("
0)"
1*"
0+"
1,"
1-"
0."
0/"
00"
01"
02"
03"
04"
05"
06"
07"
18"
09"
0:"
0;"
0<"
0="
0>"
0?"
0@"
0A"
1B"
1C"
0D"
0E"
0F"
0G"
0H"
0I"
0J"
0K"
0L"
0M"
0N"
0O"
0P"
0Q"
0R"
0S"
0T"
0U"
0V"
0W"
0X"
0Y"
1Z"
0["
0\"
0]"
1^"
0_"
0`"
0a"
1b"
0c"
0d"
0e"
1f"
0g"
0h"
0i"
1j"
0k"
0l"
0m"
1n"
1o"
0p"
0q"
1r"
0s"
1t"
0u"
1v"
0w"
0x"
0y"
1z"
0{"
0|"
0}"
0~"
0!#
0"#
0##
0$#
0%#
0&#
0'#
1(#
0,#
0+#
0*#
0)#
00#
z/#
0.#
0-#
04#
03#
02#
z1#
08#
07#
06#
05#
0<#
0;#
0:#
z9#
0@#
0?#
0>#
0=#
0D#
0C#
0B#
zA#
0H#
0G#
0F#
0E#
0L#
0K#
0J#
0I#
0P#
0O#
zN#
zM#
0T#
0S#
zR#
zQ#
0V#
0U#
0Y#
0X#
0W#
0]#
0\#
0[#
0Z#
0`#
0_#
0^#
0d#
0c#
0b#
0a#
0g#
0f#
0e#
0j#
0i#
0h#
0m#
0l#
0k#
$end
#1000
1"
1$!
1Y"
1*!
1m#
1]#
1["
0Z"
1-!
0,!
#2000
0"
0$!
0Y"
0*!
#3000
1"
1$!
1Y"
1*!
1l#
0m#
1\#
0]#
1Z"
1,!
#4000
0"
0$!
0Y"
0*!
#5000
1"
1$!
1Y"
1*!
1m#
1]#
1\"
0["
0Z"
1.!
0-!
0,!
#6000
0"
0$!
0Y"
0*!
#7000
1"
1$!
1Y"
1*!
1k#
0l#
0m#
1[#
0\#
0]#
1]"
0\"
1,!
1`#
1_"
0^"
#8000
0"
0$!
0Y"
0*!
#9000
1"
1$!
1Y"
1*!
0k#
1]#
10!
0]"
1Z"
1-!
0,!
1<!
11!
15"
1/"
1p!
1X!
18#
18!
07!
15!
1W
1F
#10000
1%
0"
1J!
0$!
0Y"
0*!
#11000
1"
1$!
1Y"
1*!
1m#
1\#
0]#
1["
0Z"
1,!
#12000
0"
0$!
0Y"
0*!
#13000
1"
1$!
1Y"
1*!
1l#
0m#
1]#
1Z"
1/!
0.!
0-!
0,!
#14000
0"
0$!
0Y"
0*!
#15000
1"
1$!
1Y"
1*!
1m#
1Z#
0[#
0\#
0]#
1\"
0["
0Z"
1,!
#16000
0"
0$!
0Y"
0*!
#17000
1"
1$!
1Y"
1*!
1k#
0l#
0m#
1]#
1]"
0\"
1-!
0,!
1_#
0`#
1^"
#18000
0"
0$!
0Y"
0*!
#19000
1"
1$!
1Y"
1*!
0k#
1\#
0]#
0+!
0]"
1Z"
0/!
0-!
1,!
0<!
01!
0,!
05"
0/"
0p!
0X!
#20000
0%
0"
0J!
0$!
0Y"
0*!
#21000
1"
1$!
1Y"
1*!
1m#
0Z#
0\#
00!
1+!
1["
0Z"
1,!
#22000
0"
0$!
0Y"
0*!
#23000
1"
1$!
1Y"
1*!
1l#
0m#
1]#
1Z"
1-!
0,!
#24000
0"
0$!
0Y"
0*!
#25000
1"
1$!
1Y"
1*!
1m#
1\#
0]#
1\"
0["
0Z"
1,!
#26000
0"
0$!
0Y"
0*!
#27000
1"
1$!
1Y"
1*!
1k#
0l#
0m#
1]#
1]"
0\"
1.!
0-!
0,!
1`#
1`"
0_"
0^"
#28000
0"
0$!
0Y"
0*!
#29000
1"
1$!
1Y"
1*!
0k#
1[#
0\#
0]#
0]"
1Z"
1,!
#30000
1%
0"
1J!
0$!
0Y"
0*!
#31000
1"
1$!
1Y"
1*!
1m#
1]#
10!
1["
0Z"
1-!
0,!
1<!
11!
15"
1/"
1p!
1X!
08#
17#
0>!
08!
17!
19!
1X
0W
0F
1E
#32000
0"
0$!
0Y"
0*!
#33000
1"
1$!
1Y"
1*!
1l#
0m#
1\#
0]#
1Z"
1,!
#34000
0"
0$!
0Y"
0*!
#35000
1"
1$!
1Y"
1*!
1m#
1]#
1\"
0["
0Z"
1/!
0.!
0-!
0,!
#36000
0"
0$!
0Y"
0*!
#37000
1"
1$!
1Y"
1*!
1k#
0l#
0m#
1Z#
0[#
0\#
0]#
1]"
0\"
1,!
1^#
0_#
0`#
1a"
0`"
1j#
1c"
0b"
#38000
0"
0$!
0Y"
0*!
#39000
1"
1$!
1Y"
1*!
0k#
1]#
0]"
1Z"
1-!
0,!
#40000
1$
0%
0"
0J!
0$!
1E!
0Y"
0*!
1Y#
14"
1G!
0F!
1"!
1*
#41000
1"
1$!
1Y"
1*!
1m#
1\#
0]#
0+!
1["
0Z"
0/!
0-!
1,!
0<!
01!
0,!
05"
0/"
0p!
0X!
#42000
0"
0$!
0Y"
0*!
#43000
1"
1$!
1Y"
1*!
1l#
0m#
0Z#
0\#
00!
1+!
1Z"
1,!
#44000
0"
0$!
0Y"
0*!
#45000
1"
1$!
1Y"
1*!
1m#
1]#
1\"
0["
0Z"
1-!
0,!
#46000
0"
0$!
0Y"
0*!
#47000
1"
1$!
1Y"
1*!
1k#
0l#
0m#
1\#
0]#
1]"
0\"
1,!
0^#
0a"
1^"
#48000
0"
0$!
0Y"
0*!
#49000
1"
1$!
1Y"
1*!
0k#
1]#
0]"
1Z"
1.!
0-!
0,!
#50000
1%
0"
1J!
0$!
15"
0Y"
0*!
#51000
1"
1$!
1Y"
1*!
1m#
1[#
0\#
0]#
1["
0Z"
1,!
#52000
0"
0$!
0Y"
0*!
#53000
1"
1$!
1Y"
1*!
1l#
0m#
1]#
10!
1Z"
1-!
0,!
1<!
11!
1/"
1p!
1X!
18#
18!
07!
05!
12!
1W
1F
#54000
0"
0$!
0Y"
0*!
#55000
1"
1$!
1Y"
1*!
1m#
1\#
0]#
1\"
0["
0Z"
1,!
#56000
0"
0$!
0Y"
0*!
#57000
1"
1$!
1Y"
1*!
1k#
0l#
0m#
1]#
1]"
0\"
1/!
0.!
0-!
0,!
1`#
1_"
0^"
#58000
0"
0$!
0Y"
0*!
#59000
1"
1$!
1Y"
1*!
0k#
1Z#
0[#
0\#
0]#
0]"
1Z"
1,!
#60000
0%
0"
0J!
0$!
0Y"
0*!
#61000
1"
1$!
1Y"
1*!
1m#
1]#
1["
0Z"
1-!
0,!
#62000
0"
0$!
0Y"
0*!
#63000
1"
1$!
1Y"
1*!
1l#
0m#
1\#
0]#
0+!
1Z"
0/!
0-!
1,!
0<!
01!
0,!
05"
0/"
0p!
0X!
#64000
0"
0$!
0Y"
0*!
#65000
1"
1$!
1Y"
1*!
1m#
0Z#
0\#
00!
1+!
1\"
0["
0Z"
1,!
#66000
0"
0$!
0Y"
0*!
#67000
1"
1$!
1Y"
1*!
1k#
0l#
0m#
1]#
1]"
0\"
1-!
0,!
1_#
0`#
1^"
#68000
0"
0$!
0Y"
0*!
#69000
1"
1$!
1Y"
1*!
0k#
1\#
0]#
0]"
1Z"
1,!
#70000
1%
0"
1J!
0$!
15"
0Y"
0*!
#71000
1"
1$!
1Y"
1*!
1m#
1]#
1["
0Z"
1.!
0-!
0,!
#72000
0"
0$!
0Y"
0*!
#73000
1"
1$!
1Y"
1*!
1l#
0m#
1[#
0\#
0]#
1Z"
1,!
#74000
0"
0$!
0Y"
0*!
#75000
1"
1$!
1Y"
1*!
1m#
1]#
10!
1\"
0["
0Z"
1-!
0,!
1<!
11!
1/"
1p!
1X!
08#
07#
16#
08!
17!
09!
1:!
1Y
0X
0W
0F
0E
1D
#76000
0"
0$!
0Y"
0*!
#77000
1"
1$!
1Y"
1*!
1k#
0l#
0m#
1\#
0]#
1]"
0\"
1,!
1`#
1`"
0_"
0^"
#78000
0"
0$!
0Y"
0*!
#79000
1"
1$!
1Y"
1*!
0k#
1]#
0]"
1Z"
1/!
0.!
0-!
0,!
#80000
0$
0%
0"
0J!
0$!
0E!
0Y"
0*!
#81000
1"
1$!
1Y"
1*!
1m#
1Z#
0[#
0\#
0]#
1["
0Z"
1,!
#82000
0"
0$!
0Y"
0*!
#83000
1"
1$!
1Y"
1*!
1l#
0m#
1]#
1Z"
1-!
0,!
#84000
0"
0$!
0Y"
0*!
#85000
1"
1$!
1Y"
1*!
1m#
1\#
0]#
0+!
1\"
0["
0Z"
0/!
0-!
1,!
0<!
01!
0,!
05"
0/"
0p!
0X!
#86000
0"
0$!
0Y"
0*!
#87000
1"
1$!
1Y"
1*!
1k#
0l#
0m#
0Z#
0\#
00!
1+!
1]"
0\"
1,!
1^#
0_#
0`#
1a"
0`"
1i#
0j#
1b"
#88000
0"
0$!
0Y"
0*!
#89000
1"
1$!
1Y"
1*!
0k#
1]#
0]"
1Z"
1-!
0,!
#90000
1%
0"
1J!
0$!
15"
0Y"
0*!
#91000
1"
1$!
1Y"
1*!
1m#
1\#
0]#
1["
0Z"
1,!
#92000
0"
0$!
0Y"
0*!
#93000
1"
1$!
1Y"
1*!
1l#
0m#
1]#
1Z"
1.!
0-!
0,!
#94000
0"
0$!
0Y"
0*!
#95000
1"
1$!
1Y"
1*!
1m#
1[#
0\#
0]#
1\"
0["
0Z"
1,!
#96000
0"
0$!
0Y"
0*!
#97000
1"
1$!
1Y"
1*!
1k#
0l#
0m#
1]#
10!
1]"
0\"
1-!
0,!
1<!
11!
1/"
1p!
1X!
18#
0^#
18!
07!
15!
0a"
1^"
1W
1F
#98000
0"
0$!
0Y"
0*!
#99000
1#
1"
1&!
1$!
1Y"
1*!
0k#
1\#
0]#
0]"
1Z"
1,!
#100000
0%
0#
0"
0J!
0&!
0$!
0Y"
0*!
#101000
1"
1$!
1Y"
1*!
1m#
1]#
1["
0Z"
1/!
0.!
0-!
0,!
#102000
0"
0$!
0Y"
0*!
#103000
1"
1$!
1Y"
1*!
1l#
0m#
1Z#
0[#
0\#
0]#
1Z"
1,!
#104000
0"
0$!
0Y"
0*!
#105000
1"
1$!
1Y"
1*!
1m#
1]#
1\"
0["
0Z"
1-!
0,!
#106000
0"
0$!
0Y"
0*!
#107000
1"
1$!
1Y"
1*!
1k#
0l#
0m#
1\#
0]#
0+!
1]"
0\"
0/!
0-!
1,!
0<!
01!
0,!
05"
0/"
0p!
0X!
1`#
1_"
0^"
#108000
0"
0$!
0Y"
0*!
#109000
1"
1$!
1Y"
1*!
0k#
0Z#
0\#
00!
1+!
0]"
1Z"
1,!
#110000
1%
0"
1J!
0$!
15"
0Y"
0*!
#111000
1"
1$!
1Y"
1*!
1m#
1]#
1["
0Z"
1-!
0,!
#112000
0"
0$!
0Y"
0*!
#113000
1"
1$!
1Y"
1*!
1l#
0m#
1\#
0]#
1Z"
1,!
#114000
0"
0$!
0Y"
0*!
#115000
1"
1$!
1Y"
1*!
1m#
1]#
1\"
0["
0Z"
1.!
0-!
0,!
#116000
0"
0$!
0Y"
0*!
#117000
1"
1$!
1Y"
1*!
1k#
0l#
0m#
1[#
0\#
0]#
1]"
0\"
1,!
1_#
0`#
1^"
#118000
0"
0$!
0Y"
0*!
