simulation/qsim/Projeto_2.msim.vcd
$comment
	File created using the following command:
		vcd file Projeto_2.msim.vcd -direction
$end
$date
	Mon Jul 26 22:45:41 2021
$end
$version
	ModelSim Version 2020.1
$end
$timescale
	1ps
$end

$scope module despertador_vlg_vec_tst $end
$var reg 1 ! ajuste $end
$var reg 1 " clk $end
$var reg 1 # troca_modo $end
$var reg 1 $ trocar $end
$var reg 1 % up $end
$var wire 1 & AnodeOutput [3] $end
$var wire 1 ' AnodeOutput [2] $end
$var wire 1 ( AnodeOutput [1] $end
$var wire 1 ) AnodeOutput [0] $end
$var wire 1 * digito_selecionado [3] $end
$var wire 1 + digito_selecionado [2] $end
$var wire 1 , digito_selecionado [1] $end
$var wire 1 - digito_selecionado [0] $end
$var wire 1 . horas_dezenas [3] $end
$var wire 1 / horas_dezenas [2] $end
$var wire 1 0 horas_dezenas [1] $end
$var wire 1 1 horas_dezenas [0] $end
$var wire 1 2 horas_unidades [3] $end
$var wire 1 3 horas_unidades [2] $end
$var wire 1 4 horas_unidades [1] $end
$var wire 1 5 horas_unidades [0] $end
$var wire 1 6 min_dezenas [3] $end
$var wire 1 7 min_dezenas [2] $end
$var wire 1 8 min_dezenas [1] $end
$var wire 1 9 min_dezenas [0] $end
$var wire 1 : min_unidades [3] $end
$var wire 1 ; min_unidades [2] $end
$var wire 1 < min_unidades [1] $end
$var wire 1 = min_unidades [0] $end
$var wire 1 > sec_dezenas [3] $end
$var wire 1 ? sec_dezenas [2] $end
$var wire 1 @ sec_dezenas [1] $end
$var wire 1 A sec_dezenas [0] $end
$var wire 1 B sec_unidades [3] $end
$var wire 1 C sec_unidades [2] $end
$var wire 1 D sec_unidades [1] $end
$var wire 1 E sec_unidades [0] $end
$var wire 1 F Seg7Output [6] $end
$var wire 1 G Seg7Output [5] $end
$var wire 1 H Seg7Output [4] $end
$var wire 1 I Seg7Output [3] $end
$var wire 1 J Seg7Output [2] $end
$var wire 1 K Seg7Output [1] $end
$var wire 1 L Seg7Output [0] $end
$var wire 1 M tc_horas $end
$var wire 1 N tc_minutos $end
$var wire 1 O tc_segundos $end

$scope module i1 $end
$var wire 1 P gnd $end
$var wire 1 Q vcc $end
$var wire 1 R unknown $end
$var tri1 1 S devclrn $end
$var tri1 1 T devpor $end
$var tri1 1 U devoe $end
$var wire 1 V troca_modo~input_o $end
$var wire 1 W sec_unidades[0]~output_o $end
$var wire 1 X sec_unidades[1]~output_o $end
$var wire 1 Y sec_unidades[2]~output_o $end
$var wire 1 Z sec_unidades[3]~output_o $end
$var wire 1 [ sec_dezenas[0]~output_o $end
$var wire 1 \ sec_dezenas[1]~output_o $end
$var wire 1 ] sec_dezenas[2]~output_o $end
$var wire 1 ^ sec_dezenas[3]~output_o $end
$var wire 1 _ min_unidades[0]~output_o $end
$var wire 1 ` min_unidades[1]~output_o $end
$var wire 1 a min_unidades[2]~output_o $end
$var wire 1 b min_unidades[3]~output_o $end
$var wire 1 c min_dezenas[0]~output_o $end
$var wire 1 d min_dezenas[1]~output_o $end
$var wire 1 e min_dezenas[2]~output_o $end
$var wire 1 f min_dezenas[3]~output_o $end
$var wire 1 g horas_unidades[0]~output_o $end
$var wire 1 h horas_unidades[1]~output_o $end
$var wire 1 i horas_unidades[2]~output_o $end
$var wire 1 j horas_unidades[3]~output_o $end
$var wire 1 k horas_dezenas[0]~output_o $end
$var wire 1 l horas_dezenas[1]~output_o $end
$var wire 1 m horas_dezenas[2]~output_o $end
$var wire 1 n horas_dezenas[3]~output_o $end
$var wire 1 o tc_segundos~output_o $end
$var wire 1 p tc_minutos~output_o $end
$var wire 1 q tc_horas~output_o $end
$var wire 1 r Seg7Output[0]~output_o $end
$var wire 1 s Seg7Output[1]~output_o $end
$var wire 1 t Seg7Output[2]~output_o $end
$var wire 1 u Seg7Output[3]~output_o $end
$var wire 1 v Seg7Output[4]~output_o $end
$var wire 1 w Seg7Output[5]~output_o $end
$var wire 1 x Seg7Output[6]~output_o $end
$var wire 1 y AnodeOutput[0]~output_o $end
$var wire 1 z AnodeOutput[1]~output_o $end
$var wire 1 { AnodeOutput[2]~output_o $end
$var wire 1 | AnodeOutput[3]~output_o $end
$var wire 1 } digito_selecionado[0]~output_o $end
$var wire 1 ~ digito_selecionado[1]~output_o $end
$var wire 1 !! digito_selecionado[2]~output_o $end
$var wire 1 "! digito_selecionado[3]~output_o $end
$var wire 1 #! clk~input_o $end
$var wire 1 $! cont_clock|count[3]~3_combout $end
$var wire 1 %! cont_clock|count[2]~2_combout $end
$var wire 1 &! cont_clock|count[0]~1_combout $end
$var wire 1 '! cont_clock|count[1]~0_combout $end
$var wire 1 (! cont_clock|op_3~0_combout $end
$var wire 1 )! cont_clock|op_4~0_combout $end
$var wire 1 *! _~6_combout $end
$var wire 1 +! ajuste~input_o $end
$var wire 1 ,! _~0_combout $end
$var wire 1 -! mod10_seg|_~3_combout $end
$var wire 1 .! mod10_seg|_~4_combout $end
$var wire 1 /! mod10_seg|_~2_combout $end
$var wire 1 0! mod10_seg|_~1_combout $end
$var wire 1 1! _~1_combout $end
$var wire 1 2! mod10_seg|_~0_combout $end
$var wire 1 3! mod6_seg|count[2]~2_combout $end
$var wire 1 4! mod6_seg|count[1]~1_combout $end
$var wire 1 5! mod6_seg|count[0]~0_combout $end
$var wire 1 6! trocar~input_o $end
$var wire 1 7! select_dig|digito[3]~8_combout $end
$var wire 1 8! select_dig|_~0_combout $end
$var wire 1 9! select_dig|digito[1]~5_combout $end
$var wire 1 :! select_dig|digito[0]~4_combout $end
$var wire 1 ;! up~input_o $end
$var wire 1 <! _~2_combout $end
$var wire 1 =! mod10_min|count[2]~2_combout $end
$var wire 1 >! mod6_seg|tc~2_combout $end
$var wire 1 ?! _~9_combout $end
$var wire 1 @! mod10_min|op_2~0_combout $end
$var wire 1 A! mod10_min|count[3]~3_combout $end
$var wire 1 B! mod10_min|count[1]~1_combout $end
$var wire 1 C! mod10_min|op_1~0_combout $end
$var wire 1 D! mod10_min|count[0]~0_combout $end
$var wire 1 E! _~3_combout $end
$var wire 1 F! mod6_min|count[2]~2_combout $end
$var wire 1 G! mod10_min|tc~0_combout $end
$var wire 1 H! _~7_combout $end
$var wire 1 I! mod6_min|count[1]~1_combout $end
$var wire 1 J! mod6_min|count[0]~0_combout $end
$var wire 1 K! select_dig|digito[2]~6_combout $end
$var wire 1 L! _~4_combout $end
$var wire 1 M! select_dig|digito[3]~7_combout $end
$var wire 1 N! _~5_combout $end
$var wire 1 O! mod6_min|tc~combout $end
$var wire 1 P! mod24|high[0]~4_combout $end
$var wire 1 Q! mod24|_~10_combout $end
$var wire 1 R! mod24|_~4_combout $end
$var wire 1 S! mod6_min|tc~2_combout $end
$var wire 1 T! mod24|low[1]~2_combout $end
$var wire 1 U! mod24|_~11_combout $end
$var wire 1 V! mod24|_~6_combout $end
$var wire 1 W! mod24|_~12_combout $end
$var wire 1 X! mod24|time~1_combout $end
$var wire 1 Y! _~8_combout $end
$var wire 1 Z! mod24|low[2]~6_combout $end
$var wire 1 [! mod24|op_2~0_combout $end
$var wire 1 \! mod24|low[2]~7_combout $end
$var wire 1 ]! mod24|_~9_combout $end
$var wire 1 ^! mod24|low[1]~3_combout $end
$var wire 1 _! mod24|low[1]~4_combout $end
$var wire 1 `! mod24|low[1]~5_combout $end
$var wire 1 a! mod24|op_1~0_combout $end
$var wire 1 b! mod24|_~8_combout $end
$var wire 1 c! mod24|op_2~1_combout $end
$var wire 1 d! mod24|low[3]~8_combout $end
$var wire 1 e! mod24|low[3]~9_combout $end
$var wire 1 f! mod24|_~7_combout $end
$var wire 1 g! mod24|high[0]~9_combout $end
$var wire 1 h! mod24|high[0]~5_combout $end
$var wire 1 i! mod24|high[1]~6_combout $end
$var wire 1 j! mod24|high[1]~7_combout $end
$var wire 1 k! mod24|high[1]~8_combout $end
$var wire 1 l! mod24|time~0_combout $end
$var wire 1 m! mod24|_~5_combout $end
$var wire 1 n! mod24|low[0]~0_combout $end
$var wire 1 o! mod24|low[0]~1_combout $end
$var wire 1 p! mod6_seg|tc~combout $end
$var wire 1 q! mod24|time~2_combout $end
$var wire 1 r! refresh_clock|mod5|_~4_combout $end
$var wire 1 s! refresh_clock|mod5|_~3_combout $end
$var wire 1 t! refresh_clock|mod5|_~2_combout $end
$var wire 1 u! refresh_clock|mod5|_~0_combout $end
$var wire 1 v! refresh_clock|mod5_2|_~4_combout $end
$var wire 1 w! refresh_clock|mod5_2|_~3_combout $end
$var wire 1 x! refresh_clock|mod5_2|_~2_combout $end
$var wire 1 y! refresh_clock|mod5_2|_~0_combout $end
$var wire 1 z! refresh_clock|mod5_3|_~4_combout $end
$var wire 1 {! refresh_clock|mod5_3|_~3_combout $end
$var wire 1 |! refresh_clock|mod5_3|_~2_combout $end
$var wire 1 }! refresh_clock|mod5_3|_~0_combout $end
$var wire 1 ~! refresh_clock|mod5_4|_~4_combout $end
$var wire 1 !" refresh_clock|mod5_4|_~3_combout $end
$var wire 1 "" refresh_clock|mod5_4|_~2_combout $end
$var wire 1 #" refresh_clock|mod5_4|_~0_combout $end
$var wire 1 $" refresh_clock|mod10|_~3_combout $end
$var wire 1 %" refresh_clock|mod10|_~5_combout $end
$var wire 1 &" refresh_clock|mod10|_~4_combout $end
$var wire 1 '" refresh_clock|mod10|_~2_combout $end
$var wire 1 (" refresh_clock|mod10|_~0_combout $end
$var wire 1 )" refresh_clock|clk_saida~0_combout $end
$var wire 1 *" refresh_clock|clk_saida~q $end
$var wire 1 +" chaveador|count[0]~1_combout $end
$var wire 1 ," chaveador|_~0_combout $end
$var wire 1 -" mux|dout[1]~16_combout $end
$var wire 1 ." mux|dout[1]~17_combout $end
$var wire 1 /" mux|dout[2]~18_combout $end
$var wire 1 0" mux|dout[0]~19_combout $end
$var wire 1 1" mux|dout[0]~20_combout $end
$var wire 1 2" bcd_7Seg_dec|a~combout $end
$var wire 1 3" bcd_7Seg_dec|b~1_combout $end
$var wire 1 4" bcd_7Seg_dec|_~0_combout $end
$var wire 1 5" bcd_7Seg_dec|d~2_combout $end
$var wire 1 6" bcd_7Seg_dec|e~1_combout $end
$var wire 1 7" bcd_7Seg_dec|f~0_combout $end
$var wire 1 8" bcd_7Seg_dec|g~1_combout $end
$var wire 1 9" decoder|saida[2]~4_combout $end
$var wire 1 :" decoder|saida[2]~5_combout $end
$var wire 1 ;" decoder|saida[2]~6_combout $end
$var wire 1 <" decoder|saida[3]~7_combout $end
$var wire 1 =" mod10_seg|count [3] $end
$var wire 1 >" mod10_seg|count [2] $end
$var wire 1 ?" mod10_seg|count [1] $end
$var wire 1 @" mod10_seg|count [0] $end
$var wire 1 A" mod24|high [3] $end
$var wire 1 B" mod24|high [2] $end
$var wire 1 C" mod24|high [1] $end
$var wire 1 D" mod24|high [0] $end
$var wire 1 E" mod6_seg|count [3] $end
$var wire 1 F" mod6_seg|count [2] $end
$var wire 1 G" mod6_seg|count [1] $end
$var wire 1 H" mod6_seg|count [0] $end
$var wire 1 I" select_dig|count [2] $end
$var wire 1 J" select_dig|count [1] $end
$var wire 1 K" select_dig|count [0] $end
$var wire 1 L" mod6_min|count [3] $end
$var wire 1 M" mod6_min|count [2] $end
$var wire 1 N" mod6_min|count [1] $end
$var wire 1 O" mod6_min|count [0] $end
$var wire 1 P" mod10_min|count [3] $end
$var wire 1 Q" mod10_min|count [2] $end
$var wire 1 R" mod10_min|count [1] $end
$var wire 1 S" mod10_min|count [0] $end
$var wire 1 T" mod24|low [3] $end
$var wire 1 U" mod24|low [2] $end
$var wire 1 V" mod24|low [1] $end
$var wire 1 W" mod24|low [0] $end
$var wire 1 X" chaveador|count [1] $end
$var wire 1 Y" chaveador|count [0] $end
$var wire 1 Z" mux|dout [3] $end
$var wire 1 [" mux|dout [2] $end
$var wire 1 \" mux|dout [1] $end
$var wire 1 ]" mux|dout [0] $end
$var wire 1 ^" cont_clock|count [3] $end
$var wire 1 _" cont_clock|count [2] $end
$var wire 1 `" cont_clock|count [1] $end
$var wire 1 a" cont_clock|count [0] $end
$var wire 1 b" refresh_clock|mod10|count [3] $end
$var wire 1 c" refresh_clock|mod10|count [2] $end
$var wire 1 d" refresh_clock|mod10|count [1] $end
$var wire 1 e" refresh_clock|mod10|count [0] $end
$var wire 1 f" refresh_clock|mod5_4|count [2] $end
$var wire 1 g" refresh_clock|mod5_4|count [1] $end
$var wire 1 h" refresh_clock|mod5_4|count [0] $end
$var wire 1 i" refresh_clock|mod5_3|count [2] $end
$var wire 1 j" refresh_clock|mod5_3|count [1] $end
$var wire 1 k" refresh_clock|mod5_3|count [0] $end
$var wire 1 l" refresh_clock|mod5_2|count [2] $end
$var wire 1 m" refresh_clock|mod5_2|count [1] $end
$var wire 1 n" refresh_clock|mod5_2|count [0] $end
$var wire 1 o" refresh_clock|mod5|count [2] $end
$var wire 1 p" refresh_clock|mod5|count [1] $end
$var wire 1 q" refresh_clock|mod5|count [0] $end
$upscope $end
$upscope $end
$enddefinitions $end
#0
$dumpvars
1!
0"
0#
0$
0%
1)
1(
1'
0&
0-
0,
0+
0*
01
00
0/
0.
05
04
03
02
09
08
07
06
0=
0<
0;
0:
0A
0@
0?
0>
0E
0D
0C
0B
0L
0K
0J
0I
0H
0G
1F
0M
0N
0O
0P
1Q
xR
1S
1T
1U
0V
0W
0X
0Y
0Z
0[
0\
0]
0^
0_
0`
0a
0b
0c
0d
0e
0f
0g
0h
0i
0j
0k
0l
0m
0n
0o
0p
0q
0r
0s
0t
0u
0v
0w
1x
1y
1z
1{
0|
0}
0~
0!!
0"!
0#!
0$!
0%!
1&!
0'!
1(!
0)!
0*!
1+!
0,!
0-!
0.!
0/!
10!
01!
02!
03!
04!
05!
06!
17!
08!
09!
0:!
0;!
0<!
0=!
0>!
1?!
0@!
0A!
0B!
1C!
1D!
0E!
0F!
0G!
1H!
0I!
1J!
0K!
0L!
0M!
0N!
0O!
1P!
0Q!
0R!
0S!
1T!
0U!
1V!
0W!
0X!
1Y!
0Z!
0[!
0\!
0]!
0^!
1_!
0`!
1a!
1b!
0c!
0d!
0e!
0f!
0g!
1h!
0i!
0j!
0k!
0l!
0m!
1n!
1o!
0p!
0q!
1r!
0s!
0t!
0u!
1v!
0w!
0x!
0y!
1z!
0{!
0|!
0}!
1~!
0!"
0""
0#"
1$"
0%"
0&"
0'"
0("
1)"
0*"
1+"
0,"
0-"
1."
0/"
00"
01"
02"
03"
04"
05"
06"
07"
18"
09"
0:"
0;"
0<"
0@"
0?"
0>"
0="
0D"
0C"
zB"
zA"
0H"
0G"
0F"
zE"
0K"
0J"
0I"
0O"
0N"
0M"
zL"
0S"
0R"
0Q"
0P"
0W"
0V"
0U"
0T"
0Y"
0X"
z]"
z\"
0["
0Z"
0a"
0`"
0_"
0^"
0e"
0d"
0c"
0b"
0h"
0g"
0f"
0k"
0j"
0i"
0n"
0m"
0l"
0q"
0p"
0o"
$end
#1000
1"
1#!
1q"
1a"
1s!
0r!
1'!
0&!
#2000
0"
0#!
#3000
1"
1#!
1p"
0q"
1`"
0a"
1)!
1r!
1&!
#4000
0"
0#!
#5000
1%
1"
1;!
1#!
1q"
1a"
1t!
0s!
0r!
0'!
0&!
1%!
#6000
0"
0#!
#7000
1"
1#!
1o"
0p"
0q"
0`"
0a"
1_"
1u!
0t!
1&!
1n"
1w!
0v!
#8000
0"
0#!
#9000
1"
1#!
0o"
1a"
0(!
0u!
1r!
1'!
0&!
1*!
#10000
0%
0"
0;!
0#!
#11000
1"
1#!
1q"
1`"
0a"
1s!
0r!
1&!
#12000
0"
0#!
#13000
1"
1#!
1p"
0q"
1a"
1r!
0'!
0&!
0%!
1$!
#14000
0"
0#!
#15000
1%
1"
1;!
1#!
1q"
0`"
0a"
0_"
1^"
0)!
1(!
0*!
1t!
0s!
0r!
1&!
1*!
#16000
0"
0#!
#17000
1"
1#!
1o"
0p"
0q"
1a"
1u!
0t!
1'!
0&!
1m"
0n"
1v!
#18000
0"
0#!
#19000
1"
1#!
0o"
1`"
0a"
1)!
0u!
1r!
0'!
0$!
0*!
#20000
1$
0%
0"
0;!
16!
0#!
1K"
1M!
18!
07!
1"!
1*
#21000
1"
1#!
1q"
0`"
0^"
0)!
1s!
0r!
1&!
#22000
0"
0#!
#23000
1"
1#!
1p"
0q"
1a"
1r!
1'!
0&!
#24000
0"
0#!
#25000
1%
1"
1;!
1#!
1N!
1q"
1`"
0a"
1D"
1k
1)!
11"
1i!
1g!
0P!
11
1t!
0s!
0r!
1&!
17"
16"
15"
12"
1k!
0h!
1r
1u
1v
1w
1G
1H
1I
1L
#26000
0"
0#!
#27000
1"
1#!
1o"
0p"
0q"
1a"
1u!
0t!
0'!
0&!
1%!
1n"
1x!
0w!
0v!
#28000
0"
0#!
#29000
1"
1#!
0o"
0`"
0a"
1_"
0u!
1r!
1&!
#30000
0%
0"
0;!
0#!
0N!
#31000
1"
1#!
1q"
1a"
0(!
1s!
0r!
1'!
0&!
1*!
#32000
0"
0#!
#33000
1"
1#!
1p"
0q"
1`"
0a"
1r!
1&!
#34000
0"
0#!
#35000
1%
1"
1;!
1#!
1N!
1q"
1a"
1C"
0D"
0k
1l
0."
1l!
0i!
0b!
0V!
01"
0g!
10
01
1t!
0s!
0r!
0'!
0&!
0%!
1$!
1j!
1]!
0n!
0_!
08"
06"
05"
14"
02"
0k!
0r
1t
0u
0v
0x
1n!
1^!
0F
0H
0I
1J
0L
0o!
1_!
1o!
#36000
0"
0#!
#37000
1"
1#!
1o"
0p"
0q"
0`"
0a"
0_"
1^"
0)!
1(!
0*!
1u!
0t!
1&!
1*!
1l"
0m"
0n"
1y!
0x!
1k"
1{!
0z!
#38000
0"
0#!
#39000
1"
1#!
0o"
1a"
0u!
1r!
1'!
0&!
#40000
0$
0%
0"
0;!
06!
0#!
0N!
#41000
1"
1#!
1q"
1`"
0a"
1)!
1s!
0r!
0'!
0$!
0*!
#42000
0"
0#!
#43000
1"
1#!
1p"
0q"
0`"
0^"
0)!
1r!
1&!
#44000
0"
0#!
#45000
1%
1"
1;!
1#!
1N!
1q"
1a"
0C"
0l
1."
0l!
1b!
1V!
1P!
00
1t!
0s!
0r!
1'!
0&!
0j!
0]!
18"
07"
04"
1h!
0t
0w
1x
0^!
1F
0G
0J
#46000
0"
0#!
#47000
1"
1#!
1o"
0p"
0q"
1`"
0a"
1)!
1u!
0t!
1&!
0l"
0y!
1v!
#48000
0"
0#!
#49000
1"
1#!
0o"
1a"
0u!
1r!
0'!
0&!
1%!
#50000
0%
0"
0;!
0#!
0N!
#51000
1"
1#!
1q"
0`"
0a"
1_"
1s!
0r!
1&!
#52000
0"
0#!
#53000
1"
1#!
1p"
0q"
1a"
0(!
1r!
1'!
0&!
1*!
#54000
0"
0#!
#55000
1%
1"
1;!
1#!
1N!
1q"
1`"
0a"
1D"
1k
11"
1i!
1g!
0P!
11
1t!
0s!
0r!
1&!
17"
16"
15"
12"
1k!
0h!
1r
1u
1v
1w
1G
1H
1I
1L
#56000
0"
0#!
#57000
1"
1#!
1o"
0p"
0q"
1a"
1u!
0t!
0'!
0&!
0%!
1$!
1n"
1w!
0v!
#58000
0"
0#!
#59000
1"
1#!
0o"
0`"
0a"
0_"
1^"
0)!
1(!
0*!
0u!
1r!
1&!
1*!
#60000
1$
0%
0"
0;!
16!
0#!
0N!
1J"
0K"
0M!
1K!
17!
1!!
0"!
0*
1+
#61000
1"
1#!
1q"
1a"
1s!
0r!
1'!
0&!
#62000
0"
0#!
#63000
1"
1#!
1p"
0q"
1`"
0a"
1)!
1r!
0'!
0$!
0*!
#64000
0"
0#!
#65000
1%
1"
1;!
1#!
1L!
1q"
0`"
0^"
1W"
1g
0)!
15
1t!
0s!
0r!
1&!
0o!
1`!
#66000
0"
0#!
#67000
1"
1#!
1o"
0p"
0q"
1a"
1u!
0t!
1'!
0&!
1m"
0n"
1v!
#68000
0"
0#!
#69000
1"
1#!
0o"
1`"
0a"
1)!
0u!
1r!
1&!
#70000
0%
0"
0;!
0#!
0L!
#71000
1"
1#!
1q"
1a"
1s!
0r!
0'!
0&!
1%!
#72000
0"
0#!
#73000
1"
1#!
1p"
0q"
0`"
0a"
1_"
1r!
1&!
#74000
0"
0#!
#75000
1%
1"
1;!
1#!
1L!
1q"
1a"
0W"
1V"
1h
0g
0(!
05
14
1t!
0s!
0r!
1'!
0&!
1o!
1*!
#76000
0"
0#!
#77000
1"
1#!
1o"
0p"
0q"
1`"
0a"
1u!
0t!
1&!
1n"
1x!
0w!
0v!
#78000
0"
0#!
#79000
1"
1#!
0o"
1a"
0u!
1r!
0'!
0&!
0%!
1$!
#80000
0$
0%
0"
0;!
06!
0#!
0L!
#81000
1"
1#!
1q"
0`"
0a"
0_"
1^"
0)!
1(!
0*!
1s!
0r!
1&!
1*!
#82000
0"
0#!
#83000
1"
1#!
1p"
0q"
1a"
1r!
1'!
0&!
#84000
0"
0#!
#85000
1%
1"
1;!
1#!
1L!
1q"
1`"
0a"
1W"
1g
1)!
1[!
1X!
15
1t!
0s!
0r!
0'!
0$!
0o!
0`!
0*!
1Z!
1\!
#86000
0"
0#!
#87000
1"
1#!
1o"
0p"
0q"
0`"
0^"
0)!
1u!
0t!
1&!
1l"
0m"
0n"
1y!
0x!
1j"
0k"
1z!
#88000
0"
0#!
#89000
1"
1#!
0o"
1a"
0u!
1r!
1'!
0&!
#90000
0%
0"
0;!
0#!
0L!
#91000
1"
1#!
1q"
1`"
0a"
1)!
1s!
0r!
1&!
#92000
0"
0#!
#93000
1"
1#!
1p"
0q"
1a"
1r!
0'!
0&!
1%!
#94000
0"
0#!
#95000
1%
1"
1;!
1#!
1L!
1q"
0`"
0a"
1_"
0W"
0V"
1U"
1i
0h
0g
0X!
0Z!
05
04
13
1t!
0s!
0r!
1&!
1o!
1Z!
0\!
1\!
#96000
0"
0#!
#97000
1"
1#!
1o"
0p"
0q"
1a"
0(!
1u!
0t!
1'!
0&!
1*!
0l"
0y!
1v!
#98000
0"
0#!
#99000
1"
1#!
0o"
1`"
0a"
0u!
1r!
1&!
#100000
1$
0%
0"
0;!
16!
0#!
0L!
1K"
0K!
19!
08!
07!
1~
0!!
0+
1,
#101000
1"
1#!
1q"
1a"
1s!
0r!
0'!
0&!
0%!
1$!
#102000
0"
0#!
#103000
1"
1#!
1p"
0q"
0`"
0a"
0_"
1^"
0)!
1(!
0*!
1r!
1&!
1*!
#104000
0"
0#!
#105000
1%
1"
1;!
1#!
1E!
1q"
1a"
1O"
1c
19
1t!
0s!
0r!
1'!
0&!
0J!
1I!
#106000
0"
0#!
#107000
1"
1#!
1o"
0p"
0q"
1`"
0a"
1)!
1u!
0t!
0'!
0$!
0*!
1n"
1w!
0v!
#108000
0"
0#!
#109000
1"
1#!
0o"
0`"
0^"
0)!
0u!
1r!
1&!
#110000
0%
0"
0;!
0#!
0E!
#111000
1"
1#!
1q"
1a"
1s!
0r!
1'!
0&!
#112000
0"
0#!
#113000
1"
1#!
1p"
0q"
1`"
0a"
1)!
1r!
1&!
#114000
0"
0#!
#115000
1%
1"
1;!
1#!
1E!
1q"
1a"
0O"
1N"
1d
0c
09
18
1t!
0s!
0r!
0'!
0&!
1%!
1J!
#116000
0"
0#!
#117000
1"
1#!
1o"
0p"
0q"
0`"
0a"
1_"
1u!
0t!
1&!
1m"
0n"
1v!
#118000
0"
0#!
#119000
1"
1#!
0o"
1a"
0(!
0u!
1r!
1'!
0&!
1*!
#120000
0$
0%
0"
0;!
06!
0#!
0E!
#121000
1"
1#!
1q"
1`"
0a"
1s!
0r!
1&!
#122000
0"
0#!
#123000
1"
1#!
1p"
0q"
1a"
1r!
0'!
0&!
0%!
1$!
#124000
0"
0#!
#125000
1%
1"
1;!
1#!
1E!
1q"
0`"
0a"
0_"
1^"
1O"
1c
0)!
1(!
0*!
19
1t!
0s!
0r!
1&!
0J!
0I!
1F!
1*!
#126000
0"
0#!
#127000
1"
1#!
1o"
0p"
0q"
1a"
1u!
0t!
1'!
0&!
1n"
1x!
0w!
0v!
#128000
0"
0#!
#129000
1"
1#!
0o"
1`"
0a"
1)!
0u!
1r!
0'!
0$!
0*!
#130000
0%
0"
0;!
0#!
0E!
#131000
1"
1#!
1q"
0`"
0^"
0)!
1s!
0r!
1&!
#132000
0"
0#!
#133000
1"
1#!
1p"
0q"
1a"
1r!
1'!
0&!
#134000
0"
0#!
#135000
1%
1"
1;!
1#!
1E!
1q"
1`"
0a"
0O"
0N"
1M"
1e
0d
0c
1)!
09
08
17
1t!
0s!
0r!
1&!
1J!
#136000
0"
0#!
#137000
1"
1#!
1o"
0p"
0q"
1a"
1u!
0t!
0'!
0&!
1%!
1l"
0m"
0n"
1y!
0x!
1k"
1|!
0{!
0z!
#138000
0"
0#!
#139000
1"
1#!
0o"
0`"
0a"
1_"
0u!
1r!
1&!
#140000
1$
0%
0"
0;!
16!
0#!
0E!
1I"
0J"
0K"
1:!
09!
17!
0~
1}
1-
0,
#141000
1"
1#!
1q"
1a"
0(!
1s!
0r!
1'!
0&!
1*!
#142000
0"
0#!
#143000
1"
1#!
1p"
0q"
1`"
0a"
1r!
1&!
#144000
0"
0#!
#145000
1%
1"
1;!
1#!
1<!
1q"
1a"
1S"
1_
1=
1t!
0s!
0r!
0'!
0&!
0%!
1$!
0D!
1B!
#146000
0"
0#!
#147000
1"
1#!
1o"
0p"
0q"
0`"
0a"
0_"
1^"
0)!
1(!
0*!
1u!
0t!
1&!
1*!
0l"
0y!
1v!
#148000
0"
0#!
#149000
1"
1#!
0o"
1a"
0u!
1r!
1'!
0&!
#150000
0%
0"
0;!
0#!
0<!
#151000
1"
1#!
1q"
1`"
0a"
1)!
1s!
0r!
0'!
0$!
0*!
#152000
0"
0#!
#153000
1"
1#!
1p"
0q"
0`"
0^"
0)!
1r!
1&!
#154000
0"
0#!
#155000
1%
1"
1;!
1#!
1<!
1q"
1a"
0S"
1R"
1`
0_
0=
1<
1t!
0s!
0r!
1'!
0&!
1D!
#156000
0"
0#!
#157000
1"
1#!
1o"
0p"
0q"
1`"
0a"
1)!
1u!
0t!
1&!
1n"
1w!
0v!
#158000
0"
0#!
#159000
1"
1#!
0o"
1a"
0u!
1r!
0'!
0&!
1%!
#160000
0$
0%
0"
0;!
06!
0#!
0<!
#161000
1"
1#!
1q"
0`"
0a"
1_"
1s!
0r!
1&!
#162000
0"
0#!
#163000
1"
1#!
1p"
0q"
1a"
0(!
1r!
1'!
0&!
1*!
#164000
0"
0#!
#165000
1%
1"
1;!
1#!
1<!
1q"
1`"
0a"
1S"
1_
1=
1t!
0s!
0r!
1&!
0D!
0B!
1=!
#166000
0"
0#!
#167000
1"
1#!
1o"
0p"
0q"
1a"
1u!
0t!
0'!
0&!
0%!
1$!
1m"
0n"
1v!
#168000
0"
0#!
#169000
1"
1#!
0o"
0`"
0a"
0_"
1^"
0)!
1(!
0*!
0u!
1r!
1&!
1*!
#170000
0%
0"
0;!
0#!
0<!
#171000
1"
1#!
1q"
1a"
1s!
0r!
1'!
0&!
#172000
0"
0#!
#173000
1"
1#!
1p"
0q"
1`"
0a"
1)!
1r!
0'!
0$!
0*!
#174000
0"
0#!
#175000
1%
1"
1;!
1#!
1<!
1q"
0`"
0^"
0S"
0R"
1Q"
1a
0`
0_
0)!
0=
0<
1;
1t!
0s!
0r!
1&!
1D!
#176000
0"
0#!
#177000
1"
1#!
1o"
0p"
0q"
1a"
1u!
0t!
1'!
0&!
1n"
1x!
0w!
0v!
#178000
0"
0#!
#179000
1"
1#!
0o"
1`"
0a"
1)!
0u!
1r!
1&!
#180000
1$
0%
0"
0;!
16!
0#!
0<!
0I"
1K"
1M!
0:!
18!
07!
0}
1"!
1*
0-
#181000
1"
1#!
1q"
1a"
1s!
0r!
0'!
0&!
1%!
#182000
0"
0#!
#183000
1"
1#!
1p"
0q"
0`"
0a"
1_"
1r!
1&!
#184000
0"
0#!
#185000
1%
1"
1;!
1#!
1N!
1q"
1a"
1C"
0D"
0k
1l
0(!
0."
1l!
0i!
0b!
0V!
01"
0g!
10
01
1t!
0s!
0r!
1'!
0&!
1*!
1j!
0n!
0_!
0Z!
08"
06"
05"
14"
02"
0k!
0r
1t
0u
0v
0x
0F
0H
0I
1J
0L
0o!
0\!
#186000
0"
0#!
#187000
1"
1#!
1o"
0p"
0q"
1`"
0a"
1u!
0t!
1&!
1l"
0m"
0n"
1y!
0x!
1i"
0j"
0k"
1}!
0|!
1h"
1!"
0~!
#188000
0"
0#!
#189000
1"
1#!
0o"
1a"
0u!
1r!
0'!
0&!
0%!
1$!
#190000
0%
0"
0;!
0#!
0N!
#191000
1"
1#!
1q"
0`"
0a"
0_"
1^"
0)!
1(!
0*!
1s!
0r!
1&!
1*!
#192000
0"
0#!
#193000
1"
1#!
1p"
0q"
1a"
1r!
1'!
0&!
#194000
0"
0#!
#195000
1%
1"
1;!
1#!
1N!
1q"
1`"
0a"
0C"
0l
1)!
1."
0l!
1b!
1V!
1P!
00
1t!
0s!
0r!
0'!
0$!
0*!
0j!
1n!
1_!
1Z!
18"
07"
04"
1h!
0t
0w
1x
1F
0G
0J
1o!
1\!
#196000
0"
0#!
#197000
1"
1#!
1o"
0p"
0q"
0`"
0^"
0)!
1u!
0t!
1&!
0l"
0y!
1v!
#198000
0"
0#!
#199000
1"
1#!
0o"
1a"
0u!
1r!
1'!
0&!
#200000
0$
0%
0"
0;!
06!
0#!
0N!
#201000
1"
1#!
1q"
1`"
0a"
1)!
1s!
0r!
1&!
#202000
0"
0#!
#203000
1"
1#!
1p"
0q"
1a"
1r!
0'!
0&!
1%!
#204000
0"
0#!
