simulation/qsim/Projeto_2.msim.vcd
$comment
	File created using the following command:
		vcd file Projeto_2.msim.vcd -direction
$end
$date
	Thu Jul 22 18:12:57 2021
$end
$version
	ModelSim Version 2020.1
$end
$timescale
	1ps
$end

$scope module contador_mod_2_vlg_vec_tst $end
$var reg 1 ! clock $end
$var reg 1 " enable $end
$var wire 1 # q [1] $end
$var wire 1 $ q [0] $end
$var wire 1 % tc $end

$scope module i1 $end
$var wire 1 & gnd $end
$var wire 1 ' vcc $end
$var wire 1 ( unknown $end
$var tri1 1 ) devclrn $end
$var tri1 1 * devpor $end
$var tri1 1 + devoe $end
$var wire 1 , q[0]~output_o $end
$var wire 1 - q[1]~output_o $end
$var wire 1 . tc~output_o $end
$var wire 1 / clock~input_o $end
$var wire 1 0 enable~input_o $end
$var wire 1 1 count[0]~0_combout $end
$var wire 1 2 count[1]~1_combout $end
$var wire 1 3 tc~0_combout $end
$var wire 1 4 count [1] $end
$var wire 1 5 count [0] $end
$upscope $end
$upscope $end
$enddefinitions $end
#0
$dumpvars
0!
1"
0$
0#
0%
0&
1'
x(
1)
1*
1+
0,
0-
0.
0/
10
11
02
03
05
04
$end
#1000
1!
1/
15
1,
1$
12
01
#2000
0!
0/
#3000
1!
1/
14
05
0,
1-
1#
0$
11
#4000
0!
0/
#5000
1!
1/
15
1,
1$
13
02
01
1.
1%
#6000
0!
0/
#7000
1!
1/
04
05
0,
0-
0#
0$
03
11
0.
0%
#8000
0!
0/
#9000
1!
1/
15
1,
1$
12
01
#10000
0!
0/
#11000
1!
1/
14
05
0,
1-
1#
0$
11
#12000
0!
0/
#13000
1!
1/
15
1,
1$
13
02
01
1.
1%
#14000
0!
0/
#15000
1!
1/
04
05
0,
0-
0#
0$
03
11
0.
0%
#16000
0!
0/
#17000
1!
1/
15
1,
1$
12
01
#18000
0!
0/
#19000
1!
1/
14
05
0,
1-
1#
0$
11
#20000
0!
0/
#21000
1!
1/
15
1,
1$
13
02
01
1.
1%
#22000
0!
0/
#23000
1!
1/
04
05
0,
0-
0#
0$
03
11
0.
0%
#24000
0!
0/
#25000
1!
1/
15
1,
1$
12
01
#26000
0!
0/
#27000
1!
1/
14
05
0,
1-
1#
0$
11
#28000
0!
0/
#29000
1!
1/
15
1,
1$
13
02
01
1.
1%
#30000
0!
0/
#31000
1!
1/
04
05
0,
0-
0#
0$
03
11
0.
0%
#32000
0!
0/
#33000
1!
1/
15
1,
1$
12
01
#34000
0!
0/
#35000
1!
1/
14
05
0,
1-
1#
0$
11
#36000
0!
0/
#37000
1!
1/
15
1,
1$
13
02
01
1.
1%
#38000
0!
0/
#39000
1!
1/
04
05
0,
0-
0#
0$
03
11
0.
0%
#40000
0!
0/
#41000
1!
1/
15
1,
1$
12
01
#42000
0!
0/
#43000
1!
1/
14
05
0,
1-
1#
0$
11
#44000
0!
0/
#45000
1!
1/
15
1,
1$
13
02
01
1.
1%
#46000
0!
0/
#47000
1!
1/
04
05
0,
0-
0#
0$
03
11
0.
0%
#48000
0!
0/
#49000
1!
1/
15
1,
1$
12
01
#50000
0!
0/
#51000
1!
1/
14
05
0,
1-
1#
0$
11
#52000
0!
0/
#53000
1!
1/
15
1,
1$
13
02
01
1.
1%
#54000
0!
0/
#55000
1!
1/
04
05
0,
0-
0#
0$
03
11
0.
0%
#56000
0!
0/
#57000
1!
1/
15
1,
1$
12
01
#58000
0!
0/
#59000
1!
1/
14
05
0,
1-
1#
0$
11
#60000
0!
0/
#61000
1!
1/
15
1,
1$
13
02
01
1.
1%
#62000
0!
0/
#63000
1!
1/
04
05
0,
0-
0#
0$
03
11
0.
0%
#64000
0!
0/
#65000
1!
1/
15
1,
1$
12
01
#66000
0!
0/
#67000
1!
1/
14
05
0,
1-
1#
0$
11
#68000
0!
0/
#69000
1!
1/
15
1,
1$
13
02
01
1.
1%
#70000
0!
0/
#71000
1!
1/
04
05
0,
0-
0#
0$
03
11
0.
0%
#72000
0!
0/
#73000
1!
1/
15
1,
1$
12
01
#74000
0!
0/
#75000
1!
1/
14
05
0,
1-
1#
0$
11
#76000
0!
0/
#77000
1!
1/
15
1,
1$
13
02
01
1.
1%
#78000
0!
0/
#79000
1!
1/
04
05
0,
0-
0#
0$
03
11
0.
0%
#80000
0!
0/
#81000
1!
1/
15
1,
1$
12
01
#82000
0!
0/
#83000
1!
1/
14
05
0,
1-
1#
0$
11
#84000
0!
0/
#85000
1!
1/
15
1,
1$
13
02
01
1.
1%
#86000
0!
0/
#87000
1!
1/
04
05
0,
0-
0#
0$
03
11
0.
0%
#88000
0!
0/
#89000
1!
1/
15
1,
1$
12
01
#90000
0!
0/
#91000
1!
1/
14
05
0,
1-
1#
0$
11
#92000
0!
0/
#93000
1!
1/
15
1,
1$
13
02
01
1.
1%
#94000
0!
0/
#95000
1!
1/
04
05
0,
0-
0#
0$
03
11
0.
0%
#96000
0!
0/
#97000
1!
1/
15
1,
1$
12
01
#98000
0!
0/
#99000
1!
1/
14
05
0,
1-
1#
0$
11
#100000
0!
0/
#101000
1!
1/
15
1,
1$
13
02
01
1.
1%
#102000
0!
0/
#103000
1!
1/
04
05
0,
0-
0#
0$
03
11
0.
0%
#104000
0!
0/
#105000
1!
1/
15
1,
1$
12
01
#106000
0!
0/
#107000
1!
1/
14
05
0,
1-
1#
0$
11
#108000
0!
0/
#109000
1!
1/
15
1,
1$
13
02
01
1.
1%
#110000
0!
0/
#111000
1!
1/
04
05
0,
0-
0#
0$
03
11
0.
0%
#112000
0!
0/
#113000
1!
1/
15
1,
1$
12
01
#114000
0!
0/
#115000
1!
1/
14
05
0,
1-
1#
0$
11
#116000
0!
0/
#117000
1!
1/
15
1,
1$
13
02
01
1.
1%
#118000
0!
0/
#119000
1!
1/
04
05
0,
0-
0#
0$
03
11
0.
0%
#120000
0!
0/
#121000
1!
1/
15
1,
1$
12
01
#122000
0!
0/
#123000
1!
1/
14
05
0,
1-
1#
0$
11
#124000
0!
0/
#125000
1!
1/
15
1,
1$
13
02
01
1.
1%
#126000
0!
0/
#127000
1!
1/
04
05
0,
0-
0#
0$
03
11
0.
0%
#128000
0!
0/
#129000
1!
1/
15
1,
1$
12
01
#130000
0!
0/
#131000
1!
1/
14
05
0,
1-
1#
0$
11
#132000
0!
0/
#133000
1!
1/
15
1,
1$
13
02
01
1.
1%
#134000
0!
0/
#135000
1!
1/
04
05
0,
0-
0#
0$
03
11
0.
0%
#136000
0!
0/
#137000
1!
1/
15
1,
1$
12
01
#138000
0!
0/
#139000
1!
1/
14
05
0,
1-
1#
0$
11
#140000
0!
0/
#141000
1!
1/
15
1,
1$
13
02
01
1.
1%
#142000
0!
0/
#143000
1!
1/
04
05
0,
0-
0#
0$
03
11
0.
0%
#144000
0!
0/
#145000
1!
1/
15
1,
1$
12
01
#146000
0!
0/
#147000
1!
1/
14
05
0,
1-
1#
0$
11
#148000
0!
0/
#149000
1!
1/
15
1,
1$
13
02
01
1.
1%
#150000
0!
0/
#151000
1!
1/
04
05
0,
0-
0#
0$
03
11
0.
0%
#152000
0!
0/
#153000
1!
1/
15
1,
1$
12
01
#154000
0!
0/
#155000
1!
1/
14
05
0,
1-
1#
0$
11
#156000
0!
0/
#157000
1!
1/
15
1,
1$
13
02
01
1.
1%
#158000
0!
0/
#159000
1!
1/
04
05
0,
0-
0#
0$
03
11
0.
0%
#160000
0!
0/
#161000
1!
1/
15
1,
1$
12
01
#162000
0!
0/
#163000
1!
1/
14
05
0,
1-
1#
0$
11
#164000
0!
0/
#165000
1!
1/
15
1,
1$
13
02
01
1.
1%
#166000
0!
0/
#167000
1!
1/
04
05
0,
0-
0#
0$
03
11
0.
0%
#168000
0!
0/
#169000
1!
1/
15
1,
1$
12
01
#170000
0!
0/
#171000
1!
1/
14
05
0,
1-
1#
0$
11
#172000
0!
0/
#173000
1!
1/
15
1,
1$
13
02
01
1.
1%
#174000
0!
0/
#175000
1!
1/
04
05
0,
0-
0#
0$
03
11
0.
0%
#176000
0!
0/
#177000
1!
1/
15
1,
1$
12
01
#178000
0!
0/
#179000
1!
1/
14
05
0,
1-
1#
0$
11
#180000
0!
0/
#181000
1!
1/
15
1,
1$
13
02
01
1.
1%
#182000
0!
0/
#183000
1!
1/
04
05
0,
0-
0#
0$
03
11
0.
0%
#184000
0!
0/
#185000
1!
1/
15
1,
1$
12
01
#186000
0!
0/
#187000
1!
1/
14
05
0,
1-
1#
0$
11
#188000
0!
0/
#189000
1!
1/
15
1,
1$
13
02
01
1.
1%
#190000
0!
0/
#191000
1!
1/
04
05
0,
0-
0#
0$
03
11
0.
0%
#192000
0!
0/
#193000
1!
1/
15
1,
1$
12
01
#194000
0!
0/
#195000
1!
1/
14
05
0,
1-
1#
0$
11
#196000
0!
0/
#197000
1!
1/
15
1,
1$
13
02
01
1.
1%
#198000
0!
0/
#199000
1!
1/
04
05
0,
0-
0#
0$
03
11
0.
0%
#200000
0!
0/
#201000
1!
1/
15
1,
1$
12
01
#202000
0!
0/
#203000
1!
1/
14
05
0,
1-
1#
0$
11
#204000
0!
0/
#205000
1!
1/
15
1,
1$
13
02
01
1.
1%
#206000
0!
0/
#207000
1!
1/
04
05
0,
0-
0#
0$
03
11
0.
0%
#208000
0!
0/
#209000
1!
1/
15
1,
1$
12
01
#210000
0!
0/
#211000
1!
1/
14
05
0,
1-
1#
0$
11
#212000
0!
0/
#213000
1!
1/
15
1,
1$
13
02
01
1.
1%
#214000
0!
0/
#215000
1!
1/
04
05
0,
0-
0#
0$
03
11
0.
0%
#216000
0!
0/
#217000
1!
1/
15
1,
1$
12
01
#218000
0!
0/
#219000
1!
1/
14
05
0,
1-
1#
0$
11
#220000
0!
0/
#221000
1!
1/
15
1,
1$
13
02
01
1.
1%
#222000
0!
0/
#223000
1!
1/
04
05
0,
0-
0#
0$
03
11
0.
0%
#224000
0!
0/
#225000
1!
1/
15
1,
1$
12
01
#226000
0!
0/
#227000
1!
1/
14
05
0,
1-
1#
0$
11
#228000
0!
0/
#229000
1!
1/
15
1,
1$
13
02
01
1.
1%
#230000
0!
0/
#231000
1!
1/
04
05
0,
0-
0#
0$
03
11
0.
0%
#232000
0!
0/
#233000
1!
1/
15
1,
1$
12
01
#234000
0!
0/
#235000
1!
1/
14
05
0,
1-
1#
0$
11
#236000
0!
0/
#237000
1!
1/
15
1,
1$
13
02
01
1.
1%
#238000
0!
0/
#239000
1!
1/
04
05
0,
0-
0#
0$
03
11
0.
0%
#240000
0!
0/
#241000
1!
1/
15
1,
1$
12
01
#242000
0!
0/
#243000
1!
1/
14
05
0,
1-
1#
0$
11
#244000
0!
0/
#245000
1!
1/
15
1,
1$
13
02
01
1.
1%
#246000
0!
0/
#247000
1!
1/
04
05
0,
0-
0#
0$
03
11
0.
0%
#248000
0!
0/
#249000
1!
1/
15
1,
1$
12
01
#250000
0!
0/
#251000
1!
1/
14
05
0,
1-
1#
0$
11
#252000
0!
0/
#253000
1!
1/
15
1,
1$
13
02
01
1.
1%
#254000
0!
0/
#255000
1!
1/
04
05
0,
0-
0#
0$
03
11
0.
0%
#256000
0!
0/
#257000
1!
1/
15
1,
1$
12
01
#258000
0!
0/
#259000
1!
1/
14
05
0,
1-
1#
0$
11
#260000
0!
0/
#261000
1!
1/
15
1,
1$
13
02
01
1.
1%
#262000
0!
0/
#263000
1!
1/
04
05
0,
0-
0#
0$
03
11
0.
0%
#264000
0!
0/
#265000
1!
1/
15
1,
1$
12
01
#266000
0!
0/
#267000
1!
1/
14
05
0,
1-
1#
0$
11
#268000
0!
0/
#269000
1!
1/
15
1,
1$
13
02
01
1.
1%
#270000
0!
0/
#271000
1!
1/
04
05
0,
0-
0#
0$
03
11
0.
0%
#272000
0!
0/
#273000
1!
1/
15
1,
1$
12
01
#274000
0!
0/
#275000
1!
1/
14
05
0,
1-
1#
0$
11
#276000
0!
0/
#277000
1!
1/
15
1,
1$
13
02
01
1.
1%
#278000
0!
0/
#279000
1!
1/
04
05
0,
0-
0#
0$
03
11
0.
0%
#280000
0!
0/
#281000
1!
1/
15
1,
1$
12
01
#282000
0!
0/
#283000
1!
1/
14
05
0,
1-
1#
0$
11
#284000
0!
0/
#285000
1!
1/
15
1,
1$
13
02
01
1.
1%
#286000
0!
0/
#287000
1!
1/
04
05
0,
0-
0#
0$
03
11
0.
0%
#288000
0!
0/
#289000
1!
1/
15
1,
1$
12
01
#290000
0!
0/
#291000
1!
1/
14
05
0,
1-
1#
0$
11
#292000
0!
0/
#293000
1!
1/
15
1,
1$
13
02
01
1.
1%
#294000
0!
0/
#295000
1!
1/
04
05
0,
0-
0#
0$
03
11
0.
0%
#296000
0!
0/
#297000
1!
1/
15
1,
1$
12
01
#298000
0!
0/
#299000
1!
1/
14
05
0,
1-
1#
0$
11
#300000
0!
0/
#301000
1!
1/
15
1,
1$
13
02
01
1.
1%
#302000
0!
0/
#303000
1!
1/
04
05
0,
0-
0#
0$
03
11
0.
0%
#304000
0!
0/
#305000
1!
1/
15
1,
1$
12
01
#306000
0!
0/
#307000
1!
1/
14
05
0,
1-
1#
0$
11
#308000
0!
0/
#309000
1!
1/
15
1,
1$
13
02
01
1.
1%
#310000
0!
0/
#311000
1!
1/
04
05
0,
0-
0#
0$
03
11
0.
0%
#312000
0!
0/
#313000
1!
1/
15
1,
1$
12
01
#314000
0!
0/
#315000
1!
1/
14
05
0,
1-
1#
0$
11
#316000
0!
0/
#317000
1!
1/
15
1,
1$
13
02
01
1.
1%
#318000
0!
0/
#319000
1!
1/
04
05
0,
0-
0#
0$
03
11
0.
0%
#320000
0!
0/
#321000
1!
1/
15
1,
1$
12
01
#322000
0!
0/
#323000
1!
1/
14
05
0,
1-
1#
0$
11
#324000
0!
0/
#325000
1!
1/
15
1,
1$
13
02
01
1.
1%
#326000
0!
0/
#327000
1!
1/
04
05
0,
0-
0#
0$
03
11
0.
0%
#328000
0!
0/
#329000
1!
1/
15
1,
1$
12
01
#330000
0!
0/
#331000
1!
1/
14
05
0,
1-
1#
0$
11
#332000
0!
0/
#333000
1!
1/
15
1,
1$
13
02
01
1.
1%
#334000
0!
0/
#335000
1!
1/
04
05
0,
0-
0#
0$
03
11
0.
0%
#336000
0!
0/
#337000
1!
1/
15
1,
1$
12
01
#338000
0!
0/
#339000
1!
1/
14
05
0,
1-
1#
0$
11
#340000
0!
0/
#341000
1!
1/
15
1,
1$
13
02
01
1.
1%
#342000
0!
0/
#343000
1!
1/
04
05
0,
0-
0#
0$
03
11
0.
0%
#344000
0!
0/
#345000
1!
1/
15
1,
1$
12
01
#346000
0!
0/
#347000
1!
1/
14
05
0,
1-
1#
0$
11
#348000
0!
0/
#349000
1!
1/
15
1,
1$
13
02
01
1.
1%
#350000
0!
0/
#351000
1!
1/
04
05
0,
0-
0#
0$
03
11
0.
0%
#352000
0!
0/
#353000
1!
1/
15
1,
1$
12
01
#354000
0!
0/
#355000
1!
1/
14
05
0,
1-
1#
0$
11
#356000
0!
0/
#357000
1!
1/
15
1,
1$
13
02
01
1.
1%
#358000
0!
0/
#359000
1!
1/
04
05
0,
0-
0#
0$
03
11
0.
0%
#360000
0!
0/
#361000
1!
1/
15
1,
1$
12
01
#362000
0!
0/
#363000
1!
1/
14
05
0,
1-
1#
0$
11
#364000
0!
0/
#365000
1!
1/
15
1,
1$
13
02
01
1.
1%
#366000
0!
0/
#367000
1!
1/
04
05
0,
0-
0#
0$
03
11
0.
0%
#368000
0!
0/
#369000
1!
1/
15
1,
1$
12
01
#370000
0!
0/
#371000
1!
1/
14
05
0,
1-
1#
0$
11
#372000
0!
0/
#373000
1!
1/
15
1,
1$
13
02
01
1.
1%
#374000
0!
0/
#375000
1!
1/
04
05
0,
0-
0#
0$
03
11
0.
0%
#376000
0!
0/
#377000
1!
1/
15
1,
1$
12
01
#378000
0!
0/
#379000
1!
1/
14
05
0,
1-
1#
0$
11
#380000
0!
0/
#381000
1!
1/
15
1,
1$
13
02
01
1.
1%
#382000
0!
0/
#383000
1!
1/
04
05
0,
0-
0#
0$
03
11
0.
0%
#384000
0!
0/
#385000
1!
1/
15
1,
1$
12
01
#386000
0!
0/
#387000
1!
1/
14
05
0,
1-
1#
0$
11
#388000
0!
0/
#389000
1!
1/
15
1,
1$
13
02
01
1.
1%
#390000
0!
0/
#391000
1!
1/
04
05
0,
0-
0#
0$
03
11
0.
0%
#392000
0!
0/
#393000
1!
1/
15
1,
1$
12
01
#394000
0!
0/
#395000
1!
1/
14
05
0,
1-
1#
0$
11
#396000
0!
0/
#397000
1!
1/
15
1,
1$
13
02
01
1.
1%
#398000
0!
0/
#399000
1!
1/
04
05
0,
0-
0#
0$
03
11
0.
0%
#400000
0!
0/
#401000
1!
1/
15
1,
1$
12
01
#402000
0!
0/
#403000
1!
1/
14
05
0,
1-
1#
0$
11
#404000
0!
0/
#405000
1!
1/
15
1,
1$
13
02
01
1.
1%
#406000
0!
0/
#407000
1!
1/
04
05
0,
0-
0#
0$
03
11
0.
0%
#408000
0!
0/
#409000
1!
1/
15
1,
1$
12
01
#410000
0!
0/
#411000
1!
1/
14
05
0,
1-
1#
0$
11
#412000
0!
0/
#413000
1!
1/
15
1,
1$
13
02
01
1.
1%
#414000
0!
0/
#415000
1!
1/
04
05
0,
0-
0#
0$
03
11
0.
0%
#416000
0!
0/
#417000
1!
1/
15
1,
1$
12
01
#418000
0!
0/
#419000
1!
1/
14
05
0,
1-
1#
0$
11
#420000
0!
0/
#421000
1!
1/
15
1,
1$
13
02
01
1.
1%
#422000
0!
0/
#423000
1!
1/
04
05
0,
0-
0#
0$
03
11
0.
0%
#424000
0!
0/
#425000
1!
1/
15
1,
1$
12
01
#426000
0!
0/
#427000
1!
1/
14
05
0,
1-
1#
0$
11
#428000
0!
0/
#429000
1!
1/
15
1,
1$
13
02
01
1.
1%
#430000
0!
0/
#431000
1!
1/
04
05
0,
0-
0#
0$
03
11
0.
0%
#432000
0!
0/
#433000
1!
1/
15
1,
1$
12
01
#434000
0!
0/
#435000
1!
1/
14
05
0,
1-
1#
0$
11
#436000
0!
0/
#437000
1!
1/
15
1,
1$
13
02
01
1.
1%
#438000
0!
0/
#439000
1!
1/
04
05
0,
0-
0#
0$
03
11
0.
0%
#440000
0!
0/
#441000
1!
1/
15
1,
1$
12
01
#442000
0!
0/
#443000
1!
1/
14
05
0,
1-
1#
0$
11
#444000
0!
0/
#445000
1!
1/
15
1,
1$
13
02
01
1.
1%
#446000
0!
0/
#447000
1!
1/
04
05
0,
0-
0#
0$
03
11
0.
0%
#448000
0!
0/
#449000
1!
1/
15
1,
1$
12
01
#450000
0!
0/
#451000
1!
1/
14
05
0,
1-
1#
0$
11
#452000
0!
0/
#453000
1!
1/
15
1,
1$
13
02
01
1.
1%
#454000
0!
0/
#455000
1!
1/
04
05
0,
0-
0#
0$
03
11
0.
0%
#456000
0!
0/
#457000
1!
1/
15
1,
1$
12
01
#458000
0!
0/
#459000
1!
1/
14
05
0,
1-
1#
0$
11
#460000
0!
0/
#461000
1!
1/
15
1,
1$
13
02
01
1.
1%
#462000
0!
0/
#463000
1!
1/
04
05
0,
0-
0#
0$
03
11
0.
0%
#464000
0!
0/
#465000
1!
1/
15
1,
1$
12
01
#466000
0!
0/
#467000
1!
1/
14
05
0,
1-
1#
0$
11
#468000
0!
0/
#469000
1!
1/
15
1,
1$
13
02
01
1.
1%
#470000
0!
0/
#471000
1!
1/
04
05
0,
0-
0#
0$
03
11
0.
0%
#472000
0!
0/
#473000
1!
1/
15
1,
1$
12
01
#474000
0!
0/
#475000
1!
1/
14
05
0,
1-
1#
0$
11
#476000
0!
0/
#477000
1!
1/
15
1,
1$
13
02
01
1.
1%
#478000
0!
0/
#479000
1!
1/
04
05
0,
0-
0#
0$
03
11
0.
0%
#480000
0!
0/
#481000
1!
1/
15
1,
1$
12
01
#482000
0!
0/
#483000
1!
1/
14
05
0,
1-
1#
0$
11
#484000
0!
0/
#485000
1!
1/
15
1,
1$
13
02
01
1.
1%
#486000
0!
0/
#487000
1!
1/
04
05
0,
0-
0#
0$
03
11
0.
0%
#488000
0!
0/
#489000
1!
1/
15
1,
1$
12
01
#490000
0!
0/
#491000
1!
1/
14
05
0,
1-
1#
0$
11
#492000
0!
0/
#493000
1!
1/
15
1,
1$
13
02
01
1.
1%
#494000
0!
0/
#495000
1!
1/
04
05
0,
0-
0#
0$
03
11
0.
0%
#496000
0!
0/
#497000
1!
1/
15
1,
1$
12
01
#498000
0!
0/
#499000
1!
1/
14
05
0,
1-
1#
0$
11
#500000
0!
0/
#501000
1!
1/
15
1,
1$
13
02
01
1.
1%
#502000
0!
0/
#503000
1!
1/
04
05
0,
0-
0#
0$
03
11
0.
0%
#504000
0!
0/
#505000
1!
1/
15
1,
1$
12
01
#506000
0!
0/
#507000
1!
1/
14
05
0,
1-
1#
0$
11
#508000
0!
0/
#509000
1!
1/
15
1,
1$
13
02
01
1.
1%
#510000
0!
0/
#511000
1!
1/
04
05
0,
0-
0#
0$
03
11
0.
0%
#512000
0!
0/
#513000
1!
1/
15
1,
1$
12
01
#514000
0!
0/
#515000
1!
1/
14
05
0,
1-
1#
0$
11
#516000
0!
0/
#517000
1!
1/
15
1,
1$
13
02
01
1.
1%
#518000
0!
0/
#519000
1!
1/
04
05
0,
0-
0#
0$
03
11
0.
0%
#520000
0!
0/
#521000
1!
1/
15
1,
1$
12
01
#522000
0!
0/
#523000
1!
1/
14
05
0,
1-
1#
0$
11
#524000
0!
0/
#525000
1!
1/
15
1,
1$
13
02
01
1.
1%
#526000
0!
0/
#527000
1!
1/
04
05
0,
0-
0#
0$
03
11
0.
0%
#528000
0!
0/
#529000
1!
1/
15
1,
1$
12
01
#530000
0!
0/
#531000
1!
1/
14
05
0,
1-
1#
0$
11
#532000
0!
0/
#533000
1!
1/
15
1,
1$
13
02
01
1.
1%
#534000
0!
0/
#535000
1!
1/
04
05
0,
0-
0#
0$
03
11
0.
0%
#536000
0!
0/
#537000
1!
1/
15
1,
1$
12
01
#538000
0!
0/
#539000
1!
1/
14
05
0,
1-
1#
0$
11
#540000
0!
0/
#541000
1!
1/
15
1,
1$
13
02
01
1.
1%
#542000
0!
0/
#543000
1!
1/
04
05
0,
0-
0#
0$
03
11
0.
0%
#544000
0!
0/
#545000
1!
1/
15
1,
1$
12
01
#546000
0!
0/
#547000
1!
1/
14
05
0,
1-
1#
0$
11
#548000
0!
0/
#549000
1!
1/
15
1,
1$
13
02
01
1.
1%
#550000
0!
0/
#551000
1!
1/
04
05
0,
0-
0#
0$
03
11
0.
0%
#552000
0!
0/
#553000
1!
1/
15
1,
1$
12
01
#554000
0!
0/
#555000
1!
1/
14
05
0,
1-
1#
0$
11
#556000
0!
0/
#557000
1!
1/
15
1,
1$
13
02
01
1.
1%
#558000
0!
0/
#559000
1!
1/
04
05
0,
0-
0#
0$
03
11
0.
0%
#560000
0!
0/
#561000
1!
1/
15
1,
1$
12
01
#562000
0!
0/
#563000
1!
1/
14
05
0,
1-
1#
0$
11
#564000
0!
0/
#565000
1!
1/
15
1,
1$
13
02
01
1.
1%
#566000
0!
0/
#567000
1!
1/
04
05
0,
0-
0#
0$
03
11
0.
0%
#568000
0!
0/
#569000
1!
1/
15
1,
1$
12
01
#570000
0!
0/
#571000
1!
1/
14
05
0,
1-
1#
0$
11
#572000
0!
0/
#573000
1!
1/
15
1,
1$
13
02
01
1.
1%
#574000
0!
0/
#575000
1!
1/
04
05
0,
0-
0#
0$
03
11
0.
0%
#576000
0!
0/
#577000
1!
1/
15
1,
1$
12
01
#578000
0!
0/
#579000
1!
1/
14
05
0,
1-
1#
0$
11
#580000
0!
0/
#581000
1!
1/
15
1,
1$
13
02
01
1.
1%
#582000
0!
0/
#583000
1!
1/
04
05
0,
0-
0#
0$
03
11
0.
0%
#584000
0!
0/
#585000
1!
1/
15
1,
1$
12
01
#586000
0!
0/
#587000
1!
1/
14
05
0,
1-
1#
0$
11
#588000
0!
0/
#589000
1!
1/
15
1,
1$
13
02
01
1.
1%
#590000
0!
0/
#591000
1!
1/
04
05
0,
0-
0#
0$
03
11
0.
0%
#592000
0!
0/
#593000
1!
1/
15
1,
1$
12
01
#594000
0!
0/
#595000
1!
1/
14
05
0,
1-
1#
0$
11
#596000
0!
0/
#597000
1!
1/
15
1,
1$
13
02
01
1.
1%
#598000
0!
0/
#599000
1!
1/
04
05
0,
0-
0#
0$
03
11
0.
0%
#600000
0!
0/
#601000
1!
1/
15
1,
1$
12
01
#602000
0!
0/
#603000
1!
1/
14
05
0,
1-
1#
0$
11
#604000
0!
0/
#605000
1!
1/
15
1,
1$
13
02
01
1.
1%
#606000
0!
0/
#607000
1!
1/
04
05
0,
0-
0#
0$
03
11
0.
0%
#608000
0!
0/
#609000
1!
1/
15
1,
1$
12
01
#610000
0!
0/
#611000
1!
1/
14
05
0,
1-
1#
0$
11
#612000
0!
0/
#613000
1!
1/
15
1,
1$
13
02
01
1.
1%
#614000
0!
0/
#615000
1!
1/
04
05
0,
0-
0#
0$
03
11
0.
0%
#616000
0!
0/
#617000
1!
1/
15
1,
1$
12
01
#618000
0!
0/
#619000
1!
1/
14
05
0,
1-
1#
0$
11
#620000
0!
0/
#621000
1!
1/
15
1,
1$
13
02
01
1.
1%
#622000
0!
0/
#623000
1!
1/
04
05
0,
0-
0#
0$
03
11
0.
0%
#624000
0!
0/
#625000
1!
1/
15
1,
1$
12
01
#626000
0!
0/
#627000
1!
1/
14
05
0,
1-
1#
0$
11
#628000
0!
0/
#629000
1!
1/
15
1,
1$
13
02
01
1.
1%
#630000
0!
0/
#631000
1!
1/
04
05
0,
0-
0#
0$
03
11
0.
0%
#632000
0!
0/
#633000
1!
1/
15
1,
1$
12
01
#634000
0!
0/
#635000
1!
1/
14
05
0,
1-
1#
0$
11
#636000
0!
0/
#637000
1!
1/
15
1,
1$
13
02
01
1.
1%
#638000
0!
0/
#639000
1!
1/
04
05
0,
0-
0#
0$
03
11
0.
0%
#640000
0!
0/
#641000
1!
1/
15
1,
1$
12
01
#642000
0!
0/
#643000
1!
1/
14
05
0,
1-
1#
0$
11
#644000
0!
0/
#645000
1!
1/
15
1,
1$
13
02
01
1.
1%
#646000
0!
0/
#647000
1!
1/
04
05
0,
0-
0#
0$
03
11
0.
0%
#648000
0!
0/
#649000
1!
1/
15
1,
1$
12
01
#650000
0!
0/
#651000
1!
1/
14
05
0,
1-
1#
0$
11
#652000
0!
0/
#653000
1!
1/
15
1,
1$
13
02
01
1.
1%
#654000
0!
0/
#655000
1!
1/
04
05
0,
0-
0#
0$
03
11
0.
0%
#656000
0!
0/
#657000
1!
1/
15
1,
1$
12
01
#658000
0!
0/
#659000
1!
1/
14
05
0,
1-
1#
0$
11
#660000
0!
0/
#661000
1!
1/
15
1,
1$
13
02
01
1.
1%
#662000
0!
0/
#663000
1!
1/
04
05
0,
0-
0#
0$
03
11
0.
0%
#664000
0!
0/
#665000
1!
1/
15
1,
1$
12
01
#666000
0!
0/
#667000
1!
1/
14
05
0,
1-
1#
0$
11
#668000
0!
0/
#669000
1!
1/
15
1,
1$
13
02
01
1.
1%
#670000
0!
0/
#671000
1!
1/
04
05
0,
0-
0#
0$
03
11
0.
0%
#672000
0!
0/
#673000
1!
1/
15
1,
1$
12
01
#674000
0!
0/
#675000
1!
1/
14
05
0,
1-
1#
0$
11
#676000
0!
0/
#677000
1!
1/
15
1,
1$
13
02
01
1.
1%
#678000
0!
0/
#679000
1!
1/
04
05
0,
0-
0#
0$
03
11
0.
0%
#680000
0!
0/
#681000
1!
1/
15
1,
1$
12
01
#682000
0!
0/
#683000
1!
1/
14
05
0,
1-
1#
0$
11
#684000
0!
0/
#685000
1!
1/
15
1,
1$
13
02
01
1.
1%
#686000
0!
0/
#687000
1!
1/
04
05
0,
0-
0#
0$
03
11
0.
0%
#688000
0!
0/
#689000
1!
1/
15
1,
1$
12
01
#690000
0!
0/
#691000
1!
1/
14
05
0,
1-
1#
0$
11
#692000
0!
0/
#693000
1!
1/
15
1,
1$
13
02
01
1.
1%
#694000
0!
0/
#695000
1!
1/
04
05
0,
0-
0#
0$
03
11
0.
0%
#696000
0!
0/
#697000
1!
1/
15
1,
1$
12
01
#698000
0!
0/
#699000
1!
1/
14
05
0,
1-
1#
0$
11
#700000
0!
0/
#701000
1!
1/
15
1,
1$
13
02
01
1.
1%
#702000
0!
0/
#703000
1!
1/
04
05
0,
0-
0#
0$
03
11
0.
0%
#704000
0!
0/
#705000
1!
1/
15
1,
1$
12
01
#706000
0!
0/
#707000
1!
1/
14
05
0,
1-
1#
0$
11
#708000
0!
0/
#709000
1!
1/
15
1,
1$
13
02
01
1.
1%
#710000
0!
0/
#711000
1!
1/
04
05
0,
0-
0#
0$
03
11
0.
0%
#712000
0!
0/
#713000
1!
1/
15
1,
1$
12
01
#714000
0!
0/
#715000
1!
1/
14
05
0,
1-
1#
0$
11
#716000
0!
0/
#717000
1!
1/
15
1,
1$
13
02
01
1.
1%
#718000
0!
0/
#719000
1!
1/
04
05
0,
0-
0#
0$
03
11
0.
0%
#720000
0!
0/
#721000
1!
1/
15
1,
1$
12
01
#722000
0!
0/
#723000
1!
1/
14
05
0,
1-
1#
0$
11
#724000
0!
0/
#725000
1!
1/
15
1,
1$
13
02
01
1.
1%
#726000
0!
0/
#727000
1!
1/
04
05
0,
0-
0#
0$
03
11
0.
0%
#728000
0!
0/
#729000
1!
1/
15
1,
1$
12
01
#730000
0!
0/
#731000
1!
1/
14
05
0,
1-
1#
0$
11
#732000
0!
0/
#733000
1!
1/
15
1,
1$
13
02
01
1.
1%
#734000
0!
0/
#735000
1!
1/
04
05
0,
0-
0#
0$
03
11
0.
0%
#736000
0!
0/
#737000
1!
1/
15
1,
1$
12
01
#738000
0!
0/
