simulation/qsim/Projeto_2.msim.vcd
$comment
	File created using the following command:
		vcd file Projeto_2.msim.vcd -direction
$end
$date
	Mon Jul 26 15:29:42 2021
$end
$version
	ModelSim Version 2020.1
$end
$timescale
	1ps
$end

$scope module frequencia_contador_1Hz_vlg_vec_tst $end
$var reg 1 ! clock $end
$var reg 1 " teste $end
$var wire 1 # clock_saida $end

$scope module i1 $end
$var wire 1 $ gnd $end
$var wire 1 % vcc $end
$var wire 1 & unknown $end
$var tri1 1 ' devclrn $end
$var tri1 1 ( devpor $end
$var tri1 1 ) devoe $end
$var wire 1 * teste~input_o $end
$var wire 1 + clock_saida~output_o $end
$var wire 1 , clock~input_o $end
$var wire 1 - count[1]~27 $end
$var wire 1 . count[2]~29_combout $end
$var wire 1 / op_3~1_combout $end
$var wire 1 0 op_3~2_combout $end
$var wire 1 1 op_3~3_combout $end
$var wire 1 2 op_3~4_combout $end
$var wire 1 3 op_3~5_combout $end
$var wire 1 4 op_3~6_combout $end
$var wire 1 5 op_4~0_combout $end
$var wire 1 6 count[25]~28_combout $end
$var wire 1 7 count[2]~30 $end
$var wire 1 8 count[3]~31_combout $end
$var wire 1 9 count[3]~32 $end
$var wire 1 : count[4]~33_combout $end
$var wire 1 ; count[4]~34 $end
$var wire 1 < count[5]~35_combout $end
$var wire 1 = count[5]~36 $end
$var wire 1 > count[6]~37_combout $end
$var wire 1 ? count[6]~38 $end
$var wire 1 @ count[7]~39_combout $end
$var wire 1 A count[7]~40 $end
$var wire 1 B count[8]~41_combout $end
$var wire 1 C count[8]~42 $end
$var wire 1 D count[9]~43_combout $end
$var wire 1 E count[9]~44 $end
$var wire 1 F count[10]~45_combout $end
$var wire 1 G count[10]~46 $end
$var wire 1 H count[11]~47_combout $end
$var wire 1 I count[11]~48 $end
$var wire 1 J count[12]~49_combout $end
$var wire 1 K count[12]~50 $end
$var wire 1 L count[13]~51_combout $end
$var wire 1 M count[13]~52 $end
$var wire 1 N count[14]~53_combout $end
$var wire 1 O count[14]~54 $end
$var wire 1 P count[15]~55_combout $end
$var wire 1 Q count[15]~56 $end
$var wire 1 R count[16]~57_combout $end
$var wire 1 S count[16]~58 $end
$var wire 1 T count[17]~59_combout $end
$var wire 1 U count[17]~60 $end
$var wire 1 V count[18]~61_combout $end
$var wire 1 W count[18]~62 $end
$var wire 1 X count[19]~63_combout $end
$var wire 1 Y count[19]~64 $end
$var wire 1 Z count[20]~65_combout $end
$var wire 1 [ count[20]~66 $end
$var wire 1 \ count[21]~67_combout $end
$var wire 1 ] count[21]~68 $end
$var wire 1 ^ count[22]~69_combout $end
$var wire 1 _ count[22]~70 $end
$var wire 1 ` count[23]~71_combout $end
$var wire 1 a count[23]~72 $end
$var wire 1 b count[24]~73_combout $end
$var wire 1 c count[24]~74 $end
$var wire 1 d count[25]~75_combout $end
$var wire 1 e count[25]~25_combout $end
$var wire 1 f count[0]~77_combout $end
$var wire 1 g count[0]~78_combout $end
$var wire 1 h count[1]~26_combout $end
$var wire 1 i op_3~0_combout $end
$var wire 1 j _~0_combout $end
$var wire 1 k count [25] $end
$var wire 1 l count [24] $end
$var wire 1 m count [23] $end
$var wire 1 n count [22] $end
$var wire 1 o count [21] $end
$var wire 1 p count [20] $end
$var wire 1 q count [19] $end
$var wire 1 r count [18] $end
$var wire 1 s count [17] $end
$var wire 1 t count [16] $end
$var wire 1 u count [15] $end
$var wire 1 v count [14] $end
$var wire 1 w count [13] $end
$var wire 1 x count [12] $end
$var wire 1 y count [11] $end
$var wire 1 z count [10] $end
$var wire 1 { count [9] $end
$var wire 1 | count [8] $end
$var wire 1 } count [7] $end
$var wire 1 ~ count [6] $end
$var wire 1 !! count [5] $end
$var wire 1 "! count [4] $end
$var wire 1 #! count [3] $end
$var wire 1 $! count [2] $end
$var wire 1 %! count [1] $end
$var wire 1 &! count [0] $end
$upscope $end
$upscope $end
$enddefinitions $end
#0
$dumpvars
0!
0"
0#
0$
1%
x&
1'
1(
1)
0*
0+
0,
0-
0.
1/
10
11
12
13
14
15
06
17
08
09
0:
1;
0<
0=
0>
1?
0@
0A
0B
1C
0D
0E
0F
1G
0H
0I
0J
1K
0L
0M
0N
1O
0P
0Q
0R
1S
0T
0U
0V
1W
0X
0Y
0Z
1[
0\
0]
0^
1_
0`
0a
0b
1c
0d
1e
1f
1g
0h
1i
1j
0&!
0%!
0$!
0#!
0"!
0!!
0~
0}
0|
0{
0z
0y
0x
0w
0v
0u
0t
0s
0r
0q
0p
0o
0n
0m
0l
0k
$end
#1000
1!
1,
1&!
0g
1h
#2000
0!
0,
#3000
1!
1,
1%!
0&!
1g
#4000
0!
0,
#5000
1!
1,
1&!
1-
0g
0h
1.
#6000
0!
0,
#7000
1!
1,
0%!
0&!
1$!
0-
07
1g
0.
17
1.
18
08
#8000
0!
0,
#9000
1!
1,
1&!
0g
1h
#10000
0!
0,
#11000
1!
1,
1%!
0&!
1g
#12000
0!
0,
#13000
1!
1,
1&!
1-
0g
0h
07
0.
18
#14000
0!
0,
#15000
1!
1,
0%!
0&!
1#!
0$!
0-
19
17
1g
08
1.
09
0.
1:
18
0:
#16000
0!
0,
#17000
1!
1,
1&!
0g
1h
#18000
0!
0,
#19000
1!
1,
1%!
0&!
0i
1g
0j
1+
1#
#20000
1"
0!
1*
0,
#21000
1!
1,
1&!
1-
0g
0h
1.
#22000
0!
0,
#23000
1!
1,
0%!
0&!
1$!
0-
07
1g
0.
17
19
1.
08
09
18
1:
0:
#24000
0!
0,
#25000
1!
1,
1&!
0g
1h
#26000
0!
0,
#27000
1!
1,
1%!
0&!
1g
#28000
0!
0,
#29000
1!
1,
1&!
1-
0g
0h
07
0.
19
08
1:
#30000
0!
0,
#31000
1!
1,
0%!
0&!
1"!
0#!
0$!
0-
0;
09
17
1g
0:
18
1.
1;
0.
1<
1:
08
0<
#32000
0!
0,
#33000
1!
1,
1&!
0g
1h
#34000
0!
0,
#35000
1!
1,
1%!
0&!
1g
#36000
0!
0,
#37000
1!
1,
1&!
1-
0g
0h
1.
#38000
0!
0,
#39000
1!
1,
0%!
0&!
1$!
0-
05
07
1g
0.
17
1j
0f
16
1.
18
0+
0#
08
0g
#40000
0"
0!
0*
0,
#41000
1!
1,
0"!
0$!
1i
15
0:
0.
1f
06
1g
#42000
0!
0,
#43000
1!
1,
1&!
0g
1h
#44000
0!
0,
#45000
1!
1,
1%!
0&!
1g
#46000
0!
0,
#47000
1!
1,
1&!
1-
0g
0h
1.
#48000
0!
0,
#49000
1!
1,
0%!
0&!
1$!
0-
07
1g
0.
17
1.
18
08
#50000
0!
0,
#51000
1!
1,
1&!
0g
1h
#52000
0!
0,
#53000
1!
1,
1%!
0&!
1g
#54000
0!
0,
#55000
1!
1,
1&!
1-
0g
0h
07
0.
18
#56000
0!
0,
#57000
1!
1,
0%!
0&!
1#!
0$!
0-
19
17
1g
08
1.
09
0.
1:
18
0:
#58000
0!
0,
#59000
1!
1,
1&!
0g
1h
#60000
1"
0!
1*
0,
#61000
1!
1,
1%!
0&!
0i
1g
0j
1+
1#
#62000
0!
0,
#63000
1!
1,
1&!
1-
0g
0h
1.
#64000
0!
0,
#65000
1!
1,
0%!
0&!
1$!
0-
07
1g
0.
17
19
1.
08
09
18
1:
0:
#66000
0!
0,
#67000
1!
1,
1&!
0g
1h
#68000
0!
0,
#69000
1!
1,
1%!
0&!
1g
#70000
0!
0,
#71000
1!
1,
1&!
1-
0g
0h
07
0.
19
08
1:
#72000
0!
0,
#73000
1!
1,
0%!
0&!
1"!
0#!
0$!
0-
0;
09
17
1g
0:
18
1.
1;
0.
1<
1:
08
0<
#74000
0!
0,
#75000
1!
1,
1&!
0g
1h
#76000
0!
0,
#77000
1!
1,
1%!
0&!
1g
#78000
0!
0,
#79000
1!
1,
1&!
1-
0g
0h
1.
#80000
0"
0!
0*
0,
#81000
1!
1,
0%!
0&!
1$!
0-
05
07
1g
0.
17
1j
0f
16
1.
18
0+
0#
08
0g
#82000
0!
0,
#83000
1!
1,
0"!
0$!
1i
15
0:
0.
1f
06
1g
#84000
0!
0,
#85000
1!
1,
1&!
0g
1h
#86000
0!
0,
#87000
1!
1,
1%!
0&!
1g
#88000
0!
0,
#89000
1!
1,
1&!
1-
0g
0h
1.
#90000
0!
0,
#91000
1!
1,
0%!
0&!
1$!
0-
07
1g
0.
17
1.
18
08
#92000
0!
0,
#93000
1!
1,
1&!
0g
1h
#94000
0!
0,
#95000
1!
1,
1%!
0&!
1g
#96000
0!
0,
#97000
1!
1,
1&!
1-
0g
0h
07
0.
18
#98000
0!
0,
#99000
1!
1,
0%!
0&!
1#!
0$!
0-
19
17
1g
08
1.
09
0.
1:
18
0:
#100000
1"
0!
1*
0,
#101000
1!
1,
1&!
0g
1h
#102000
0!
0,
#103000
1!
1,
1%!
0&!
0i
1g
0j
1+
1#
#104000
0!
0,
#105000
1!
1,
1&!
1-
0g
0h
1.
#106000
0!
0,
#107000
1!
1,
0%!
0&!
1$!
0-
07
1g
0.
17
19
1.
08
09
18
1:
0:
#108000
0!
0,
#109000
1!
1,
1&!
0g
1h
#110000
0!
0,
#111000
1!
1,
1%!
0&!
1g
#112000
0!
0,
#113000
1!
1,
1&!
1-
0g
0h
07
0.
19
08
1:
#114000
0!
0,
#115000
1!
1,
0%!
0&!
1"!
0#!
0$!
0-
0;
09
17
1g
0:
18
1.
1;
0.
1<
1:
08
0<
#116000
0!
0,
#117000
1!
1,
1&!
0g
1h
#118000
0!
0,
#119000
1!
1,
1%!
0&!
1g
#120000
0"
0!
0*
0,
#121000
1!
1,
1&!
1-
0g
0h
1.
#122000
0!
0,
#123000
1!
1,
0%!
0&!
1$!
0-
05
07
1g
0.
17
1j
0f
16
1.
18
0+
0#
08
0g
#124000
0!
0,
#125000
1!
1,
0"!
0$!
1i
15
0:
0.
1f
06
1g
#126000
0!
0,
#127000
1!
1,
1&!
0g
1h
#128000
0!
0,
#129000
1!
1,
1%!
0&!
1g
#130000
0!
0,
#131000
1!
1,
1&!
1-
0g
0h
1.
#132000
0!
0,
#133000
1!
1,
0%!
0&!
1$!
0-
07
1g
0.
17
1.
18
08
#134000
0!
0,
#135000
1!
1,
1&!
0g
1h
#136000
0!
0,
#137000
1!
1,
1%!
0&!
1g
#138000
0!
0,
#139000
1!
1,
1&!
1-
0g
0h
07
0.
18
#140000
1"
0!
1*
0,
#141000
1!
1,
0%!
0&!
1#!
0$!
0-
19
17
1g
08
1.
09
0.
1:
18
0:
#142000
0!
0,
#143000
1!
1,
1&!
0g
1h
#144000
0!
0,
#145000
1!
1,
1%!
0&!
0i
1g
0j
1+
1#
#146000
0!
0,
#147000
1!
1,
1&!
1-
0g
0h
1.
#148000
0!
0,
#149000
1!
1,
0%!
0&!
1$!
0-
07
1g
0.
17
19
1.
08
09
18
1:
0:
#150000
0!
0,
#151000
1!
1,
1&!
0g
1h
#152000
0!
0,
#153000
1!
1,
1%!
0&!
1g
#154000
0!
0,
#155000
1!
1,
1&!
1-
0g
0h
07
0.
19
08
1:
#156000
0!
0,
#157000
1!
1,
0%!
0&!
1"!
0#!
0$!
0-
0;
09
17
1g
0:
18
1.
1;
0.
1<
1:
08
0<
#158000
0!
0,
#159000
1!
1,
1&!
0g
1h
#160000
0"
0!
0*
0,
#161000
1!
1,
1%!
0&!
1g
#162000
0!
0,
#163000
1!
1,
1&!
1-
0g
0h
1.
#164000
0!
0,
#165000
1!
1,
0%!
0&!
1$!
0-
05
07
1g
0.
17
1j
0f
16
1.
18
0+
0#
08
0g
#166000
0!
0,
#167000
1!
1,
0"!
0$!
1i
15
0:
0.
1f
06
1g
#168000
0!
0,
#169000
1!
1,
1&!
0g
1h
#170000
0!
0,
#171000
1!
1,
1%!
0&!
1g
#172000
0!
0,
#173000
1!
1,
1&!
1-
0g
0h
1.
#174000
0!
0,
#175000
1!
1,
0%!
0&!
1$!
0-
07
1g
0.
17
1.
18
08
#176000
0!
0,
#177000
1!
1,
1&!
0g
1h
#178000
0!
0,
#179000
1!
1,
1%!
0&!
1g
#180000
1"
0!
1*
0,
#181000
1!
1,
1&!
1-
0g
0h
07
0.
18
#182000
0!
0,
#183000
1!
1,
0%!
0&!
1#!
0$!
0-
19
17
1g
08
1.
09
0.
1:
18
0:
#184000
0!
0,
#185000
1!
1,
1&!
0g
1h
#186000
0!
0,
#187000
1!
1,
1%!
0&!
0i
1g
0j
1+
1#
#188000
0!
0,
#189000
1!
1,
1&!
1-
0g
0h
1.
#190000
0!
0,
#191000
1!
1,
0%!
0&!
1$!
0-
07
1g
0.
17
19
1.
08
09
18
1:
0:
#192000
0!
0,
#193000
1!
1,
1&!
0g
1h
#194000
0!
0,
#195000
1!
1,
1%!
0&!
1g
#196000
0!
0,
#197000
1!
1,
1&!
1-
0g
0h
07
0.
19
08
1:
#198000
0!
0,
#199000
1!
1,
0%!
0&!
1"!
0#!
0$!
0-
0;
09
17
1g
0:
18
1.
1;
0.
1<
1:
08
0<
#200000
0"
0!
0*
0,
#201000
1!
1,
1&!
0g
1h
#202000
0!
0,
#203000
1!
1,
1%!
0&!
1g
#204000
0!
0,
#205000
1!
1,
1&!
1-
0g
0h
1.
#206000
0!
0,
#207000
1!
1,
0%!
0&!
1$!
0-
05
07
1g
0.
17
1j
0f
16
1.
18
0+
0#
08
0g
#208000
0!
0,
#209000
1!
1,
0"!
0$!
1i
15
0:
0.
1f
06
1g
#210000
0!
0,
#211000
1!
1,
1&!
0g
1h
#212000
0!
0,
#213000
1!
1,
1%!
0&!
1g
#214000
0!
0,
#215000
1!
1,
1&!
1-
0g
0h
1.
#216000
0!
0,
#217000
1!
1,
0%!
0&!
1$!
0-
07
1g
0.
17
1.
18
08
#218000
0!
0,
#219000
1!
1,
1&!
0g
1h
#220000
1"
0!
1*
0,
#221000
1!
1,
1%!
0&!
1g
#222000
0!
0,
#223000
1!
1,
1&!
1-
0g
0h
07
0.
18
#224000
0!
0,
#225000
1!
1,
0%!
0&!
1#!
0$!
0-
19
17
1g
08
1.
09
0.
1:
18
0:
#226000
0!
0,
#227000
1!
1,
1&!
0g
1h
#228000
0!
0,
#229000
1!
1,
1%!
0&!
0i
1g
0j
1+
1#
#230000
0!
0,
#231000
1!
1,
1&!
1-
0g
0h
1.
#232000
0!
0,
#233000
1!
1,
0%!
0&!
1$!
0-
07
1g
0.
17
19
1.
08
09
18
1:
0:
#234000
0!
0,
#235000
1!
1,
1&!
0g
1h
#236000
0!
0,
#237000
1!
1,
1%!
0&!
1g
#238000
0!
0,
#239000
1!
1,
1&!
1-
0g
0h
07
0.
19
08
1:
#240000
0"
0!
0*
0,
#241000
1!
1,
0%!
0&!
1"!
0#!
0$!
0-
0;
09
17
1g
0:
18
1.
1;
0.
1<
1:
08
0<
#242000
0!
0,
#243000
1!
1,
1&!
0g
1h
#244000
0!
0,
#245000
1!
1,
1%!
0&!
1g
#246000
0!
0,
#247000
1!
1,
1&!
1-
0g
0h
1.
#248000
0!
0,
#249000
1!
1,
0%!
0&!
1$!
0-
05
07
1g
0.
17
1j
0f
16
1.
18
0+
0#
08
0g
#250000
0!
0,
#251000
1!
1,
0"!
0$!
1i
15
0:
0.
1f
06
1g
#252000
0!
0,
#253000
1!
1,
1&!
0g
1h
#254000
0!
0,
#255000
1!
1,
1%!
0&!
1g
#256000
0!
0,
#257000
1!
1,
1&!
1-
0g
0h
1.
#258000
0!
0,
#259000
1!
1,
0%!
0&!
1$!
0-
07
1g
0.
17
1.
18
08
#260000
1"
0!
1*
0,
#261000
1!
1,
1&!
0g
1h
#262000
0!
0,
#263000
1!
1,
1%!
0&!
1g
#264000
0!
0,
#265000
1!
1,
1&!
1-
0g
0h
07
0.
18
#266000
0!
0,
#267000
1!
1,
0%!
0&!
1#!
0$!
0-
19
17
1g
08
1.
09
0.
1:
18
0:
#268000
0!
0,
#269000
1!
1,
1&!
0g
1h
#270000
0!
0,
#271000
1!
1,
1%!
0&!
0i
1g
0j
1+
1#
#272000
0!
0,
#273000
1!
1,
1&!
1-
0g
0h
1.
#274000
0!
0,
#275000
1!
1,
0%!
0&!
1$!
0-
07
1g
0.
17
19
1.
08
09
18
1:
0:
#276000
0!
0,
#277000
1!
1,
1&!
0g
1h
#278000
0!
0,
#279000
1!
1,
1%!
0&!
1g
#280000
0"
0!
0*
0,
#281000
1!
1,
1&!
1-
0g
0h
07
0.
19
08
1:
#282000
0!
0,
#283000
1!
1,
0%!
0&!
1"!
0#!
0$!
0-
0;
09
17
1g
0:
18
1.
1;
0.
1<
1:
08
0<
#284000
0!
0,
#285000
1!
1,
1&!
0g
1h
#286000
0!
0,
#287000
1!
1,
1%!
0&!
1g
#288000
0!
0,
#289000
1!
1,
1&!
1-
0g
0h
1.
#290000
0!
0,
#291000
1!
1,
0%!
0&!
1$!
0-
05
07
1g
0.
17
1j
0f
16
1.
18
0+
0#
08
0g
#292000
0!
0,
#293000
1!
1,
0"!
0$!
1i
15
0:
0.
1f
06
1g
#294000
0!
0,
#295000
1!
1,
1&!
0g
1h
#296000
0!
0,
#297000
1!
1,
1%!
0&!
1g
#298000
0!
0,
#299000
1!
1,
1&!
1-
0g
0h
1.
#300000
1"
0!
1*
0,
#301000
1!
1,
0%!
0&!
1$!
0-
07
1g
0.
17
1.
18
08
#302000
0!
0,
#303000
1!
1,
1&!
0g
1h
#304000
0!
0,
#305000
1!
1,
1%!
0&!
1g
#306000
0!
0,
#307000
1!
1,
1&!
1-
0g
0h
07
0.
18
#308000
0!
0,
#309000
1!
1,
0%!
0&!
1#!
0$!
0-
19
17
1g
08
1.
09
0.
1:
18
0:
#310000
0!
0,
#311000
1!
1,
1&!
0g
1h
#312000
0!
0,
#313000
1!
1,
1%!
0&!
0i
1g
0j
1+
1#
#314000
0!
0,
#315000
1!
1,
1&!
1-
0g
0h
1.
#316000
0!
0,
#317000
1!
1,
0%!
0&!
1$!
0-
07
1g
0.
17
19
1.
08
09
18
1:
0:
#318000
0!
0,
#319000
1!
1,
1&!
0g
1h
#320000
0"
0!
0*
0,
#321000
1!
1,
1%!
0&!
1g
#322000
0!
0,
#323000
1!
1,
1&!
1-
0g
0h
07
0.
19
08
1:
#324000
0!
0,
#325000
1!
1,
0%!
0&!
1"!
0#!
0$!
0-
0;
09
17
1g
0:
18
1.
1;
0.
1<
1:
08
0<
#326000
0!
0,
#327000
1!
1,
1&!
0g
1h
#328000
0!
0,
#329000
1!
1,
1%!
0&!
1g
#330000
0!
0,
#331000
1!
1,
1&!
1-
0g
0h
1.
#332000
0!
0,
#333000
1!
1,
0%!
0&!
1$!
0-
05
07
1g
0.
17
1j
0f
16
1.
18
0+
0#
08
0g
#334000
0!
0,
#335000
1!
1,
0"!
0$!
1i
15
0:
0.
1f
06
1g
#336000
0!
0,
#337000
1!
1,
1&!
0g
1h
#338000
0!
0,
#339000
1!
1,
1%!
0&!
1g
#340000
1"
0!
1*
0,
#341000
1!
1,
1&!
1-
0g
0h
1.
#342000
0!
0,
#343000
1!
1,
0%!
0&!
1$!
0-
07
1g
0.
17
1.
18
08
#344000
0!
0,
#345000
1!
1,
1&!
0g
1h
#346000
0!
0,
#347000
1!
1,
1%!
0&!
1g
#348000
0!
0,
#349000
1!
1,
1&!
1-
0g
0h
07
0.
18
#350000
0!
0,
#351000
1!
1,
0%!
0&!
1#!
0$!
0-
19
17
1g
08
1.
09
0.
1:
18
0:
#352000
0!
0,
#353000
1!
1,
1&!
0g
1h
#354000
0!
0,
#355000
1!
1,
1%!
0&!
0i
1g
0j
1+
1#
#356000
0!
0,
#357000
1!
1,
1&!
1-
0g
0h
1.
#358000
0!
0,
#359000
1!
1,
0%!
0&!
1$!
0-
07
1g
0.
17
19
1.
08
09
18
1:
0:
#360000
0"
0!
0*
0,
#361000
1!
1,
1&!
0g
1h
#362000
0!
0,
#363000
1!
1,
1%!
0&!
1g
#364000
0!
0,
#365000
1!
1,
1&!
1-
0g
0h
07
0.
19
08
1:
#366000
0!
0,
#367000
1!
1,
0%!
0&!
1"!
0#!
0$!
0-
0;
09
17
1g
0:
18
1.
1;
0.
1<
1:
08
0<
#368000
0!
0,
#369000
1!
1,
1&!
0g
1h
#370000
0!
0,
#371000
1!
1,
1%!
0&!
1g
#372000
0!
0,
#373000
1!
1,
1&!
1-
0g
0h
1.
#374000
0!
0,
#375000
1!
1,
0%!
0&!
1$!
0-
05
07
1g
0.
17
1j
0f
16
1.
18
0+
0#
08
0g
#376000
0!
0,
#377000
1!
1,
0"!
0$!
1i
15
0:
0.
1f
06
1g
#378000
0!
0,
#379000
1!
1,
1&!
0g
1h
#380000
1"
0!
1*
0,
#381000
1!
1,
1%!
0&!
1g
#382000
0!
0,
#383000
1!
1,
1&!
1-
0g
0h
1.
#384000
0!
0,
#385000
1!
1,
0%!
0&!
1$!
0-
07
1g
0.
17
1.
18
08
#386000
0!
0,
#387000
1!
1,
1&!
0g
1h
#388000
0!
0,
#389000
1!
1,
1%!
0&!
1g
#390000
0!
0,
#391000
1!
1,
1&!
1-
0g
0h
07
0.
18
#392000
0!
0,
#393000
1!
1,
0%!
0&!
1#!
0$!
0-
19
17
1g
08
1.
09
0.
1:
18
0:
#394000
0!
0,
#395000
1!
1,
1&!
0g
1h
#396000
0!
0,
#397000
1!
1,
1%!
0&!
0i
1g
0j
1+
1#
#398000
0!
0,
#399000
1!
1,
1&!
1-
0g
0h
1.
#400000
0"
0!
0*
0,
#401000
1!
1,
0%!
0&!
1$!
0-
07
1g
0.
17
19
1.
08
09
18
1:
0:
#402000
0!
0,
#403000
1!
1,
1&!
0g
1h
#404000
0!
0,
#405000
1!
1,
1%!
0&!
1g
#406000
0!
0,
#407000
1!
1,
1&!
1-
0g
0h
07
0.
19
08
1:
#408000
0!
0,
#409000
1!
1,
0%!
0&!
1"!
0#!
0$!
0-
0;
09
17
1g
0:
18
1.
1;
0.
1<
1:
08
0<
#410000
0!
0,
#411000
1!
1,
1&!
0g
1h
#412000
0!
0,
#413000
1!
1,
1%!
0&!
1g
#414000
0!
0,
#415000
1!
1,
1&!
1-
0g
0h
1.
#416000
0!
0,
#417000
1!
1,
0%!
0&!
1$!
0-
05
07
1g
0.
17
1j
0f
16
1.
18
0+
0#
08
0g
#418000
0!
0,
#419000
1!
1,
0"!
0$!
1i
15
0:
0.
1f
06
1g
#420000
1"
0!
1*
0,
#421000
1!
1,
1&!
0g
1h
#422000
0!
0,
#423000
1!
1,
1%!
0&!
1g
#424000
0!
0,
#425000
1!
1,
1&!
1-
0g
0h
1.
#426000
0!
0,
#427000
1!
1,
0%!
0&!
1$!
0-
07
1g
0.
17
1.
18
08
#428000
0!
0,
#429000
1!
1,
1&!
0g
1h
#430000
0!
0,
#431000
1!
1,
1%!
0&!
1g
#432000
0!
0,
#433000
1!
1,
1&!
1-
0g
0h
07
0.
18
#434000
0!
0,
#435000
1!
1,
0%!
0&!
1#!
0$!
0-
19
17
1g
08
1.
09
0.
1:
18
0:
#436000
0!
0,
#437000
1!
1,
1&!
0g
1h
#438000
0!
0,
#439000
1!
1,
1%!
0&!
0i
1g
0j
1+
1#
#440000
0"
0!
0*
0,
#441000
1!
1,
1&!
1-
0g
0h
1.
#442000
0!
0,
#443000
1!
1,
0%!
0&!
1$!
0-
07
1g
0.
17
19
1.
08
09
18
1:
0:
#444000
0!
0,
#445000
1!
1,
1&!
0g
1h
#446000
0!
0,
#447000
1!
1,
1%!
0&!
1g
#448000
0!
0,
#449000
1!
1,
1&!
1-
0g
0h
07
0.
19
08
1:
#450000
0!
0,
#451000
1!
1,
0%!
0&!
1"!
0#!
0$!
0-
0;
09
17
1g
0:
18
1.
1;
0.
1<
1:
08
0<
#452000
0!
0,
#453000
1!
1,
1&!
0g
1h
#454000
0!
0,
#455000
1!
1,
1%!
0&!
1g
#456000
0!
0,
#457000
1!
1,
1&!
1-
0g
0h
1.
#458000
0!
0,
#459000
1!
1,
0%!
0&!
1$!
0-
05
07
1g
0.
17
1j
0f
16
1.
18
0+
0#
08
0g
#460000
1"
0!
1*
0,
#461000
1!
1,
0"!
0$!
1i
15
0:
0.
1f
06
1g
#462000
0!
0,
#463000
1!
1,
1&!
0g
1h
#464000
0!
0,
#465000
1!
1,
1%!
0&!
1g
#466000
0!
0,
#467000
1!
1,
1&!
1-
0g
0h
1.
#468000
0!
0,
#469000
1!
1,
0%!
0&!
1$!
0-
07
1g
0.
17
1.
18
08
#470000
0!
0,
#471000
1!
1,
1&!
0g
1h
#472000
0!
0,
#473000
1!
1,
1%!
0&!
1g
#474000
0!
0,
#475000
1!
1,
1&!
1-
0g
0h
07
0.
18
#476000
0!
0,
#477000
1!
1,
0%!
0&!
1#!
0$!
0-
19
17
1g
08
1.
09
0.
1:
18
0:
#478000
0!
0,
#479000
1!
1,
1&!
0g
1h
#480000
0"
0!
0*
0,
#481000
1!
1,
1%!
0&!
0i
1g
0j
1+
1#
#482000
0!
0,
#483000
1!
1,
1&!
1-
0g
0h
1.
#484000
0!
0,
#485000
1!
1,
0%!
0&!
1$!
0-
07
1g
0.
17
19
1.
08
09
18
1:
0:
#486000
0!
0,
#487000
1!
1,
1&!
0g
1h
#488000
0!
0,
#489000
1!
1,
1%!
0&!
1g
#490000
0!
0,
#491000
1!
1,
1&!
1-
0g
0h
07
0.
19
08
1:
#492000
0!
0,
#493000
1!
1,
0%!
0&!
1"!
0#!
0$!
0-
0;
09
17
1g
0:
18
1.
1;
0.
1<
1:
08
0<
#494000
0!
0,
#495000
1!
1,
1&!
0g
1h
#496000
0!
0,
#497000
1!
1,
1%!
0&!
1g
#498000
0!
0,
#499000
1!
1,
1&!
1-
0g
0h
1.
#500000
1"
0!
1*
0,
#501000
1!
1,
0%!
0&!
1$!
0-
05
07
1g
0.
17
1j
0f
16
1.
18
0+
0#
08
0g
#502000
0!
0,
#503000
1!
1,
0"!
0$!
1i
15
0:
0.
1f
06
1g
#504000
0!
0,
#505000
1!
1,
1&!
0g
1h
#506000
0!
0,
#507000
1!
1,
1%!
0&!
1g
#508000
0!
0,
#509000
1!
1,
1&!
1-
0g
0h
1.
#510000
0!
0,
#511000
1!
1,
0%!
0&!
1$!
0-
07
1g
0.
17
1.
18
08
#512000
0!
0,
#513000
1!
1,
1&!
0g
1h
#514000
0!
0,
#515000
1!
1,
1%!
0&!
1g
#516000
0!
0,
#517000
1!
1,
1&!
1-
0g
0h
07
0.
18
#518000
0!
0,
#519000
1!
1,
0%!
0&!
1#!
0$!
0-
19
17
1g
08
1.
09
0.
1:
18
0:
#520000
0"
0!
0*
0,
#521000
1!
1,
1&!
0g
1h
#522000
0!
0,
#523000
1!
1,
1%!
0&!
0i
1g
0j
1+
1#
#524000
0!
0,
#525000
1!
1,
1&!
1-
0g
0h
1.
#526000
0!
0,
#527000
1!
1,
0%!
0&!
1$!
0-
07
1g
0.
17
19
1.
08
09
18
1:
0:
#528000
0!
0,
#529000
1!
1,
1&!
0g
1h
#530000
0!
0,
#531000
1!
1,
1%!
0&!
1g
#532000
0!
0,
#533000
1!
1,
1&!
1-
0g
0h
07
0.
19
08
1:
#534000
0!
0,
#535000
1!
1,
0%!
0&!
1"!
0#!
0$!
0-
0;
09
17
1g
0:
18
1.
1;
0.
1<
1:
08
0<
#536000
0!
0,
#537000
1!
1,
1&!
0g
1h
#538000
0!
0,
#539000
1!
1,
1%!
0&!
1g
#540000
1"
0!
1*
0,
#541000
1!
1,
1&!
1-
0g
0h
1.
#542000
0!
0,
#543000
1!
1,
0%!
0&!
1$!
0-
05
07
1g
0.
17
1j
0f
16
1.
18
0+
0#
08
0g
#544000
0!
0,
#545000
1!
1,
0"!
0$!
1i
15
0:
0.
1f
06
1g
#546000
0!
0,
#547000
1!
1,
1&!
0g
1h
#548000
0!
0,
#549000
1!
1,
1%!
0&!
1g
#550000
0!
0,
#551000
1!
1,
1&!
1-
0g
0h
1.
#552000
0!
0,
#553000
1!
1,
0%!
0&!
1$!
0-
07
1g
0.
17
1.
18
08
#554000
0!
0,
#555000
1!
1,
1&!
0g
1h
#556000
0!
0,
#557000
1!
1,
1%!
0&!
1g
#558000
0!
0,
#559000
1!
1,
1&!
1-
0g
0h
07
0.
18
#560000
0"
0!
0*
0,
#561000
1!
1,
0%!
0&!
1#!
0$!
0-
19
17
1g
08
1.
09
0.
1:
18
0:
#562000
0!
0,
#563000
1!
1,
1&!
0g
1h
#564000
0!
0,
#565000
1!
1,
1%!
0&!
0i
1g
0j
1+
1#
#566000
0!
0,
#567000
1!
1,
1&!
1-
0g
0h
1.
#568000
0!
0,
#569000
1!
1,
0%!
0&!
1$!
0-
07
1g
0.
17
19
1.
08
09
18
1:
0:
#570000
0!
0,
#571000
1!
1,
1&!
0g
1h
#572000
0!
0,
#573000
1!
1,
1%!
0&!
1g
#574000
0!
0,
#575000
1!
1,
1&!
1-
0g
0h
07
0.
19
08
1:
#576000
0!
0,
#577000
1!
1,
0%!
0&!
1"!
0#!
0$!
0-
0;
09
17
1g
0:
18
1.
1;
0.
1<
1:
08
0<
#578000
0!
0,
#579000
1!
1,
1&!
0g
1h
#580000
1"
0!
1*
0,
#581000
1!
1,
1%!
0&!
1g
#582000
0!
0,
#583000
1!
1,
1&!
1-
0g
0h
1.
#584000
0!
0,
#585000
1!
1,
0%!
0&!
1$!
0-
05
07
1g
0.
17
1j
0f
16
1.
18
0+
0#
08
0g
#586000
0!
0,
#587000
1!
1,
0"!
0$!
1i
15
0:
0.
1f
06
1g
#588000
0!
0,
#589000
1!
1,
1&!
0g
1h
#590000
0!
0,
#591000
1!
1,
1%!
0&!
1g
#592000
0!
0,
#593000
1!
1,
1&!
1-
0g
0h
1.
#594000
0!
0,
#595000
1!
1,
0%!
0&!
1$!
0-
07
1g
0.
17
1.
18
08
#596000
0!
0,
