simulation/qsim/Projeto_2.msim.vcd
$comment
	File created using the following command:
		vcd file Projeto_2.msim.vcd -direction
$end
$date
	Wed Jul 21 21:34:25 2021
$end
$version
	ModelSim Version 2020.1
$end
$timescale
	1ps
$end

$scope module divisor_clock_vlg_vec_tst $end
$var reg 1 ! clock $end
$var reg 1 " enable $end
$var wire 1 # clock_saida $end

$scope module i1 $end
$var wire 1 $ gnd $end
$var wire 1 % vcc $end
$var wire 1 & unknown $end
$var tri1 1 ' devclrn $end
$var tri1 1 ( devpor $end
$var tri1 1 ) devoe $end
$var wire 1 * clock_saida~output_o $end
$var wire 1 + enable~input_o $end
$var wire 1 , clock~input_o $end
$var wire 1 - count[1]~7_combout $end
$var wire 1 . _~0_combout $end
$var wire 1 / op_3~1_cout $end
$var wire 1 0 op_3~2_combout $end
$var wire 1 1 count[2]~5_combout $end
$var wire 1 2 count[2]~6_combout $end
$var wire 1 3 op_3~3 $end
$var wire 1 4 op_3~4_combout $end
$var wire 1 5 count[3]~8_combout $end
$var wire 1 6 count[3]~4_combout $end
$var wire 1 7 op_3~5 $end
$var wire 1 8 op_3~6_combout $end
$var wire 1 9 count[4]~3_combout $end
$var wire 1 : op_3~7 $end
$var wire 1 ; op_3~8_combout $end
$var wire 1 < count[5]~2_combout $end
$var wire 1 = op_2~0_combout $end
$var wire 1 > clock_saida~0_combout $end
$var wire 1 ? count [5] $end
$var wire 1 @ count [4] $end
$var wire 1 A count [3] $end
$var wire 1 B count [2] $end
$var wire 1 C count [1] $end
$var wire 1 D count [0] $end
$upscope $end
$upscope $end
$enddefinitions $end
#0
$dumpvars
0!
1"
1#
0$
1%
x&
1'
1(
1)
1*
1+
0,
1-
1.
0/
10
11
12
13
14
15
16
07
18
09
1:
1;
0<
0=
1>
zD
0C
0B
0A
0@
0?
$end
#1000
1!
1,
1A
1B
1C
1=
05
17
04
0.
03
00
1/
01
0:
08
14
10
0>
1<
19
06
0-
0*
0;
11
0#
02
09
16
0<
12
#2000
0!
0,
#3000
1!
1,
0C
0/
1-
00
01
02
#4000
0!
0,
#5000
1!
1,
0B
1C
0=
13
10
1/
0-
04
03
00
1>
06
1*
14
1#
#6000
0!
0,
#7000
1!
1,
0A
0C
15
04
1.
0/
11
13
10
16
1-
07
14
12
1:
18
1;
#8000
0!
0,
#9000
1!
1,
1A
1B
1C
1=
05
17
04
0.
03
00
1/
01
0:
08
14
10
0>
1<
19
06
0-
0*
0;
11
0#
02
09
16
0<
12
#10000
0!
0,
#11000
1!
1,
0C
0/
1-
00
01
02
#12000
0!
0,
#13000
1!
1,
0B
1C
0=
13
10
1/
0-
04
03
00
1>
06
1*
14
1#
#14000
0!
0,
#15000
1!
1,
0A
0C
15
04
1.
0/
11
13
10
16
1-
07
14
12
1:
18
1;
#16000
0!
0,
#17000
1!
1,
1A
1B
1C
1=
05
17
04
0.
03
00
1/
01
0:
08
14
10
0>
1<
19
06
0-
0*
0;
11
0#
02
09
16
0<
12
#18000
0!
0,
#19000
1!
1,
0C
0/
1-
00
01
02
#20000
0!
0,
#21000
1!
1,
0B
1C
0=
13
10
1/
0-
04
03
00
1>
06
1*
14
1#
#22000
0!
0,
#23000
1!
1,
0A
0C
15
04
1.
0/
11
13
10
16
1-
07
14
12
1:
18
1;
#24000
0!
0,
#25000
1!
1,
1A
1B
1C
1=
05
17
04
0.
03
00
1/
01
0:
08
14
10
0>
1<
19
06
0-
0*
0;
11
0#
02
09
16
0<
12
#26000
0!
0,
#27000
1!
1,
0C
0/
1-
00
01
02
#28000
0!
0,
#29000
1!
1,
0B
1C
0=
13
10
1/
0-
04
03
00
1>
06
1*
14
1#
#30000
0!
0,
#31000
1!
1,
0A
0C
15
04
1.
0/
11
13
10
16
1-
07
14
12
1:
18
1;
#32000
0!
0,
#33000
1!
1,
1A
1B
1C
1=
05
17
04
0.
03
00
1/
01
0:
08
14
10
0>
1<
19
06
0-
0*
0;
11
0#
02
09
16
0<
12
#34000
0!
0,
#35000
1!
1,
0C
0/
1-
00
01
02
#36000
0!
0,
#37000
1!
1,
0B
1C
0=
13
10
1/
0-
04
03
00
1>
06
1*
14
1#
#38000
0!
0,
#39000
1!
1,
0A
0C
15
04
1.
0/
11
13
10
16
1-
07
14
12
1:
18
1;
#40000
0!
0,
#41000
1!
1,
1A
1B
1C
1=
05
17
04
0.
03
00
1/
01
0:
08
14
10
0>
1<
19
06
0-
0*
0;
11
0#
02
09
16
0<
12
#42000
0!
0,
#43000
1!
1,
0C
0/
1-
00
01
02
#44000
0!
0,
#45000
1!
1,
0B
1C
0=
13
10
1/
0-
04
03
00
1>
06
1*
14
1#
#46000
0!
0,
#47000
1!
1,
0A
0C
15
04
1.
0/
11
13
10
16
1-
07
14
12
1:
18
1;
#48000
0!
0,
#49000
1!
1,
1A
1B
1C
1=
05
17
04
0.
03
00
1/
01
0:
08
14
10
0>
1<
19
06
0-
0*
0;
11
0#
02
09
16
0<
12
#50000
0!
0,
#51000
1!
1,
0C
0/
1-
00
01
02
#52000
0!
0,
#53000
1!
1,
0B
1C
0=
13
10
1/
0-
04
03
00
1>
06
1*
14
1#
#54000
0!
0,
#55000
1!
1,
0A
0C
15
04
1.
0/
11
13
10
16
1-
07
14
12
1:
18
1;
#56000
0!
0,
#57000
1!
1,
1A
1B
1C
1=
05
17
04
0.
03
00
1/
01
0:
08
14
10
0>
1<
19
06
0-
0*
0;
11
0#
02
09
16
0<
12
#58000
0!
0,
#59000
1!
1,
0C
0/
1-
00
01
02
#60000
0!
0,
#61000
1!
1,
0B
1C
0=
13
10
1/
0-
04
03
00
1>
06
1*
14
1#
#62000
0!
0,
#63000
1!
1,
0A
0C
15
04
1.
0/
11
13
10
16
1-
07
14
12
1:
18
1;
#64000
0!
0,
#65000
1!
1,
1A
1B
1C
1=
05
17
04
0.
03
00
1/
01
0:
08
14
10
0>
1<
19
06
0-
0*
0;
11
0#
02
09
16
0<
12
#66000
0!
0,
#67000
1!
1,
0C
0/
1-
00
01
02
#68000
0!
0,
#69000
1!
1,
0B
1C
0=
13
10
1/
0-
04
03
00
1>
06
1*
14
1#
#70000
0!
0,
#71000
1!
1,
0A
0C
15
04
1.
0/
11
13
10
16
1-
07
14
12
1:
18
1;
#72000
0!
0,
#73000
1!
1,
1A
1B
1C
1=
05
17
04
0.
03
00
1/
01
0:
08
14
10
0>
1<
19
06
0-
0*
0;
11
0#
02
09
16
0<
12
#74000
0!
0,
#75000
1!
1,
0C
0/
1-
00
01
02
#76000
0!
0,
#77000
1!
1,
0B
1C
0=
13
10
1/
0-
04
03
00
1>
06
1*
14
1#
#78000
0!
0,
#79000
1!
1,
0A
0C
15
04
1.
0/
11
13
10
16
1-
07
14
12
1:
18
1;
#80000
0!
0,
#81000
1!
1,
1A
1B
1C
1=
05
17
04
0.
03
00
1/
01
0:
08
14
10
0>
1<
19
06
0-
0*
0;
11
0#
02
09
16
0<
12
#82000
0!
0,
#83000
1!
1,
0C
0/
1-
00
01
02
#84000
0!
0,
#85000
1!
1,
0B
1C
0=
13
10
1/
0-
04
03
00
1>
06
1*
14
1#
#86000
0!
0,
#87000
1!
1,
0A
0C
15
04
1.
0/
11
13
10
16
1-
07
14
12
1:
18
1;
#88000
0!
0,
#89000
1!
1,
1A
1B
1C
1=
05
17
04
0.
03
00
1/
01
0:
08
14
10
0>
1<
19
06
0-
0*
0;
11
0#
02
09
16
0<
12
#90000
0!
0,
#91000
1!
1,
0C
0/
1-
00
01
02
#92000
0!
0,
#93000
1!
1,
0B
1C
0=
13
10
1/
0-
04
03
00
1>
06
1*
14
1#
#94000
0!
0,
#95000
1!
1,
0A
0C
15
04
1.
0/
11
13
10
16
1-
07
14
12
1:
18
1;
#96000
0!
0,
#97000
1!
1,
1A
1B
1C
1=
05
17
04
0.
03
00
1/
01
0:
08
14
10
0>
1<
19
06
0-
0*
0;
11
0#
02
09
16
0<
12
#98000
0!
0,
#99000
1!
1,
0C
0/
1-
00
01
02
#100000
0!
0,
#101000
1!
1,
0B
1C
0=
13
10
1/
0-
04
03
00
1>
06
1*
14
1#
#102000
0!
0,
#103000
1!
1,
0A
0C
15
04
1.
0/
11
13
10
16
1-
07
14
12
1:
18
1;
#104000
0!
0,
#105000
1!
1,
1A
1B
1C
1=
05
17
04
0.
03
00
1/
01
0:
08
14
10
0>
1<
19
06
0-
0*
0;
11
0#
02
09
16
0<
12
#106000
0!
0,
#107000
1!
1,
0C
0/
1-
00
01
02
#108000
0!
0,
#109000
1!
1,
0B
1C
0=
13
10
1/
0-
04
03
00
1>
06
1*
14
1#
#110000
0!
0,
#111000
1!
1,
0A
0C
15
04
1.
0/
11
13
10
16
1-
07
14
12
1:
18
1;
#112000
0!
0,
#113000
1!
1,
1A
1B
1C
1=
05
17
04
0.
03
00
1/
01
0:
08
14
10
0>
1<
19
06
0-
0*
0;
11
0#
02
09
16
0<
12
#114000
0!
0,
#115000
1!
1,
0C
0/
1-
00
01
02
#116000
0!
0,
#117000
1!
1,
0B
1C
0=
13
10
1/
0-
04
03
00
1>
06
1*
14
1#
#118000
0!
0,
#119000
1!
1,
0A
0C
15
04
1.
0/
11
13
10
16
1-
07
14
12
1:
18
1;
#120000
0!
0,
#121000
1!
1,
1A
1B
1C
1=
05
17
04
0.
03
00
1/
01
0:
08
14
10
0>
1<
19
06
0-
0*
0;
11
0#
02
09
16
0<
12
#122000
0!
0,
#123000
1!
1,
0C
0/
1-
00
01
02
#124000
0!
0,
#125000
1!
1,
0B
1C
0=
13
10
1/
0-
04
03
00
1>
06
1*
14
1#
#126000
0!
0,
#127000
1!
1,
0A
0C
15
04
1.
0/
11
13
10
16
1-
07
14
12
1:
18
1;
#128000
0!
0,
#129000
1!
1,
1A
1B
1C
1=
05
17
04
0.
03
00
1/
01
0:
08
14
10
0>
1<
19
06
0-
0*
0;
11
0#
02
09
16
0<
12
#130000
0!
0,
#131000
1!
1,
0C
0/
1-
00
01
02
#132000
0!
0,
#133000
1!
1,
0B
1C
0=
13
10
1/
0-
04
03
00
1>
06
1*
14
1#
#134000
0!
0,
#135000
1!
1,
0A
0C
15
04
1.
0/
11
13
10
16
1-
07
14
12
1:
18
1;
#136000
0!
0,
#137000
1!
1,
1A
1B
1C
1=
05
17
04
0.
03
00
1/
01
0:
08
14
10
0>
1<
19
06
0-
0*
0;
11
0#
02
09
16
0<
12
#138000
0!
0,
#139000
1!
1,
0C
0/
1-
00
01
02
#140000
0!
0,
#141000
1!
1,
0B
1C
0=
13
10
1/
0-
04
03
00
1>
06
1*
14
1#
#142000
0!
0,
#143000
1!
1,
0A
0C
15
04
1.
0/
11
13
10
16
1-
07
14
12
1:
18
1;
#144000
0!
0,
#145000
1!
1,
1A
1B
1C
1=
05
17
04
0.
03
00
1/
01
0:
08
14
10
0>
1<
19
06
0-
0*
0;
11
0#
02
09
16
0<
12
#146000
0!
0,
#147000
1!
1,
0C
0/
1-
00
01
02
#148000
0!
0,
#149000
1!
1,
0B
1C
0=
13
10
1/
0-
04
03
00
1>
06
1*
14
1#
#150000
0!
0,
#151000
1!
1,
0A
0C
15
04
1.
0/
11
13
10
16
1-
07
14
12
1:
18
1;
#152000
0!
0,
#153000
1!
1,
1A
1B
1C
1=
05
17
04
0.
03
00
1/
01
0:
08
14
10
0>
1<
19
06
0-
0*
0;
11
0#
02
09
16
0<
12
#154000
0!
0,
#155000
1!
1,
0C
0/
1-
00
01
02
#156000
0!
0,
#157000
1!
1,
0B
1C
0=
13
10
1/
0-
04
03
00
1>
06
1*
14
1#
#158000
0!
0,
#159000
1!
1,
0A
0C
15
04
1.
0/
11
13
10
16
1-
07
14
12
1:
18
1;
#160000
0!
0,
#161000
1!
1,
1A
1B
1C
1=
05
17
04
0.
03
00
1/
01
0:
08
14
10
0>
1<
19
06
0-
0*
0;
11
0#
02
09
16
0<
12
#162000
0!
0,
#163000
1!
1,
0C
0/
1-
00
01
02
#164000
0!
0,
#165000
1!
1,
0B
1C
0=
13
10
1/
0-
04
03
00
1>
06
1*
14
1#
#166000
0!
0,
#167000
1!
1,
0A
0C
15
04
1.
0/
11
13
10
16
1-
07
14
12
1:
18
1;
#168000
0!
0,
#169000
1!
1,
1A
1B
1C
1=
05
17
04
0.
03
00
1/
01
0:
08
14
10
0>
1<
19
06
0-
0*
0;
11
0#
02
09
16
0<
12
#170000
0!
0,
#171000
1!
1,
0C
0/
1-
00
01
02
#172000
0!
0,
#173000
1!
1,
0B
1C
0=
13
10
1/
0-
04
03
00
1>
06
1*
14
1#
#174000
0!
0,
#175000
1!
1,
0A
0C
15
04
1.
0/
11
13
10
16
1-
07
14
12
1:
18
1;
#176000
0!
0,
#177000
1!
1,
1A
1B
1C
1=
05
17
04
0.
03
00
1/
01
0:
08
14
10
0>
1<
19
06
0-
0*
0;
11
0#
02
09
16
0<
12
#178000
0!
0,
#179000
1!
1,
0C
0/
1-
00
01
02
#180000
0!
0,
#181000
1!
1,
0B
1C
0=
13
10
1/
0-
04
03
00
1>
06
1*
14
1#
#182000
0!
0,
#183000
1!
1,
0A
0C
15
04
1.
0/
11
13
10
16
1-
07
14
12
1:
18
1;
#184000
0!
0,
#185000
1!
1,
1A
1B
1C
1=
05
17
04
0.
03
00
1/
01
0:
08
14
10
0>
1<
19
06
0-
0*
0;
11
0#
02
09
16
0<
12
#186000
0!
0,
#187000
1!
1,
0C
0/
1-
00
01
02
#188000
0!
0,
#189000
1!
1,
0B
1C
0=
13
10
1/
0-
04
03
00
1>
06
1*
14
1#
#190000
0!
0,
#191000
1!
1,
0A
0C
15
04
1.
0/
11
13
10
16
1-
07
14
12
1:
18
1;
#192000
0!
0,
#193000
1!
1,
1A
1B
1C
1=
05
17
04
0.
03
00
1/
01
0:
08
14
10
0>
1<
19
06
0-
0*
0;
11
0#
02
09
16
0<
12
#194000
0!
0,
#195000
1!
1,
0C
0/
1-
00
01
02
#196000
0!
0,
#197000
1!
1,
0B
1C
0=
13
10
1/
0-
04
03
00
1>
06
1*
14
1#
#198000
0!
0,
#199000
1!
1,
0A
0C
15
04
1.
0/
11
13
10
16
1-
07
14
12
1:
18
1;
#200000
0!
0,
#201000
1!
1,
1A
1B
1C
1=
05
17
04
0.
03
00
1/
01
0:
08
14
10
0>
1<
19
06
0-
0*
0;
11
0#
02
09
16
0<
12
#202000
0!
0,
#203000
1!
1,
0C
0/
1-
00
01
02
#204000
0!
0,
#205000
1!
1,
0B
1C
0=
13
10
1/
0-
04
03
00
1>
06
1*
14
1#
#206000
0!
0,
#207000
1!
1,
0A
0C
15
04
1.
0/
11
13
10
16
1-
07
14
12
1:
18
1;
#208000
0!
0,
#209000
1!
1,
1A
1B
1C
1=
05
17
04
0.
03
00
1/
01
0:
08
14
10
0>
1<
19
06
0-
0*
0;
11
0#
02
09
16
0<
12
#210000
0!
0,
#211000
1!
1,
0C
0/
1-
00
01
02
#212000
0!
0,
#213000
1!
1,
0B
1C
0=
13
10
1/
0-
04
03
00
1>
06
1*
14
1#
#214000
0!
0,
#215000
1!
1,
0A
0C
15
04
1.
0/
11
13
10
16
1-
07
14
12
1:
18
1;
#216000
0!
0,
#217000
1!
1,
1A
1B
1C
1=
05
17
04
0.
03
00
1/
01
0:
08
14
10
0>
1<
19
06
0-
0*
0;
11
0#
02
09
16
0<
12
#218000
0!
0,
#219000
1!
1,
0C
0/
1-
00
01
02
#220000
0!
0,
#221000
1!
1,
0B
1C
0=
13
10
1/
0-
04
03
00
1>
06
1*
14
1#
#222000
0!
0,
#223000
1!
1,
0A
0C
15
04
1.
0/
11
13
10
16
1-
07
14
12
1:
18
1;
#224000
0!
0,
#225000
1!
1,
1A
1B
1C
1=
05
17
04
0.
03
00
1/
01
0:
08
14
10
0>
1<
19
06
0-
0*
0;
11
0#
02
09
16
0<
12
#226000
0!
0,
#227000
1!
1,
0C
0/
1-
00
01
02
#228000
0!
0,
#229000
1!
1,
0B
1C
0=
13
10
1/
0-
04
03
00
1>
06
1*
14
1#
#230000
0!
0,
#231000
1!
1,
0A
0C
15
04
1.
0/
11
13
10
16
1-
07
14
12
1:
18
1;
#232000
0!
0,
#233000
1!
1,
1A
1B
1C
1=
05
17
04
0.
03
00
1/
01
0:
08
14
10
0>
1<
19
06
0-
0*
0;
11
0#
02
09
16
0<
12
#234000
0!
0,
#235000
1!
1,
0C
0/
1-
00
01
02
#236000
0!
0,
#237000
1!
1,
0B
1C
0=
13
10
1/
0-
04
03
00
1>
06
1*
14
1#
#238000
0!
0,
#239000
1!
1,
0A
0C
15
04
1.
0/
11
13
10
16
1-
07
14
12
1:
18
1;
#240000
0!
0,
#241000
1!
1,
1A
1B
1C
1=
05
17
04
0.
03
00
1/
01
0:
08
14
10
0>
1<
19
06
0-
0*
0;
11
0#
02
09
16
0<
12
#242000
0!
0,
#243000
1!
1,
0C
0/
1-
00
01
02
#244000
0!
0,
#245000
1!
1,
0B
1C
0=
13
10
1/
0-
04
03
00
1>
06
1*
14
1#
#246000
0!
0,
#247000
1!
1,
0A
0C
15
04
1.
0/
11
13
10
16
1-
07
14
12
1:
18
1;
#248000
0!
0,
#249000
1!
1,
1A
1B
1C
1=
05
17
04
0.
03
00
1/
01
0:
08
14
10
0>
1<
19
06
0-
0*
0;
11
0#
02
09
16
0<
12
#250000
0!
0,
#251000
1!
1,
0C
0/
1-
00
01
02
#252000
0!
0,
#253000
1!
1,
0B
1C
0=
13
10
1/
0-
04
03
00
1>
06
1*
14
1#
#254000
0!
0,
#255000
1!
1,
0A
0C
15
04
1.
0/
11
13
10
16
1-
07
14
12
1:
18
1;
#256000
0!
0,
#257000
1!
1,
1A
1B
1C
1=
05
17
04
0.
03
00
1/
01
0:
08
14
10
0>
1<
19
06
0-
0*
0;
11
0#
02
09
16
0<
12
#258000
0!
0,
#259000
1!
1,
0C
0/
1-
00
01
02
#260000
0!
0,
#261000
1!
1,
0B
1C
0=
13
10
1/
0-
04
03
00
1>
06
1*
14
1#
#262000
0!
0,
#263000
1!
1,
0A
0C
15
04
1.
0/
11
13
10
16
1-
07
14
12
1:
18
1;
#264000
0!
0,
#265000
1!
1,
1A
1B
1C
1=
05
17
04
0.
03
00
1/
01
0:
08
14
10
0>
1<
19
06
0-
0*
0;
11
0#
02
09
16
0<
12
#266000
0!
0,
#267000
1!
1,
0C
0/
1-
00
01
02
#268000
0!
0,
#269000
1!
1,
0B
1C
0=
13
10
1/
0-
04
03
00
1>
06
1*
14
1#
#270000
0!
0,
#271000
1!
1,
0A
0C
15
04
1.
0/
11
13
10
16
1-
07
14
12
1:
18
1;
#272000
0!
0,
#273000
1!
1,
1A
1B
1C
1=
05
17
04
0.
03
00
1/
01
0:
08
14
10
0>
1<
19
06
0-
0*
0;
11
0#
02
09
16
0<
12
#274000
0!
0,
#275000
1!
1,
0C
0/
1-
00
01
02
#276000
0!
0,
#277000
1!
1,
0B
1C
0=
13
10
1/
0-
04
03
00
1>
06
1*
14
1#
#278000
0!
0,
#279000
1!
1,
0A
0C
15
04
1.
0/
11
13
10
16
1-
07
14
12
1:
18
1;
#280000
0!
0,
#281000
1!
1,
1A
1B
1C
1=
05
17
04
0.
03
00
1/
01
0:
08
14
10
0>
1<
19
06
0-
0*
0;
11
0#
02
09
16
0<
12
#282000
0!
0,
#283000
1!
1,
0C
0/
1-
00
01
02
#284000
0!
0,
#285000
1!
1,
0B
1C
0=
13
10
1/
0-
04
03
00
1>
06
1*
14
1#
#286000
0!
0,
#287000
1!
1,
0A
0C
15
04
1.
0/
11
13
10
16
1-
07
14
12
1:
18
1;
#288000
0!
0,
#289000
1!
1,
1A
1B
1C
1=
05
17
04
0.
03
00
1/
01
0:
08
14
10
0>
1<
19
06
0-
0*
0;
11
0#
02
09
16
0<
12
#290000
0!
0,
#291000
1!
1,
0C
0/
1-
00
01
02
#292000
0!
0,
#293000
1!
1,
0B
1C
0=
13
10
1/
0-
04
03
00
1>
06
1*
14
1#
#294000
0!
0,
#295000
1!
1,
0A
0C
15
04
1.
0/
11
13
10
16
1-
07
14
12
1:
18
1;
#296000
0!
0,
#297000
1!
1,
1A
1B
1C
1=
05
17
04
0.
03
00
1/
01
0:
08
14
10
0>
1<
19
06
0-
0*
0;
11
0#
02
09
16
0<
12
#298000
0!
0,
#299000
1!
1,
0C
0/
1-
00
01
02
#300000
0!
0,
#301000
1!
1,
0B
1C
0=
13
10
1/
0-
04
03
00
1>
06
1*
14
1#
#302000
0!
0,
#303000
1!
1,
0A
0C
15
04
1.
0/
11
13
10
16
1-
07
14
12
1:
18
1;
#304000
0!
0,
#305000
1!
1,
1A
1B
1C
1=
05
17
04
0.
03
00
1/
01
0:
08
14
10
0>
1<
19
06
0-
0*
0;
11
0#
02
09
16
0<
12
#306000
0!
0,
#307000
1!
1,
0C
0/
1-
00
01
02
#308000
0!
0,
#309000
1!
1,
0B
1C
0=
13
10
1/
0-
04
03
00
1>
06
1*
14
1#
#310000
0!
0,
#311000
1!
1,
0A
0C
15
04
1.
0/
11
13
10
16
1-
07
14
12
1:
18
1;
#312000
0!
0,
#313000
1!
1,
1A
1B
1C
1=
05
17
04
0.
03
00
1/
01
0:
08
14
10
0>
1<
19
06
0-
0*
0;
11
0#
02
09
16
0<
12
#314000
0!
0,
#315000
1!
1,
0C
0/
1-
00
01
02
#316000
0!
0,
#317000
1!
1,
0B
1C
0=
13
10
1/
0-
04
03
00
1>
06
1*
14
1#
#318000
0!
0,
#319000
1!
1,
0A
0C
15
04
1.
0/
11
13
10
16
1-
07
14
12
1:
18
1;
#320000
0!
0,
#321000
1!
1,
1A
1B
1C
1=
05
17
04
0.
03
00
1/
01
0:
08
14
10
0>
1<
19
06
0-
0*
0;
11
0#
02
09
16
0<
12
#322000
0!
0,
#323000
1!
1,
0C
0/
1-
00
01
02
#324000
0!
0,
#325000
1!
1,
0B
1C
0=
13
10
1/
0-
04
03
00
1>
06
1*
14
1#
#326000
0!
0,
#327000
1!
1,
0A
0C
15
04
1.
0/
11
13
10
16
1-
07
14
12
1:
18
1;
#328000
0!
0,
#329000
1!
1,
1A
1B
1C
1=
05
17
04
0.
03
00
1/
01
0:
08
14
10
0>
1<
19
06
0-
0*
0;
11
0#
02
09
16
0<
12
#330000
0!
0,
#331000
1!
1,
0C
0/
1-
00
01
02
#332000
0!
0,
#333000
1!
1,
0B
1C
0=
13
10
1/
0-
04
03
00
1>
06
1*
14
1#
#334000
0!
0,
#335000
1!
1,
0A
0C
15
04
1.
0/
11
13
10
16
1-
07
14
12
1:
18
1;
#336000
0!
0,
#337000
1!
1,
1A
1B
1C
1=
05
17
04
0.
03
00
1/
01
0:
08
14
10
0>
1<
19
06
0-
0*
0;
11
0#
02
09
16
0<
12
#338000
0!
0,
#339000
1!
1,
0C
0/
1-
00
01
02
#340000
0!
0,
#341000
1!
1,
0B
1C
0=
13
10
1/
0-
04
03
00
1>
06
1*
14
1#
#342000
0!
0,
#343000
1!
1,
0A
0C
15
04
1.
0/
11
13
10
16
1-
07
14
12
1:
18
1;
#344000
0!
0,
#345000
1!
1,
1A
1B
1C
1=
05
17
04
0.
03
00
1/
01
0:
08
14
10
0>
1<
19
06
0-
0*
0;
11
0#
02
09
16
0<
12
#346000
0!
0,
#347000
1!
1,
0C
0/
1-
00
01
02
#348000
0!
0,
#349000
1!
1,
0B
1C
0=
13
10
1/
0-
04
03
00
1>
06
1*
14
1#
#350000
0!
0,
#351000
1!
1,
0A
0C
15
04
1.
0/
11
13
10
16
1-
07
14
12
1:
18
1;
#352000
0!
0,
#353000
1!
1,
1A
1B
1C
1=
05
17
04
0.
03
00
1/
01
0:
08
14
10
0>
1<
19
06
0-
0*
0;
11
0#
02
09
16
0<
12
#354000
0!
0,
#355000
1!
1,
0C
0/
1-
00
01
02
#356000
0!
0,
#357000
1!
1,
0B
1C
0=
13
10
1/
0-
04
03
00
1>
06
1*
14
1#
#358000
0!
0,
#359000
1!
1,
0A
0C
15
04
1.
0/
11
13
10
16
1-
07
14
12
1:
18
1;
#360000
0!
0,
#361000
1!
1,
1A
1B
1C
1=
05
17
04
0.
03
00
1/
01
0:
08
14
10
0>
1<
19
06
0-
0*
0;
11
0#
02
09
16
0<
12
#362000
0!
0,
#363000
1!
1,
0C
0/
1-
00
01
02
#364000
0!
0,
#365000
1!
1,
0B
1C
0=
13
10
1/
0-
04
03
00
1>
06
1*
14
1#
#366000
0!
0,
#367000
1!
1,
0A
0C
15
04
1.
0/
11
13
10
16
1-
07
14
12
1:
18
1;
#368000
0!
0,
#369000
1!
1,
1A
1B
1C
1=
05
17
04
0.
03
00
1/
01
0:
08
14
10
0>
1<
19
06
0-
0*
0;
11
0#
02
09
16
0<
12
#370000
0!
0,
#371000
1!
1,
0C
0/
1-
00
01
02
#372000
0!
0,
#373000
1!
1,
0B
1C
0=
13
10
1/
0-
04
03
00
1>
06
1*
14
1#
#374000
0!
0,
#375000
1!
1,
0A
0C
15
04
1.
0/
11
13
10
16
1-
07
14
12
1:
18
1;
#376000
0!
0,
#377000
1!
1,
1A
1B
1C
1=
05
17
04
0.
03
00
1/
01
0:
08
14
10
0>
1<
19
06
0-
0*
0;
11
0#
02
09
16
0<
12
#378000
0!
0,
#379000
1!
1,
0C
0/
1-
00
01
02
#380000
0!
0,
#381000
1!
1,
0B
1C
0=
13
10
1/
0-
04
03
00
1>
06
1*
14
1#
#382000
0!
0,
#383000
1!
1,
0A
0C
15
04
1.
0/
11
13
10
16
1-
07
14
12
1:
18
1;
#384000
0!
0,
#385000
1!
1,
1A
1B
1C
1=
05
17
04
0.
03
00
1/
01
0:
08
14
10
0>
1<
19
06
0-
0*
0;
11
0#
02
09
16
0<
12
#386000
0!
0,
#387000
1!
1,
0C
0/
1-
00
01
02
#388000
0!
0,
#389000
1!
1,
0B
1C
0=
13
10
1/
0-
04
03
00
1>
06
1*
14
1#
#390000
0!
0,
#391000
1!
1,
0A
0C
15
04
1.
0/
11
13
10
16
1-
07
14
12
1:
18
1;
#392000
0!
0,
#393000
1!
1,
1A
1B
1C
1=
05
17
04
0.
03
00
1/
01
0:
08
14
10
0>
1<
19
06
0-
0*
0;
11
0#
02
09
16
0<
12
#394000
0!
0,
#395000
1!
1,
0C
0/
1-
00
01
02
#396000
0!
0,
#397000
1!
1,
0B
1C
0=
13
10
1/
0-
04
03
00
1>
06
1*
14
1#
#398000
0!
0,
#399000
1!
1,
0A
0C
15
04
1.
0/
11
13
10
16
1-
07
14
12
1:
18
1;
#400000
0!
0,
#401000
1!
1,
1A
1B
1C
1=
05
17
04
0.
03
00
1/
01
0:
08
14
10
0>
1<
19
06
0-
0*
0;
11
0#
02
09
16
0<
12
#402000
0!
0,
#403000
1!
1,
0C
0/
1-
00
01
02
#404000
0!
0,
#405000
1!
1,
0B
1C
0=
13
10
1/
0-
04
03
00
1>
06
1*
14
1#
#406000
0!
0,
#407000
1!
1,
0A
0C
15
04
1.
0/
11
13
10
16
1-
07
14
12
1:
18
1;
#408000
0!
0,
#409000
1!
1,
1A
1B
1C
1=
05
17
04
0.
03
00
1/
01
0:
08
14
10
0>
1<
19
06
0-
0*
0;
11
0#
02
09
16
0<
12
#410000
0!
0,
#411000
1!
1,
0C
0/
1-
00
01
02
#412000
0!
0,
#413000
1!
1,
0B
1C
0=
13
10
1/
0-
04
03
00
1>
06
1*
14
1#
#414000
0!
0,
#415000
1!
1,
0A
0C
15
04
1.
0/
11
13
10
16
1-
07
14
12
1:
18
1;
#416000
0!
0,
#417000
1!
1,
1A
1B
1C
1=
05
17
04
0.
03
00
1/
01
0:
08
14
10
0>
1<
19
06
0-
0*
0;
11
0#
02
09
16
0<
12
#418000
0!
0,
#419000
1!
1,
0C
0/
1-
00
01
02
#420000
0!
0,
#421000
1!
1,
0B
1C
0=
13
10
1/
0-
04
03
00
1>
06
1*
14
1#
#422000
0!
0,
#423000
1!
1,
0A
0C
15
04
1.
0/
11
13
10
16
1-
07
14
12
1:
18
1;
#424000
0!
0,
#425000
1!
1,
1A
1B
1C
1=
05
17
04
0.
03
00
1/
01
0:
08
14
10
0>
1<
19
06
0-
0*
0;
11
0#
02
09
16
0<
12
#426000
0!
0,
#427000
1!
1,
0C
0/
1-
00
01
02
#428000
0!
0,
#429000
1!
1,
0B
1C
0=
13
10
1/
0-
04
03
00
1>
06
1*
14
1#
#430000
0!
0,
#431000
1!
1,
0A
0C
15
04
1.
0/
11
13
10
16
1-
07
14
12
1:
18
1;
#432000
0!
0,
#433000
1!
1,
1A
1B
1C
1=
05
17
04
0.
03
00
1/
01
0:
08
14
10
0>
1<
19
06
0-
0*
0;
11
0#
02
09
16
0<
12
#434000
0!
0,
#435000
1!
1,
0C
0/
1-
00
01
02
#436000
0!
0,
#437000
1!
1,
0B
1C
0=
13
10
1/
0-
04
03
00
1>
06
1*
14
1#
#438000
0!
0,
#439000
1!
1,
0A
0C
15
04
1.
0/
11
13
10
16
1-
07
14
12
1:
18
1;
#440000
0!
0,
#441000
1!
1,
1A
1B
1C
1=
05
17
04
0.
03
00
1/
01
0:
08
14
10
0>
1<
19
06
0-
0*
0;
11
0#
02
09
16
0<
12
#442000
0!
0,
#443000
1!
1,
0C
0/
1-
00
01
02
#444000
0!
0,
#445000
1!
1,
0B
1C
0=
13
10
1/
0-
04
03
00
1>
06
1*
14
1#
#446000
0!
0,
#447000
1!
1,
0A
0C
15
04
1.
0/
11
13
10
16
1-
07
14
12
1:
18
1;
#448000
0!
0,
#449000
1!
1,
1A
1B
1C
1=
05
17
04
0.
03
00
1/
01
0:
08
14
10
0>
1<
19
06
0-
0*
0;
11
0#
02
09
16
0<
12
#450000
0!
0,
#451000
1!
1,
0C
0/
1-
00
01
02
#452000
0!
0,
#453000
1!
1,
0B
1C
0=
13
10
1/
0-
04
03
00
1>
06
1*
14
1#
#454000
0!
0,
