simulation/qsim/Projeto_2.msim.vcd
$comment
	File created using the following command:
		vcd file Projeto_2.msim.vcd -direction
$end
$date
	Sun Jul 18 20:46:02 2021
$end
$version
	ModelSim Version 2020.1
$end
$timescale
	1ps
$end

$scope module contador_mod_24_vlg_vec_tst $end
$var reg 1 ! clk $end
$var reg 1 " ena $end
$var wire 1 # lsd [3] $end
$var wire 1 $ lsd [2] $end
$var wire 1 % lsd [1] $end
$var wire 1 & lsd [0] $end
$var wire 1 ' msd [2] $end
$var wire 1 ( msd [1] $end
$var wire 1 ) msd [0] $end

$scope module i1 $end
$var wire 1 * gnd $end
$var wire 1 + vcc $end
$var wire 1 , unknown $end
$var tri1 1 - devclrn $end
$var tri1 1 . devpor $end
$var tri1 1 / devoe $end
$var wire 1 0 lsd[0]~output_o $end
$var wire 1 1 lsd[1]~output_o $end
$var wire 1 2 lsd[2]~output_o $end
$var wire 1 3 lsd[3]~output_o $end
$var wire 1 4 msd[0]~output_o $end
$var wire 1 5 msd[1]~output_o $end
$var wire 1 6 msd[2]~output_o $end
$var wire 1 7 clk~input_o $end
$var wire 1 8 ena~input_o $end
$var wire 1 9 _~9_combout $end
$var wire 1 : op_2~0_combout $end
$var wire 1 ; low[0]~0_combout $end
$var wire 1 < _~5_combout $end
$var wire 1 = high[0]~0_combout $end
$var wire 1 > _~8_combout $end
$var wire 1 ? low[2]~4_combout $end
$var wire 1 @ op_1~0_combout $end
$var wire 1 A _~7_combout $end
$var wire 1 B low[1]~2_combout $end
$var wire 1 C low[1]~3_combout $end
$var wire 1 D low[3]~5_combout $end
$var wire 1 E low[3]~6_combout $end
$var wire 1 F _~4_combout $end
$var wire 1 G _~10_combout $end
$var wire 1 H high[1]~1_combout $end
$var wire 1 I _~2_combout $end
$var wire 1 J _~3_combout $end
$var wire 1 K _~6_combout $end
$var wire 1 L low[0]~1_combout $end
$var wire 1 M low [3] $end
$var wire 1 N low [2] $end
$var wire 1 O low [1] $end
$var wire 1 P low [0] $end
$var wire 1 Q high [2] $end
$var wire 1 R high [1] $end
$var wire 1 S high [0] $end
$upscope $end
$upscope $end
$enddefinitions $end
#0
$dumpvars
0!
1"
0&
0%
0$
0#
0)
0(
0'
0*
1+
x,
1-
1.
1/
00
01
02
03
04
05
06
07
18
09
0:
1;
0<
0=
0>
0?
1@
1A
1B
0C
0D
0E
0F
0G
0H
0I
1J
0K
1L
0P
0O
0N
0M
0S
0R
zQ
$end
#1000
1!
17
1P
10
1&
0L
1C
#2000
0!
07
#3000
1!
17
0P
1O
11
00
0&
1%
1L
#4000
0!
07
#5000
1!
17
1P
10
0J
1:
1&
0L
0C
1?
#6000
0!
07
#7000
1!
17
0P
0O
1N
12
01
00
0&
0%
1$
1L
#8000
0!
07
#9000
1!
17
1P
10
1&
0L
1C
#10000
0!
07
#11000
1!
17
0P
1O
11
00
1D
0&
1%
1L
#12000
0!
07
#13000
1!
17
1P
10
0:
1&
0L
1E
0C
0?
#14000
0!
07
#15000
1!
17
0P
1M
0O
0N
02
01
13
00
0D
0&
1#
0%
0$
1L
0E
1E
#16000
0!
07
#17000
1!
17
1P
10
1F
0@
1&
0L
0E
1C
1<
1I
0A
0;
0B
1=
0C
#18000
0!
07
#19000
1!
17
0P
0M
1S
14
03
00
1J
0F
1@
1G
0&
0#
1)
0=
0G
0<
0I
1>
1;
1H
1B
0H
1=
1L
#20000
0!
07
#21000
1!
17
1P
10
1&
0L
1C
#22000
0!
07
#23000
1!
17
0P
1O
11
00
0&
1%
1L
#24000
0!
07
#25000
1!
17
1P
10
0J
1:
1&
0L
0C
1?
#26000
0!
07
#27000
1!
17
0P
0O
1N
12
01
00
0&
0%
1$
1L
#28000
0!
07
#29000
1!
17
1P
10
1&
0L
1C
#30000
0!
07
#31000
1!
17
0P
1O
11
00
1D
0&
1%
1L
#32000
0!
07
#33000
1!
17
1P
10
0:
1&
0L
1E
0C
0?
#34000
0!
07
#35000
1!
17
0P
1M
0O
0N
02
01
13
00
0D
0&
1#
0%
0$
1L
0E
1E
#36000
0!
07
#37000
1!
17
1P
10
1F
0@
1&
0L
0E
1C
1<
1I
0>
0;
1G
0B
0=
1H
0C
#38000
0!
07
#39000
1!
17
0P
1R
0M
0S
04
03
15
00
1J
0F
1@
0G
0<
0&
1(
0#
0)
1=
1K
0H
0=
1B
1L
1H
#40000
0!
07
#41000
1!
17
1P
10
1&
0L
1C
#42000
0!
07
#43000
1!
17
0P
1O
11
00
0&
1%
1L
#44000
0!
07
#45000
1!
17
1P
10
0J
1:
1&
0L
0C
0K
0B
0H
#46000
0!
07
#47000
1!
17
0P
0R
0O
01
05
00
1J
0:
0I
1A
1;
0&
0(
0%
1B
1L
#48000
0!
07
#49000
1!
17
1P
10
1&
0L
1C
#50000
0!
07
#51000
1!
17
0P
1O
11
00
0&
1%
1L
#52000
0!
07
#53000
1!
17
1P
10
0J
1:
1&
0L
0C
1?
#54000
0!
07
#55000
1!
17
0P
0O
1N
12
01
00
0&
0%
1$
1L
#56000
0!
07
#57000
1!
17
1P
10
1&
0L
1C
#58000
0!
07
#59000
1!
17
0P
1O
11
00
1D
0&
1%
1L
#60000
0!
07
#61000
1!
17
1P
10
0:
1&
0L
1E
0C
0?
#62000
0!
07
#63000
1!
17
0P
1M
0O
0N
02
01
13
00
0D
0&
1#
0%
0$
1L
0E
1E
#64000
0!
07
#65000
1!
17
1P
10
1F
0@
1&
0L
0E
1C
1<
1I
0A
0;
0B
1=
0C
#66000
0!
07
#67000
1!
17
0P
0M
1S
14
03
00
1J
0F
1@
1G
0&
0#
1)
0=
0G
0<
0I
1>
1;
1H
1B
0H
1=
1L
#68000
0!
07
#69000
1!
17
1P
10
1&
0L
1C
#70000
0!
07
#71000
1!
17
0P
1O
11
00
0&
1%
1L
#72000
0!
07
#73000
1!
17
1P
10
0J
1:
1&
0L
0C
1?
#74000
0!
07
#75000
1!
17
0P
0O
1N
12
01
00
0&
0%
1$
1L
#76000
0!
07
#77000
1!
17
1P
10
1&
0L
1C
#78000
0!
07
#79000
1!
17
0P
1O
11
00
1D
0&
1%
1L
#80000
0!
07
#81000
1!
17
1P
10
0:
1&
0L
1E
0C
0?
#82000
0!
07
#83000
1!
17
0P
1M
0O
0N
02
01
13
00
0D
0&
1#
0%
0$
1L
0E
1E
#84000
0!
07
#85000
1!
17
1P
10
1F
0@
1&
0L
0E
1C
1<
1I
0>
0;
1G
0B
0=
1H
0C
#86000
0!
07
#87000
1!
17
0P
1R
0M
0S
04
03
15
00
1J
0F
1@
0G
0<
0&
1(
0#
0)
1=
1K
0H
0=
1B
1L
1H
#88000
0!
07
#89000
1!
17
1P
10
1&
0L
1C
#90000
0!
07
#91000
1!
17
0P
1O
11
00
0&
1%
1L
#92000
0!
07
#93000
1!
17
1P
10
0J
1:
1&
0L
0C
0K
0B
0H
#94000
0!
07
#95000
1!
17
0P
0R
0O
01
05
00
1J
0:
0I
1A
1;
0&
0(
0%
1B
1L
#96000
0!
07
#97000
1!
17
1P
10
1&
0L
1C
#98000
0!
07
#99000
1!
17
0P
1O
11
00
0&
1%
1L
#100000
0!
07
#101000
1!
17
1P
10
0J
1:
1&
0L
0C
1?
#102000
0!
07
#103000
1!
17
0P
0O
1N
12
01
00
0&
0%
1$
1L
#104000
0!
07
#105000
1!
17
1P
10
1&
0L
1C
#106000
0!
07
#107000
1!
17
0P
1O
11
00
1D
0&
1%
1L
#108000
0!
07
#109000
1!
17
1P
10
0:
1&
0L
1E
0C
0?
#110000
0!
07
#111000
1!
17
0P
1M
0O
0N
02
01
13
00
0D
0&
1#
0%
0$
1L
0E
1E
#112000
0!
07
#113000
1!
17
1P
10
1F
0@
1&
0L
0E
1C
1<
1I
0A
0;
0B
1=
0C
#114000
0!
07
#115000
1!
17
0P
0M
1S
14
03
00
1J
0F
1@
1G
0&
0#
1)
0=
0G
0<
0I
1>
1;
1H
1B
0H
1=
1L
#116000
0!
07
#117000
1!
17
1P
10
1&
0L
1C
#118000
0!
07
#119000
1!
17
0P
1O
11
00
0&
1%
1L
#120000
0!
07
#121000
1!
17
1P
10
0J
1:
1&
0L
0C
1?
#122000
0!
07
#123000
1!
17
0P
0O
1N
12
01
00
0&
0%
1$
1L
#124000
0!
07
#125000
1!
17
1P
10
1&
0L
1C
#126000
0!
07
#127000
1!
17
0P
1O
11
00
1D
0&
1%
1L
#128000
0!
07
#129000
1!
17
1P
10
0:
1&
0L
1E
0C
0?
#130000
0!
07
#131000
1!
17
0P
1M
0O
0N
02
01
13
00
0D
0&
1#
0%
0$
1L
0E
1E
#132000
0!
07
#133000
1!
17
1P
10
1F
0@
1&
0L
0E
1C
1<
1I
0>
0;
1G
0B
0=
1H
0C
#134000
0!
07
#135000
1!
17
0P
1R
0M
0S
04
03
15
00
1J
0F
1@
0G
0<
0&
1(
0#
0)
1=
1K
0H
0=
1B
1L
1H
#136000
0!
07
#137000
1!
17
1P
10
1&
0L
1C
#138000
0!
07
#139000
1!
17
0P
1O
11
00
0&
1%
1L
#140000
0!
07
#141000
1!
17
1P
10
0J
1:
1&
0L
0C
0K
0B
0H
#142000
0!
07
#143000
1!
17
0P
0R
0O
01
05
00
1J
0:
0I
1A
1;
0&
0(
0%
1B
1L
#144000
0!
07
#145000
1!
17
1P
10
1&
0L
1C
#146000
0!
07
#147000
1!
17
0P
1O
11
00
0&
1%
1L
#148000
0!
07
#149000
1!
17
1P
10
0J
1:
1&
0L
0C
1?
#150000
0!
07
#151000
1!
17
0P
0O
1N
12
01
00
0&
0%
1$
1L
#152000
0!
07
#153000
1!
17
1P
10
1&
0L
1C
#154000
0!
07
#155000
1!
17
0P
1O
11
00
1D
0&
1%
1L
#156000
0!
07
#157000
1!
17
1P
10
0:
1&
0L
1E
0C
0?
#158000
0!
07
#159000
1!
17
0P
1M
0O
0N
02
01
13
00
0D
0&
1#
0%
0$
1L
0E
1E
#160000
0!
07
#161000
1!
17
1P
10
1F
0@
1&
0L
0E
1C
1<
1I
0A
0;
0B
1=
0C
#162000
0!
07
#163000
1!
17
0P
0M
1S
14
03
00
1J
0F
1@
1G
0&
0#
1)
0=
0G
0<
0I
1>
1;
1H
1B
0H
1=
1L
#164000
0!
07
#165000
1!
17
1P
10
1&
0L
1C
#166000
0!
07
#167000
1!
17
0P
1O
11
00
0&
1%
1L
#168000
0!
07
#169000
1!
17
1P
10
0J
1:
1&
0L
0C
1?
#170000
0!
07
#171000
1!
17
0P
0O
1N
12
01
00
0&
0%
1$
1L
#172000
0!
07
#173000
1!
17
1P
10
1&
0L
1C
#174000
0!
07
#175000
1!
17
0P
1O
11
00
1D
0&
1%
1L
#176000
0!
07
#177000
1!
17
1P
10
0:
1&
0L
1E
0C
0?
#178000
0!
07
#179000
1!
17
0P
1M
0O
0N
02
01
13
00
0D
0&
1#
0%
0$
1L
0E
1E
#180000
0!
07
#181000
1!
17
1P
10
1F
0@
1&
0L
0E
1C
1<
1I
0>
0;
1G
0B
0=
1H
0C
#182000
0!
07
#183000
1!
17
0P
1R
0M
0S
04
03
15
00
1J
0F
1@
0G
0<
0&
1(
0#
0)
1=
1K
0H
0=
1B
1L
1H
#184000
0!
07
#185000
1!
17
1P
10
1&
0L
1C
#186000
0!
07
#187000
1!
17
0P
1O
11
00
0&
1%
1L
#188000
0!
07
#189000
1!
17
1P
10
0J
1:
1&
0L
0C
0K
0B
0H
#190000
0!
07
#191000
1!
17
0P
0R
0O
01
05
00
1J
0:
0I
1A
1;
0&
0(
0%
1B
1L
#192000
0!
07
#193000
1!
17
1P
10
1&
0L
1C
#194000
0!
07
#195000
1!
17
0P
1O
11
00
0&
1%
1L
#196000
0!
07
#197000
1!
17
1P
10
0J
1:
1&
0L
0C
1?
#198000
0!
07
#199000
1!
17
0P
0O
1N
12
01
00
0&
0%
1$
1L
#200000
0!
07
#201000
1!
17
1P
10
1&
0L
1C
#202000
0!
07
#203000
1!
17
0P
1O
11
00
1D
0&
1%
1L
#204000
0!
07
#205000
1!
17
1P
10
0:
1&
0L
1E
0C
0?
#206000
0!
07
#207000
1!
17
0P
1M
0O
0N
02
01
13
00
0D
0&
1#
0%
0$
1L
0E
1E
#208000
0!
07
#209000
1!
17
1P
10
1F
0@
1&
0L
0E
1C
1<
1I
0A
0;
0B
1=
0C
#210000
0!
07
#211000
1!
17
0P
0M
1S
14
03
00
1J
0F
1@
1G
0&
0#
1)
0=
0G
0<
0I
1>
1;
1H
1B
0H
1=
1L
#212000
0!
07
#213000
1!
17
1P
10
1&
0L
1C
#214000
0!
07
#215000
1!
17
0P
1O
11
00
0&
1%
1L
#216000
0!
07
#217000
1!
17
1P
10
0J
1:
1&
0L
0C
1?
#218000
0!
07
#219000
1!
17
0P
0O
1N
12
01
00
0&
0%
1$
1L
#220000
0!
07
#221000
1!
17
1P
10
1&
0L
1C
#222000
0!
07
#223000
1!
17
0P
1O
11
00
1D
0&
1%
1L
#224000
0!
07
#225000
1!
17
1P
10
0:
1&
0L
1E
0C
0?
#226000
0!
07
#227000
1!
17
0P
1M
0O
0N
02
01
13
00
0D
0&
1#
0%
0$
1L
0E
1E
#228000
0!
07
#229000
1!
17
1P
10
1F
0@
1&
0L
0E
1C
1<
1I
0>
0;
1G
0B
0=
1H
0C
#230000
0!
07
#231000
1!
17
0P
1R
0M
0S
04
03
15
00
1J
0F
1@
0G
0<
0&
1(
0#
0)
1=
1K
0H
0=
1B
1L
1H
#232000
0!
07
#233000
1!
17
1P
10
1&
0L
1C
#234000
0!
07
#235000
1!
17
0P
1O
11
00
0&
1%
1L
#236000
0!
07
#237000
1!
17
1P
10
0J
1:
1&
0L
0C
0K
0B
0H
#238000
0!
07
#239000
1!
17
0P
0R
0O
01
05
00
1J
0:
0I
1A
1;
0&
0(
0%
1B
1L
#240000
0!
07
#241000
1!
17
1P
10
1&
0L
1C
#242000
0!
07
#243000
1!
17
0P
1O
11
00
0&
1%
1L
#244000
0!
07
#245000
1!
17
1P
10
0J
1:
1&
0L
0C
1?
#246000
0!
07
#247000
1!
17
0P
0O
1N
12
01
00
0&
0%
1$
1L
#248000
0!
07
#249000
1!
17
1P
10
1&
0L
1C
#250000
0!
07
#251000
1!
17
0P
1O
11
00
1D
0&
1%
1L
#252000
0!
07
#253000
1!
17
1P
10
0:
1&
0L
1E
0C
0?
#254000
0!
07
#255000
1!
17
0P
1M
0O
0N
02
01
13
00
0D
0&
1#
0%
0$
1L
0E
1E
#256000
0!
07
#257000
1!
17
1P
10
1F
0@
1&
0L
0E
1C
1<
1I
0A
0;
0B
1=
0C
#258000
0!
07
#259000
1!
17
0P
0M
1S
14
03
00
1J
0F
1@
1G
0&
0#
1)
0=
0G
0<
0I
1>
1;
1H
1B
0H
1=
1L
#260000
0!
07
#261000
1!
17
1P
10
1&
0L
1C
#262000
0!
07
#263000
1!
17
0P
1O
11
00
0&
1%
1L
#264000
0!
07
#265000
1!
17
1P
10
0J
1:
1&
0L
0C
1?
#266000
0!
07
#267000
1!
17
0P
0O
1N
12
01
00
0&
0%
1$
1L
#268000
0!
07
#269000
1!
17
1P
10
1&
0L
1C
#270000
0!
07
#271000
1!
17
0P
1O
11
00
1D
0&
1%
1L
#272000
0!
07
#273000
1!
17
1P
10
0:
1&
0L
1E
0C
0?
#274000
0!
07
#275000
1!
17
0P
1M
0O
0N
02
01
13
00
0D
0&
1#
0%
0$
1L
0E
1E
#276000
0!
07
#277000
1!
17
1P
10
1F
0@
1&
0L
0E
1C
1<
1I
0>
0;
1G
0B
0=
1H
0C
#278000
0!
07
#279000
1!
17
0P
1R
0M
0S
04
03
15
00
1J
0F
1@
0G
0<
0&
1(
0#
0)
1=
1K
0H
0=
1B
1L
1H
#280000
0!
07
#281000
1!
17
1P
10
1&
0L
1C
#282000
0!
07
#283000
1!
17
0P
1O
11
00
0&
1%
1L
#284000
0!
07
#285000
1!
17
1P
10
0J
1:
1&
0L
0C
0K
0B
0H
#286000
0!
07
#287000
1!
17
0P
0R
0O
01
05
00
1J
0:
0I
1A
1;
0&
0(
0%
1B
1L
#288000
0!
07
#289000
1!
17
1P
10
1&
0L
1C
#290000
0!
07
#291000
1!
17
0P
1O
11
00
0&
1%
1L
#292000
0!
07
#293000
1!
17
1P
10
0J
1:
1&
0L
0C
1?
#294000
0!
07
#295000
1!
17
0P
0O
1N
12
01
00
0&
0%
1$
1L
#296000
0!
07
#297000
1!
17
1P
10
1&
0L
1C
#298000
0!
07
#299000
1!
17
0P
1O
11
00
1D
0&
1%
1L
#300000
0!
07
#301000
1!
17
1P
10
0:
1&
0L
1E
0C
0?
#302000
0!
07
#303000
1!
17
0P
1M
0O
0N
02
01
13
00
0D
0&
1#
0%
0$
1L
0E
1E
#304000
0!
07
#305000
1!
17
1P
10
1F
0@
1&
0L
0E
1C
1<
1I
0A
0;
0B
1=
0C
#306000
0!
07
#307000
1!
17
0P
0M
1S
14
03
00
1J
0F
1@
1G
0&
0#
1)
0=
0G
0<
0I
1>
1;
1H
1B
0H
1=
1L
#308000
0!
07
#309000
1!
17
1P
10
1&
0L
1C
#310000
0!
07
#311000
1!
17
0P
1O
11
00
0&
1%
1L
#312000
0!
07
#313000
1!
17
1P
10
0J
1:
1&
0L
0C
1?
#314000
0!
07
#315000
1!
17
0P
0O
1N
12
01
00
0&
0%
1$
1L
#316000
0!
07
#317000
1!
17
1P
10
1&
0L
1C
#318000
0!
07
#319000
1!
17
0P
1O
11
00
1D
0&
1%
1L
#320000
0!
07
#321000
1!
17
1P
10
0:
1&
0L
1E
0C
0?
#322000
0!
07
#323000
1!
17
0P
1M
0O
0N
02
01
13
00
0D
0&
1#
0%
0$
1L
0E
1E
#324000
0!
07
#325000
1!
17
1P
10
1F
0@
1&
0L
0E
1C
1<
1I
0>
0;
1G
0B
0=
1H
0C
#326000
0!
07
#327000
1!
17
0P
1R
0M
0S
04
03
15
00
1J
0F
1@
0G
0<
0&
1(
0#
0)
1=
1K
0H
0=
1B
1L
1H
#328000
0!
07
#329000
1!
17
1P
10
1&
0L
1C
#330000
0!
07
#331000
1!
17
0P
1O
11
00
0&
1%
1L
#332000
0!
07
#333000
1!
17
1P
10
0J
1:
1&
0L
0C
0K
0B
0H
#334000
0!
07
#335000
1!
17
0P
0R
0O
01
05
00
1J
0:
0I
1A
1;
0&
0(
0%
1B
1L
#336000
0!
07
#337000
1!
17
1P
10
1&
0L
1C
#338000
0!
07
#339000
1!
17
0P
1O
11
00
0&
1%
1L
#340000
0!
07
#341000
1!
17
1P
10
0J
1:
1&
0L
0C
1?
#342000
0!
07
#343000
1!
17
0P
0O
1N
12
01
00
0&
0%
1$
1L
#344000
0!
07
#345000
1!
17
1P
10
1&
0L
1C
#346000
0!
07
#347000
1!
17
0P
1O
11
00
1D
0&
1%
1L
#348000
0!
07
#349000
1!
17
1P
10
0:
1&
0L
1E
0C
0?
#350000
0!
07
#351000
1!
17
0P
1M
0O
0N
02
01
13
00
0D
0&
1#
0%
0$
1L
0E
1E
#352000
0!
07
#353000
1!
17
1P
10
1F
0@
1&
0L
0E
1C
1<
1I
0A
0;
0B
1=
0C
#354000
0!
07
#355000
1!
17
0P
0M
1S
14
03
00
1J
0F
1@
1G
0&
0#
1)
0=
0G
0<
0I
1>
1;
1H
1B
0H
1=
1L
#356000
0!
07
#357000
1!
17
1P
10
1&
0L
1C
#358000
0!
07
#359000
1!
17
0P
1O
11
00
0&
1%
1L
#360000
0!
07
#361000
1!
17
1P
10
0J
1:
1&
0L
0C
1?
#362000
0!
07
#363000
1!
17
0P
0O
1N
12
01
00
0&
0%
1$
1L
#364000
0!
07
#365000
1!
17
1P
10
1&
0L
1C
#366000
0!
07
#367000
1!
17
0P
1O
11
00
1D
0&
1%
1L
#368000
0!
07
#369000
1!
17
1P
10
0:
1&
0L
1E
0C
0?
#370000
0!
07
#371000
1!
17
0P
1M
0O
0N
02
01
13
00
0D
0&
1#
0%
0$
1L
0E
1E
#372000
0!
07
#373000
1!
17
1P
10
1F
0@
1&
0L
0E
1C
1<
1I
0>
0;
1G
0B
0=
1H
0C
#374000
0!
07
#375000
1!
17
0P
1R
0M
0S
04
03
15
00
1J
0F
1@
0G
0<
0&
1(
0#
0)
1=
1K
0H
0=
1B
1L
1H
#376000
0!
07
#377000
1!
17
1P
10
1&
0L
1C
#378000
0!
07
#379000
1!
17
0P
1O
11
00
0&
1%
1L
#380000
0!
07
#381000
1!
17
1P
10
0J
1:
1&
0L
0C
0K
0B
0H
#382000
0!
07
#383000
1!
17
0P
0R
0O
01
05
00
1J
0:
0I
1A
1;
0&
0(
0%
1B
1L
#384000
0!
07
#385000
1!
17
1P
10
1&
0L
1C
#386000
0!
07
#387000
1!
17
0P
1O
11
00
0&
1%
1L
#388000
0!
07
#389000
1!
17
1P
10
0J
1:
1&
0L
0C
1?
#390000
0!
07
#391000
1!
17
0P
0O
1N
12
01
00
0&
0%
1$
1L
#392000
0!
07
#393000
1!
17
1P
10
1&
0L
1C
#394000
0!
07
#395000
1!
17
0P
1O
11
00
1D
0&
1%
1L
#396000
0!
07
#397000
1!
17
1P
10
0:
1&
0L
1E
0C
0?
#398000
0!
07
#399000
1!
17
0P
1M
0O
0N
02
01
13
00
0D
0&
1#
0%
0$
1L
0E
1E
#400000
0!
07
#401000
1!
17
1P
10
1F
0@
1&
0L
0E
1C
1<
1I
0A
0;
0B
1=
0C
#402000
0!
07
#403000
1!
17
0P
0M
1S
14
03
00
1J
0F
1@
1G
0&
0#
1)
0=
0G
0<
0I
1>
1;
1H
1B
0H
1=
1L
#404000
0!
07
#405000
1!
17
1P
10
1&
0L
1C
#406000
0!
07
#407000
1!
17
0P
1O
11
00
0&
1%
1L
#408000
0!
07
#409000
1!
17
1P
10
0J
1:
1&
0L
0C
1?
#410000
0!
07
#411000
1!
17
0P
0O
1N
12
01
00
0&
0%
1$
1L
#412000
0!
07
#413000
1!
17
1P
10
1&
0L
1C
#414000
0!
07
#415000
1!
17
0P
1O
11
00
1D
0&
1%
1L
#416000
0!
07
#417000
1!
17
1P
10
0:
1&
0L
1E
0C
0?
#418000
0!
07
#419000
1!
17
0P
1M
0O
0N
02
01
13
00
0D
0&
1#
0%
0$
1L
0E
1E
#420000
0!
07
#421000
1!
17
1P
10
1F
0@
1&
0L
0E
1C
1<
1I
0>
0;
1G
0B
0=
1H
0C
#422000
0!
07
#423000
1!
17
0P
1R
0M
0S
04
03
15
00
1J
0F
1@
0G
0<
0&
1(
0#
0)
1=
1K
0H
0=
1B
1L
1H
#424000
0!
07
#425000
1!
17
1P
10
1&
0L
1C
#426000
0!
07
#427000
1!
17
0P
1O
11
00
0&
1%
1L
#428000
0!
07
#429000
1!
17
1P
10
0J
1:
1&
0L
0C
0K
0B
0H
#430000
0!
07
#431000
1!
17
0P
0R
0O
01
05
00
1J
0:
0I
1A
1;
0&
0(
0%
1B
1L
#432000
0!
07
#433000
1!
17
1P
10
1&
0L
1C
#434000
0!
07
#435000
1!
17
0P
1O
11
00
0&
1%
1L
#436000
0!
07
#437000
1!
17
1P
10
0J
1:
1&
0L
0C
1?
#438000
0!
07
#439000
1!
17
0P
0O
1N
12
01
00
0&
0%
1$
1L
#440000
0!
07
#441000
1!
17
1P
10
1&
0L
1C
#442000
0!
07
#443000
1!
17
0P
1O
11
00
1D
0&
1%
1L
#444000
0!
07
#445000
1!
17
1P
10
0:
1&
0L
1E
0C
0?
#446000
0!
07
#447000
1!
17
0P
1M
0O
0N
02
01
13
00
0D
0&
1#
0%
0$
1L
0E
1E
#448000
0!
07
#449000
1!
17
1P
10
1F
0@
1&
0L
0E
1C
1<
1I
0A
0;
0B
1=
0C
#450000
0!
07
#451000
1!
17
0P
0M
1S
14
03
00
1J
0F
1@
1G
0&
0#
1)
0=
0G
0<
0I
1>
1;
1H
1B
0H
1=
1L
#452000
0!
07
#453000
1!
17
1P
10
1&
0L
1C
#454000
0!
07
#455000
1!
17
0P
1O
11
00
0&
1%
1L
#456000
0!
07
#457000
1!
17
1P
10
0J
1:
1&
0L
0C
1?
#458000
0!
07
#459000
1!
17
0P
0O
1N
12
01
00
0&
0%
1$
1L
#460000
0!
07
#461000
1!
17
1P
10
1&
0L
1C
#462000
0!
07
#463000
1!
17
0P
1O
11
00
1D
0&
1%
1L
#464000
0!
07
#465000
1!
17
1P
10
0:
1&
0L
1E
0C
0?
#466000
0!
07
#467000
1!
17
0P
1M
0O
0N
02
01
13
00
0D
0&
1#
0%
0$
1L
0E
1E
#468000
0!
07
#469000
1!
17
1P
10
1F
0@
1&
0L
0E
1C
1<
1I
0>
0;
1G
0B
0=
1H
0C
#470000
0!
07
#471000
1!
17
0P
1R
0M
0S
04
03
15
00
1J
0F
1@
0G
0<
0&
1(
0#
0)
1=
1K
0H
0=
1B
1L
1H
#472000
0!
07
#473000
1!
17
1P
10
1&
0L
1C
#474000
0!
07
#475000
1!
17
0P
1O
11
00
0&
1%
1L
#476000
0!
07
#477000
1!
17
1P
10
0J
1:
1&
0L
0C
0K
0B
0H
#478000
0!
07
#479000
1!
17
0P
0R
0O
01
05
00
1J
0:
0I
1A
1;
0&
0(
0%
1B
1L
#480000
0!
07
#481000
1!
17
1P
10
1&
0L
1C
#482000
0!
07
#483000
1!
17
0P
1O
11
00
0&
1%
1L
#484000
0!
07
#485000
1!
17
1P
10
0J
1:
1&
0L
0C
1?
#486000
0!
07
#487000
1!
17
0P
0O
1N
12
01
00
0&
0%
1$
1L
#488000
0!
07
#489000
1!
17
1P
10
1&
0L
1C
#490000
0!
07
#491000
1!
17
0P
1O
11
00
1D
0&
1%
1L
#492000
0!
07
#493000
1!
17
1P
10
0:
1&
0L
1E
0C
0?
#494000
0!
07
#495000
1!
17
0P
1M
0O
0N
02
01
13
00
0D
0&
1#
0%
0$
1L
0E
1E
#496000
0!
07
#497000
1!
17
1P
10
1F
0@
1&
0L
0E
1C
1<
1I
0A
0;
0B
1=
0C
#498000
0!
07
#499000
1!
17
0P
0M
1S
14
03
00
1J
0F
1@
1G
0&
0#
1)
0=
0G
0<
0I
1>
1;
1H
1B
0H
1=
1L
#500000
0!
07
#501000
1!
17
1P
10
1&
0L
1C
#502000
0!
07
#503000
1!
17
0P
1O
11
00
0&
1%
1L
#504000
0!
07
#505000
1!
17
1P
10
0J
1:
1&
0L
0C
1?
#506000
0!
07
#507000
1!
17
0P
0O
1N
12
01
00
0&
0%
1$
1L
#508000
0!
07
#509000
1!
17
1P
10
1&
0L
1C
#510000
0!
07
#511000
1!
17
0P
1O
11
00
1D
0&
1%
1L
#512000
0!
07
#513000
1!
17
1P
10
0:
1&
0L
1E
0C
0?
#514000
0!
07
#515000
1!
17
0P
1M
0O
0N
02
01
13
00
0D
0&
1#
0%
0$
1L
0E
1E
#516000
0!
07
#517000
1!
17
1P
10
1F
0@
1&
0L
0E
1C
1<
1I
0>
0;
1G
0B
0=
1H
0C
#518000
0!
07
#519000
1!
17
0P
1R
0M
0S
04
03
15
00
1J
0F
1@
0G
0<
0&
1(
0#
0)
1=
1K
0H
0=
1B
1L
1H
#520000
0!
07
#521000
1!
17
1P
10
1&
0L
1C
#522000
0!
07
#523000
1!
17
0P
1O
11
00
0&
1%
1L
#524000
0!
07
#525000
1!
17
1P
10
0J
1:
1&
0L
0C
0K
0B
0H
#526000
0!
07
#527000
1!
17
0P
0R
0O
01
05
00
1J
0:
0I
1A
1;
0&
0(
0%
1B
1L
#528000
0!
07
#529000
1!
17
1P
10
1&
0L
1C
#530000
0!
07
#531000
1!
17
0P
1O
11
00
0&
1%
1L
#532000
0!
07
#533000
1!
17
1P
10
0J
1:
1&
0L
0C
1?
#534000
0!
07
#535000
1!
17
0P
0O
1N
12
01
00
0&
0%
1$
1L
#536000
0!
07
#537000
1!
17
1P
10
1&
0L
1C
#538000
0!
07
#539000
1!
17
0P
1O
11
00
1D
0&
1%
1L
#540000
0!
07
#541000
1!
17
1P
10
0:
1&
0L
1E
0C
0?
#542000
0!
07
#543000
1!
17
0P
1M
0O
0N
02
01
13
00
0D
0&
1#
0%
0$
1L
0E
1E
#544000
0!
07
#545000
1!
17
1P
10
1F
0@
1&
0L
0E
1C
1<
1I
0A
0;
0B
1=
0C
#546000
0!
07
#547000
1!
17
0P
0M
1S
14
03
00
1J
0F
1@
1G
0&
0#
1)
0=
0G
0<
0I
1>
1;
1H
1B
0H
1=
1L
#548000
0!
07
#549000
1!
17
1P
10
1&
0L
1C
#550000
0!
07
#551000
1!
17
0P
1O
11
00
0&
1%
1L
#552000
0!
07
#553000
1!
17
1P
10
0J
1:
1&
0L
0C
1?
#554000
0!
07
#555000
1!
17
0P
0O
1N
12
01
00
0&
0%
1$
1L
#556000
0!
07
#557000
1!
17
1P
10
1&
0L
1C
#558000
0!
07
#559000
1!
17
0P
1O
11
00
1D
0&
1%
1L
#560000
0!
07
#561000
1!
17
1P
10
0:
1&
0L
1E
0C
0?
#562000
0!
07
#563000
1!
17
0P
1M
0O
0N
02
01
13
00
0D
0&
1#
0%
0$
1L
0E
1E
#564000
0!
07
#565000
1!
17
1P
10
1F
0@
1&
0L
0E
1C
1<
1I
0>
0;
1G
0B
0=
1H
0C
#566000
0!
07
#567000
1!
17
0P
1R
0M
0S
04
03
15
00
1J
0F
1@
0G
0<
0&
1(
0#
0)
1=
1K
0H
0=
1B
1L
1H
#568000
0!
07
#569000
1!
17
1P
10
1&
0L
1C
#570000
0!
07
#571000
1!
17
0P
1O
11
00
0&
1%
1L
#572000
0!
07
#573000
1!
17
1P
10
0J
1:
1&
0L
0C
0K
0B
0H
#574000
0!
07
#575000
1!
17
0P
0R
0O
01
05
00
1J
0:
0I
1A
1;
0&
0(
0%
1B
1L
#576000
0!
07
#577000
1!
17
1P
10
1&
0L
1C
#578000
0!
07
#579000
1!
17
0P
1O
11
00
0&
1%
1L
