simulation/qsim/Projeto_2.msim.vcd
$comment
	File created using the following command:
		vcd file Projeto_2.msim.vcd -direction
$end
$date
	Sat Jul 24 14:11:03 2021
$end
$version
	ModelSim Version 2020.1
$end
$timescale
	1ps
$end

$scope module contador_mod_25_vlg_vec_tst $end
$var reg 1 ! clock $end
$var reg 1 " enable $end
$var wire 1 # q [4] $end
$var wire 1 $ q [3] $end
$var wire 1 % q [2] $end
$var wire 1 & q [1] $end
$var wire 1 ' q [0] $end
$var wire 1 ( tc $end

$scope module i1 $end
$var wire 1 ) gnd $end
$var wire 1 * vcc $end
$var wire 1 + unknown $end
$var tri1 1 , devclrn $end
$var tri1 1 - devpor $end
$var tri1 1 . devoe $end
$var wire 1 / q[0]~output_o $end
$var wire 1 0 q[1]~output_o $end
$var wire 1 1 q[2]~output_o $end
$var wire 1 2 q[3]~output_o $end
$var wire 1 3 q[4]~output_o $end
$var wire 1 4 tc~output_o $end
$var wire 1 5 clock~input_o $end
$var wire 1 6 op_2~0_combout $end
$var wire 1 7 op_2~5 $end
$var wire 1 8 op_2~6_combout $end
$var wire 1 9 enable~input_o $end
$var wire 1 : count[4]~4_combout $end
$var wire 1 ; count[1]~1_combout $end
$var wire 1 < op_2~1 $end
$var wire 1 = op_2~2_combout $end
$var wire 1 > count[2]~2_combout $end
$var wire 1 ? op_2~3 $end
$var wire 1 @ op_2~4_combout $end
$var wire 1 A count[3]~3_combout $end
$var wire 1 B count[0]~0_combout $end
$var wire 1 C tc~0_combout $end
$var wire 1 D tc~1_combout $end
$var wire 1 E count [4] $end
$var wire 1 F count [3] $end
$var wire 1 G count [2] $end
$var wire 1 H count [1] $end
$var wire 1 I count [0] $end
$upscope $end
$upscope $end
$enddefinitions $end
#0
$dumpvars
0!
1"
0'
0&
0%
0$
0#
0(
0)
1*
x+
1,
1-
1.
0/
00
01
02
03
04
05
06
07
08
19
0:
0;
0<
0=
0>
1?
0@
0A
1B
0C
0D
0I
0H
0G
0F
0E
$end
#10000
1!
15
1I
1/
16
1'
0B
1;
#20000
0!
05
#30000
1!
15
0I
1H
10
0/
0'
1&
1B
#40000
0!
05
#50000
1!
15
1I
1/
1<
06
1'
0B
1=
0;
1>
#60000
0!
05
#70000
1!
15
0I
1G
0H
00
11
0/
0<
0?
0=
0'
1%
0&
1B
1?
1=
1@
0>
0@
1>
1A
0A
#80000
0!
05
#90000
1!
15
1I
1/
16
1'
0B
1;
#100000
0!
05
#110000
1!
15
0I
1H
10
0/
0'
1&
1B
#120000
0!
05
#130000
1!
15
1I
1/
1<
06
1'
0B
0?
0=
0;
1@
0>
1A
#140000
0!
05
#150000
1!
15
0I
1F
0G
0H
00
01
12
0/
0<
17
0@
1?
1=
0'
1$
0%
0&
1B
0=
18
07
1@
0A
1>
08
0>
1:
1A
0:
#160000
0!
05
#170000
1!
15
1I
1/
16
1'
0B
1;
#180000
0!
05
#190000
1!
15
0I
1H
10
0/
0'
1&
1B
#200000
0!
05
#210000
1!
15
1I
1/
1<
06
1'
0B
1=
0;
1>
#220000
0!
05
#230000
1!
15
0I
1G
0H
00
11
0/
0<
0?
0=
0'
1%
0&
1B
1?
1=
17
0@
0>
07
1@
18
1>
0A
08
1A
1:
0:
#240000
0!
05
#250000
1!
15
1I
1/
16
1'
0B
1;
#260000
0!
05
#270000
1!
15
0I
1H
10
0/
0'
1&
1B
#280000
0!
05
#290000
1!
15
1I
1/
1<
06
1'
0B
0?
0=
0;
17
0@
0>
18
0A
1:
#300000
0!
05
#310000
1!
15
0I
0F
0G
0H
1E
13
00
01
02
0/
0<
07
1@
1?
1=
08
0'
0$
0%
0&
1#
1B
0=
18
0@
1A
1>
0:
0>
1:
0A
#320000
0!
05
#330000
1!
15
1I
1/
16
1'
0B
1;
#340000
0!
05
#350000
1!
15
0I
1H
10
0/
0'
1&
1B
#360000
0!
05
#370000
1!
15
1I
1/
1<
06
1'
0B
1=
0;
1>
#380000
0!
05
#390000
1!
15
0I
1G
0H
00
11
0/
0<
0?
0=
0'
1%
0&
1B
1?
1=
1@
0>
0@
1>
1A
0A
#400000
0!
05
#410000
1!
15
1I
1/
16
1'
0B
1;
#420000
0!
05
#430000
1!
15
0I
1H
10
0/
0'
1&
1B
#440000
0!
05
#450000
1!
15
1I
1/
1<
06
1'
0B
0?
0=
0;
1@
0>
1A
#460000
0!
05
#470000
1!
15
0I
1F
0G
0H
00
01
12
0/
0<
1C
17
0@
1?
1=
0'
1$
0%
0&
0A
0:
0=
08
07
1@
1D
14
18
1(
#480000
0!
05
#490000
1!
15
0F
0E
03
02
0C
0@
08
0$
0#
1B
1A
1:
0D
0A
0:
04
0(
#500000
0!
05
#510000
1!
15
1I
1/
16
1'
0B
1;
#520000
0!
05
#530000
1!
15
0I
1H
10
0/
0'
1&
1B
#540000
0!
05
#550000
1!
15
1I
1/
1<
06
1'
0B
1=
0;
1>
#560000
0!
05
#570000
1!
15
0I
1G
0H
00
11
0/
0<
0?
0=
0'
1%
0&
1B
1?
1=
1@
0>
0@
1>
1A
0A
#580000
0!
05
#590000
1!
15
1I
1/
16
1'
0B
1;
#600000
0!
05
#610000
1!
15
0I
1H
10
0/
0'
1&
1B
#620000
0!
05
#630000
1!
15
1I
1/
1<
06
1'
0B
0?
0=
0;
1@
0>
1A
#640000
0!
05
#650000
1!
15
0I
1F
0G
0H
00
01
12
0/
0<
17
0@
1?
1=
0'
1$
0%
0&
1B
0=
18
07
1@
0A
1>
08
0>
1:
1A
0:
#660000
0!
05
#670000
1!
15
1I
1/
16
1'
0B
1;
#680000
0!
05
#690000
1!
15
0I
1H
10
0/
0'
1&
1B
#700000
0!
05
#710000
1!
15
1I
1/
1<
06
1'
0B
1=
0;
1>
#720000
0!
05
#730000
1!
15
0I
1G
0H
00
11
0/
0<
0?
0=
0'
1%
0&
1B
1?
1=
17
0@
0>
07
1@
18
1>
0A
08
1A
1:
0:
#740000
0!
05
#750000
1!
15
1I
1/
16
1'
0B
1;
#760000
0!
05
#770000
1!
15
0I
1H
10
0/
0'
1&
1B
#780000
0!
05
#790000
1!
15
1I
1/
1<
06
1'
0B
0?
0=
0;
17
0@
0>
18
0A
1:
#800000
0!
05
#810000
1!
15
0I
0F
0G
0H
1E
13
00
01
02
0/
0<
07
1@
1?
1=
08
0'
0$
0%
0&
1#
1B
0=
18
0@
1A
1>
0:
0>
1:
0A
#820000
0!
05
#830000
1!
15
1I
1/
16
1'
0B
1;
#840000
0!
05
#850000
1!
15
0I
1H
10
0/
0'
1&
1B
#860000
0!
05
#870000
1!
15
1I
1/
1<
06
1'
0B
1=
0;
1>
#880000
0!
05
#890000
1!
15
0I
1G
0H
00
11
0/
0<
0?
0=
0'
1%
0&
1B
1?
1=
1@
0>
0@
1>
1A
0A
#900000
0!
05
#910000
1!
15
1I
1/
16
1'
0B
1;
#920000
0!
05
#930000
1!
15
0I
1H
10
0/
0'
1&
1B
#940000
0!
05
#950000
1!
15
1I
1/
1<
06
1'
0B
0?
0=
0;
1@
0>
1A
#960000
0!
05
#970000
1!
15
0I
1F
0G
0H
00
01
12
0/
0<
1C
17
0@
1?
1=
0'
1$
0%
0&
0A
0:
0=
08
07
1@
1D
14
18
1(
#980000
0!
05
#990000
1!
15
0F
0E
03
02
0C
0@
08
0$
0#
1B
1A
1:
0D
0A
0:
04
0(
