simulation/qsim/Projeto_2.msim.vcd
$comment
	File created using the following command:
		vcd file Projeto_2.msim.vcd -direction
$end
$date
	Wed Aug 04 01:40:52 2021
$end
$version
	ModelSim Version 2020.1
$end
$timescale
	1ps
$end

$scope module debounce_vlg_vec_tst $end
$var reg 1 ! btn $end
$var reg 1 " clk $end
$var wire 1 # tecla $end

$scope module i1 $end
$var wire 1 $ gnd $end
$var wire 1 % vcc $end
$var wire 1 & unknown $end
$var tri1 1 ' devclrn $end
$var tri1 1 ( devpor $end
$var tri1 1 ) devoe $end
$var wire 1 * tecla~output_o $end
$var wire 1 + clk~input_o $end
$var wire 1 , btn~input_o $end
$var wire 1 - tecla~0_combout $end
$upscope $end
$upscope $end
$enddefinitions $end
#0
$dumpvars
0!
0"
0#
0$
1%
x&
1'
1(
1)
0*
0+
0,
0-
$end
#500
1"
1+
#1000
1!
0"
1,
0+
#1500
1"
1+
1-
1*
1#
#2000
0"
0+
0-
0*
0#
#2500
1"
1+
1-
1*
1#
#3000
0"
0+
0-
0*
0#
#3500
1"
1+
1-
1*
1#
#4000
0"
0+
0-
0*
0#
#4500
1"
1+
1-
1*
1#
#5000
0!
0"
0,
0+
0-
0*
0#
#5500
1"
1+
#6000
1!
0"
1,
0+
#6500
1"
1+
1-
1*
1#
#7000
0"
0+
0-
0*
0#
#7500
1"
1+
1-
1*
1#
#8000
0"
0+
0-
0*
0#
#8500
1"
1+
1-
1*
1#
#9000
0"
0+
0-
0*
0#
#9500
1"
1+
1-
1*
1#
#10000
0!
0"
0,
0+
0-
0*
0#
#10500
1"
1+
#11000
1!
0"
1,
0+
#11500
1"
1+
1-
1*
1#
#12000
0"
0+
0-
0*
0#
#12500
1"
1+
1-
1*
1#
#13000
0"
0+
0-
0*
0#
#13500
1"
1+
1-
1*
1#
#14000
0"
0+
0-
0*
0#
#14500
1"
1+
1-
1*
1#
#15000
0!
0"
0,
0+
0-
0*
0#
#15500
1"
1+
#16000
1!
0"
1,
0+
#16500
1"
1+
1-
1*
1#
#17000
0"
0+
0-
0*
0#
#17500
1"
1+
1-
1*
1#
#18000
0"
0+
0-
0*
0#
#18500
1"
1+
1-
1*
1#
#19000
0"
0+
0-
0*
0#
#19500
1"
1+
1-
1*
1#
#20000
0!
0"
0,
0+
0-
0*
0#
#20500
1"
1+
#21000
1!
0"
1,
0+
#21500
1"
1+
1-
1*
1#
#22000
0"
0+
0-
0*
0#
#22500
1"
1+
1-
1*
1#
#23000
0"
0+
0-
0*
0#
#23500
1"
1+
1-
1*
1#
#24000
0"
0+
0-
0*
0#
#24500
1"
1+
1-
1*
1#
#25000
0!
0"
0,
0+
0-
0*
0#
#25500
1"
1+
#26000
1!
0"
1,
0+
#26500
1"
1+
1-
1*
1#
#27000
0"
0+
0-
0*
0#
#27500
1"
1+
1-
1*
1#
#28000
0"
0+
0-
0*
0#
#28500
1"
1+
1-
1*
1#
#29000
0"
0+
0-
0*
0#
#29500
1"
1+
1-
1*
1#
#30000
0!
0"
0,
0+
0-
0*
0#
#30500
1"
1+
#31000
1!
0"
1,
0+
#31500
1"
1+
1-
1*
1#
#32000
0"
0+
0-
0*
0#
#32500
1"
1+
1-
1*
1#
#33000
0"
0+
0-
0*
0#
#33500
1"
1+
1-
1*
1#
#34000
0"
0+
0-
0*
0#
#34500
1"
1+
1-
1*
1#
#35000
0!
0"
0,
0+
0-
0*
0#
#35500
1"
1+
#36000
1!
0"
1,
0+
#36500
1"
1+
1-
1*
1#
#37000
0"
0+
0-
0*
0#
#37500
1"
1+
1-
1*
1#
#38000
0"
0+
0-
0*
0#
#38500
1"
1+
1-
1*
1#
#39000
0"
0+
0-
0*
0#
#39500
1"
1+
1-
1*
1#
#40000
0!
0"
0,
0+
0-
0*
0#
#40500
1"
1+
#41000
1!
0"
1,
0+
#41500
1"
1+
1-
1*
1#
#42000
0"
0+
0-
0*
0#
#42500
1"
1+
1-
1*
1#
#43000
0"
0+
0-
0*
0#
#43500
1"
1+
1-
1*
1#
#44000
0"
0+
0-
0*
0#
#44500
1"
1+
1-
1*
1#
#45000
0!
0"
0,
0+
0-
0*
0#
#45500
1"
1+
#46000
1!
0"
1,
0+
#46500
1"
1+
1-
1*
1#
#47000
0"
0+
0-
0*
0#
#47500
1"
1+
1-
1*
1#
#48000
0"
0+
0-
0*
0#
#48500
1"
1+
1-
1*
1#
#49000
0"
0+
0-
0*
0#
#49500
1"
1+
1-
1*
1#
#50000
0!
0"
0,
0+
0-
0*
0#
#50500
1"
1+
#51000
1!
0"
1,
0+
#51500
1"
1+
1-
1*
1#
#52000
0"
0+
0-
0*
0#
#52500
1"
1+
1-
1*
1#
#53000
0"
0+
0-
0*
0#
#53500
1"
1+
1-
1*
1#
#54000
0"
0+
0-
0*
0#
#54500
1"
1+
1-
1*
1#
#55000
0!
0"
0,
0+
0-
0*
0#
#55500
1"
1+
#56000
1!
0"
1,
0+
#56500
1"
1+
1-
1*
1#
#57000
0"
0+
0-
0*
0#
#57500
1"
1+
1-
1*
1#
#58000
0"
0+
0-
0*
0#
#58500
1"
1+
1-
1*
1#
#59000
0"
0+
0-
0*
0#
#59500
1"
1+
1-
1*
1#
#60000
0!
0"
0,
0+
0-
0*
0#
#60500
1"
1+
#61000
1!
0"
1,
0+
#61500
1"
1+
1-
1*
1#
#62000
0"
0+
0-
0*
0#
#62500
1"
1+
1-
1*
1#
#63000
0"
0+
0-
0*
0#
#63500
1"
1+
1-
1*
1#
#64000
0"
0+
0-
0*
0#
#64500
1"
1+
1-
1*
1#
#65000
0!
0"
0,
0+
0-
0*
0#
#65500
1"
1+
#66000
1!
0"
1,
0+
#66500
1"
1+
1-
1*
1#
#67000
0"
0+
0-
0*
0#
#67500
1"
1+
1-
1*
1#
#68000
0"
0+
0-
0*
0#
#68500
1"
1+
1-
1*
1#
#69000
0"
0+
0-
0*
0#
#69500
1"
1+
1-
1*
1#
#70000
0!
0"
0,
0+
0-
0*
0#
#70500
1"
1+
#71000
1!
0"
1,
0+
#71500
1"
1+
1-
1*
1#
#72000
0"
0+
0-
0*
0#
#72500
1"
1+
1-
1*
1#
#73000
0"
0+
0-
0*
0#
#73500
1"
1+
1-
1*
1#
#74000
0"
0+
0-
0*
0#
#74500
1"
1+
1-
1*
1#
#75000
0!
0"
0,
0+
0-
0*
0#
#75500
1"
1+
#76000
1!
0"
1,
0+
#76500
1"
1+
1-
1*
1#
#77000
0"
0+
0-
0*
0#
#77500
1"
1+
1-
1*
1#
#78000
0"
0+
0-
0*
0#
#78500
1"
1+
1-
1*
1#
#79000
0"
0+
0-
0*
0#
#79500
1"
1+
1-
1*
1#
#80000
0!
0"
0,
0+
0-
0*
0#
#80500
1"
1+
#81000
1!
0"
1,
0+
#81500
1"
1+
1-
1*
1#
#82000
0"
0+
0-
0*
0#
#82500
1"
1+
1-
1*
1#
#83000
0"
0+
0-
0*
0#
#83500
1"
1+
1-
1*
1#
#84000
0"
0+
0-
0*
0#
#84500
1"
1+
1-
1*
1#
#85000
0!
0"
0,
0+
0-
0*
0#
#85500
1"
1+
#86000
1!
0"
1,
0+
#86500
1"
1+
1-
1*
1#
#87000
0"
0+
0-
0*
0#
#87500
1"
1+
1-
1*
1#
#88000
0"
0+
0-
0*
0#
#88500
1"
1+
1-
1*
1#
#89000
0"
0+
0-
0*
0#
#89500
1"
1+
1-
1*
1#
#90000
0!
0"
0,
0+
0-
0*
0#
#90500
1"
1+
#91000
1!
0"
1,
0+
#91500
1"
1+
1-
1*
1#
#92000
0"
0+
0-
0*
0#
#92500
1"
1+
1-
1*
1#
#93000
0"
0+
0-
0*
0#
#93500
1"
1+
1-
1*
1#
#94000
0"
0+
0-
0*
0#
#94500
1"
1+
1-
1*
1#
#95000
0!
0"
0,
0+
0-
0*
0#
#95500
1"
1+
#96000
1!
0"
1,
0+
#96500
1"
1+
1-
1*
1#
#97000
0"
0+
0-
0*
0#
#97500
1"
1+
1-
1*
1#
#98000
0"
0+
0-
0*
0#
#98500
1"
1+
1-
1*
1#
#99000
0"
0+
0-
0*
0#
#99500
1"
1+
1-
1*
1#
#100000
0!
0"
0,
0+
0-
0*
0#
#100500
1"
1+
#101000
1!
0"
1,
0+
#101500
1"
1+
1-
1*
1#
#102000
0"
0+
0-
0*
0#
#102500
1"
1+
1-
1*
1#
#103000
0"
0+
0-
0*
0#
#103500
1"
1+
1-
1*
1#
#104000
0"
0+
0-
0*
0#
#104500
1"
1+
1-
1*
1#
#105000
0!
0"
0,
0+
0-
0*
0#
#105500
1"
1+
#106000
1!
0"
1,
0+
#106500
1"
1+
1-
1*
1#
#107000
0"
0+
0-
0*
0#
#107500
1"
1+
1-
1*
1#
#108000
0"
0+
0-
0*
0#
#108500
1"
1+
1-
1*
1#
#109000
0"
0+
0-
0*
0#
#109500
1"
1+
1-
1*
1#
#110000
0!
0"
0,
0+
0-
0*
0#
#110500
1"
1+
#111000
1!
0"
1,
0+
#111500
1"
1+
1-
1*
1#
#112000
0"
0+
0-
0*
0#
#112500
1"
1+
1-
1*
1#
#113000
0"
0+
0-
0*
0#
#113500
1"
1+
1-
1*
1#
#114000
0"
0+
0-
0*
0#
#114500
1"
1+
1-
1*
1#
#115000
0!
0"
0,
0+
0-
0*
0#
#115500
1"
1+
#116000
1!
0"
1,
0+
#116500
1"
1+
1-
1*
1#
#117000
0"
0+
0-
0*
0#
#117500
1"
1+
1-
1*
1#
#118000
0"
0+
0-
0*
0#
#118500
1"
1+
1-
1*
1#
#119000
0"
0+
0-
0*
0#
#119500
1"
1+
1-
1*
1#
#120000
0!
0"
0,
0+
0-
0*
0#
#120500
1"
1+
#121000
1!
0"
1,
0+
#121500
1"
1+
1-
1*
1#
#122000
0"
0+
0-
0*
0#
#122500
1"
1+
1-
1*
1#
#123000
0"
0+
0-
0*
0#
#123500
1"
1+
1-
1*
1#
#124000
0"
0+
0-
0*
0#
#124500
1"
1+
1-
1*
1#
#125000
0!
0"
0,
0+
0-
0*
0#
#125500
1"
1+
#126000
1!
0"
1,
0+
#126500
1"
1+
1-
1*
1#
#127000
0"
0+
0-
0*
0#
#127500
1"
1+
1-
1*
1#
#128000
0"
0+
0-
0*
0#
#128500
1"
1+
1-
1*
1#
#129000
0"
0+
0-
0*
0#
#129500
1"
1+
1-
1*
1#
#130000
0!
0"
0,
0+
0-
0*
0#
#130500
1"
1+
#131000
1!
0"
1,
0+
#131500
1"
1+
1-
1*
1#
#132000
0"
0+
0-
0*
0#
#132500
1"
1+
1-
1*
1#
#133000
0"
0+
0-
0*
0#
#133500
1"
1+
1-
1*
1#
#134000
0"
0+
0-
0*
0#
#134500
1"
1+
1-
1*
1#
#135000
0!
0"
0,
0+
0-
0*
0#
#135500
1"
1+
#136000
1!
0"
1,
0+
#136500
1"
1+
1-
1*
1#
#137000
0"
0+
0-
0*
0#
#137500
1"
1+
1-
1*
1#
#138000
0"
0+
0-
0*
0#
#138500
1"
1+
1-
1*
1#
#139000
0"
0+
0-
0*
0#
#139500
1"
1+
1-
1*
1#
#140000
0!
0"
0,
0+
0-
0*
0#
#140500
1"
1+
#141000
1!
0"
1,
0+
#141500
1"
1+
1-
1*
1#
#142000
0"
0+
0-
0*
0#
#142500
1"
1+
1-
1*
1#
#143000
0"
0+
0-
0*
0#
#143500
1"
1+
1-
1*
1#
#144000
0"
0+
0-
0*
0#
#144500
1"
1+
1-
1*
1#
#145000
0!
0"
0,
0+
0-
0*
0#
#145500
1"
1+
#146000
1!
0"
1,
0+
#146500
1"
1+
1-
1*
1#
#147000
0"
0+
0-
0*
0#
#147500
1"
1+
1-
1*
1#
#148000
0"
0+
0-
0*
0#
#148500
1"
1+
1-
1*
1#
#149000
0"
0+
0-
0*
0#
#149500
1"
1+
1-
1*
1#
#150000
0!
0"
0,
0+
0-
0*
0#
#150500
1"
1+
#151000
1!
0"
1,
0+
#151500
1"
1+
1-
1*
1#
#152000
0"
0+
0-
0*
0#
#152500
1"
1+
1-
1*
1#
#153000
0"
0+
0-
0*
0#
#153500
1"
1+
1-
1*
1#
#154000
0"
0+
0-
0*
0#
#154500
1"
1+
1-
1*
1#
#155000
0!
0"
0,
0+
0-
0*
0#
#155500
1"
1+
#156000
1!
0"
1,
0+
#156500
1"
1+
1-
1*
1#
#157000
0"
0+
0-
0*
0#
#157500
1"
1+
1-
1*
1#
#158000
0"
0+
0-
0*
0#
#158500
1"
1+
1-
1*
1#
#159000
0"
0+
0-
0*
0#
#159500
1"
1+
1-
1*
1#
#160000
0!
0"
0,
0+
0-
0*
0#
#160500
1"
1+
#161000
1!
0"
1,
0+
#161500
1"
1+
1-
1*
1#
#162000
0"
0+
0-
0*
0#
#162500
1"
1+
1-
1*
1#
#163000
0"
0+
0-
0*
0#
#163500
1"
1+
1-
1*
1#
#164000
0"
0+
0-
0*
0#
#164500
1"
1+
1-
1*
1#
#165000
0!
0"
0,
0+
0-
0*
0#
#165500
1"
1+
#166000
1!
0"
1,
0+
#166500
1"
1+
1-
1*
1#
#167000
0"
0+
0-
0*
0#
#167500
1"
1+
1-
1*
1#
#168000
0"
0+
0-
0*
0#
#168500
1"
1+
1-
1*
1#
#169000
0"
0+
0-
0*
0#
#169500
1"
1+
1-
1*
1#
#170000
0!
0"
0,
0+
0-
0*
0#
#170500
1"
1+
#171000
1!
0"
1,
0+
#171500
1"
1+
1-
1*
1#
#172000
0"
0+
0-
0*
0#
#172500
1"
1+
1-
1*
1#
#173000
0"
0+
0-
0*
0#
#173500
1"
1+
1-
1*
1#
#174000
0"
0+
0-
0*
0#
#174500
1"
1+
1-
1*
1#
#175000
0!
0"
0,
0+
0-
0*
0#
#175500
1"
1+
#176000
1!
0"
1,
0+
#176500
1"
1+
1-
1*
1#
#177000
0"
0+
0-
0*
0#
#177500
1"
1+
1-
1*
1#
#178000
0"
0+
0-
0*
0#
#178500
1"
1+
1-
1*
1#
#179000
0"
0+
0-
0*
0#
#179500
1"
1+
1-
1*
1#
#180000
0!
0"
0,
0+
0-
0*
0#
#180500
1"
1+
#181000
1!
0"
1,
0+
#181500
1"
1+
1-
1*
1#
#182000
0"
0+
0-
0*
0#
#182500
1"
1+
1-
1*
1#
#183000
0"
0+
0-
0*
0#
#183500
1"
1+
1-
1*
1#
#184000
0"
0+
0-
0*
0#
#184500
1"
1+
1-
1*
1#
#185000
0!
0"
0,
0+
0-
0*
0#
#185500
1"
1+
#186000
1!
0"
1,
0+
#186500
1"
1+
1-
1*
1#
#187000
0"
0+
0-
0*
0#
#187500
1"
1+
1-
1*
1#
#188000
0"
0+
0-
0*
0#
#188500
1"
1+
1-
1*
1#
#189000
0"
0+
0-
0*
0#
#189500
1"
1+
1-
1*
1#
#190000
0!
0"
0,
0+
0-
0*
0#
#190500
1"
1+
#191000
1!
0"
1,
0+
#191500
1"
1+
1-
1*
1#
#192000
0"
0+
0-
0*
0#
#192500
1"
1+
1-
1*
1#
#193000
0"
0+
0-
0*
0#
#193500
1"
1+
1-
1*
1#
#194000
0"
0+
0-
0*
0#
#194500
1"
1+
1-
1*
1#
#195000
0!
0"
0,
0+
0-
0*
0#
#195500
1"
1+
#196000
1!
0"
1,
0+
#196500
1"
1+
1-
1*
1#
#197000
0"
0+
0-
0*
0#
#197500
1"
1+
1-
1*
1#
#198000
0"
0+
0-
0*
0#
#198500
1"
1+
1-
1*
1#
#199000
0"
0+
0-
0*
0#
#199500
1"
1+
1-
1*
1#
#200000
0!
0"
0,
0+
0-
0*
0#
#200500
1"
1+
#201000
1!
0"
1,
0+
#201500
1"
1+
1-
1*
1#
#202000
0"
0+
0-
0*
0#
#202500
1"
1+
1-
1*
1#
#203000
0"
0+
0-
0*
0#
#203500
1"
1+
1-
1*
1#
#204000
0"
0+
0-
0*
0#
#204500
1"
1+
1-
1*
1#
#205000
0!
0"
0,
0+
0-
0*
0#
#205500
1"
1+
#206000
1!
0"
1,
0+
#206500
1"
1+
1-
1*
1#
#207000
0"
0+
0-
0*
0#
#207500
1"
1+
1-
1*
1#
#208000
0"
0+
0-
0*
0#
#208500
1"
1+
1-
1*
1#
#209000
0"
0+
0-
0*
0#
#209500
1"
1+
1-
1*
1#
#210000
0!
0"
0,
0+
0-
0*
0#
#210500
1"
1+
#211000
1!
0"
1,
0+
#211500
1"
1+
1-
1*
1#
#212000
0"
0+
0-
0*
0#
#212500
1"
1+
1-
1*
1#
#213000
0"
0+
0-
0*
0#
#213500
1"
1+
1-
1*
1#
#214000
0"
0+
0-
0*
0#
#214500
1"
1+
1-
1*
1#
#215000
0!
0"
0,
0+
0-
0*
0#
#215500
1"
1+
#216000
1!
0"
1,
0+
#216500
1"
1+
1-
1*
1#
#217000
0"
0+
0-
0*
0#
#217500
1"
1+
1-
1*
1#
#218000
0"
0+
0-
0*
0#
#218500
1"
1+
1-
1*
1#
#219000
0"
0+
0-
0*
0#
#219500
1"
1+
1-
1*
1#
#220000
0!
0"
0,
0+
0-
0*
0#
#220500
1"
1+
#221000
1!
0"
1,
0+
#221500
1"
1+
1-
1*
1#
#222000
0"
0+
0-
0*
0#
#222500
1"
1+
1-
1*
1#
#223000
0"
0+
0-
0*
0#
#223500
1"
1+
1-
1*
1#
#224000
0"
0+
0-
0*
0#
#224500
1"
1+
1-
1*
1#
#225000
0!
0"
0,
0+
0-
0*
0#
#225500
1"
1+
#226000
1!
0"
1,
0+
#226500
1"
1+
1-
1*
1#
#227000
0"
0+
0-
0*
0#
#227500
1"
1+
1-
1*
1#
#228000
0"
0+
0-
0*
0#
#228500
1"
1+
1-
1*
1#
#229000
0"
0+
0-
0*
0#
#229500
1"
1+
1-
1*
1#
#230000
0!
0"
0,
0+
0-
0*
0#
#230500
1"
1+
#231000
1!
0"
1,
0+
#231500
1"
1+
1-
1*
1#
#232000
0"
0+
0-
0*
0#
#232500
1"
1+
1-
1*
1#
#233000
0"
0+
0-
0*
0#
#233500
1"
1+
1-
1*
1#
#234000
0"
0+
0-
0*
0#
#234500
1"
1+
1-
1*
1#
#235000
0!
0"
0,
0+
0-
0*
0#
#235500
1"
1+
#236000
1!
0"
1,
0+
#236500
1"
1+
1-
1*
1#
#237000
0"
0+
0-
0*
0#
#237500
1"
1+
1-
1*
1#
#238000
0"
0+
0-
0*
0#
#238500
1"
1+
1-
1*
1#
#239000
0"
0+
0-
0*
0#
#239500
1"
1+
1-
1*
1#
#240000
0!
0"
0,
0+
0-
0*
0#
#240500
1"
1+
#241000
1!
0"
1,
0+
#241500
1"
1+
1-
1*
1#
#242000
0"
0+
0-
0*
0#
#242500
1"
1+
1-
1*
1#
#243000
0"
0+
0-
0*
0#
#243500
1"
1+
1-
1*
1#
#244000
0"
0+
0-
0*
0#
#244500
1"
1+
1-
1*
1#
#245000
0!
0"
0,
0+
0-
0*
0#
#245500
1"
1+
#246000
1!
0"
1,
0+
#246500
1"
1+
1-
1*
1#
#247000
0"
0+
0-
0*
0#
#247500
1"
1+
1-
1*
1#
#248000
0"
0+
0-
0*
0#
#248500
1"
1+
1-
1*
1#
#249000
0"
0+
0-
0*
0#
#249500
1"
1+
1-
1*
1#
#250000
0!
0"
0,
0+
0-
0*
0#
#250500
1"
1+
#251000
1!
0"
1,
0+
#251500
1"
1+
1-
1*
1#
#252000
0"
0+
0-
0*
0#
#252500
1"
1+
1-
1*
1#
#253000
0"
0+
0-
0*
0#
#253500
1"
1+
1-
1*
1#
#254000
0"
0+
0-
0*
0#
#254500
1"
1+
1-
1*
1#
#255000
0!
0"
0,
0+
0-
0*
0#
#255500
1"
1+
#256000
1!
0"
1,
0+
#256500
1"
1+
1-
1*
1#
#257000
0"
0+
0-
0*
0#
#257500
1"
1+
1-
1*
1#
#258000
0"
0+
0-
0*
0#
#258500
1"
1+
1-
1*
1#
#259000
0"
0+
0-
0*
0#
#259500
1"
1+
1-
1*
1#
#260000
0!
0"
0,
0+
0-
0*
0#
#260500
1"
1+
#261000
1!
0"
1,
0+
#261500
1"
1+
1-
1*
1#
#262000
0"
0+
0-
0*
0#
#262500
1"
1+
1-
1*
1#
#263000
0"
0+
0-
0*
0#
#263500
1"
1+
1-
1*
1#
#264000
0"
0+
0-
0*
0#
#264500
1"
1+
1-
1*
1#
#265000
0!
0"
0,
0+
0-
0*
0#
#265500
1"
1+
#266000
1!
0"
1,
0+
#266500
1"
1+
1-
1*
1#
#267000
0"
0+
0-
0*
0#
#267500
1"
1+
1-
1*
1#
#268000
0"
0+
0-
0*
0#
#268500
1"
1+
1-
1*
1#
#269000
0"
0+
0-
0*
0#
#269500
1"
1+
1-
1*
1#
#270000
0!
0"
0,
0+
0-
0*
0#
#270500
1"
1+
#271000
1!
0"
1,
0+
#271500
1"
1+
1-
1*
1#
#272000
0"
0+
0-
0*
0#
#272500
1"
1+
1-
1*
1#
#273000
0"
0+
0-
0*
0#
#273500
1"
1+
1-
1*
1#
#274000
0"
0+
0-
0*
0#
#274500
1"
1+
1-
1*
1#
#275000
0!
0"
0,
0+
0-
0*
0#
#275500
1"
1+
#276000
1!
0"
1,
0+
#276500
1"
1+
1-
1*
1#
#277000
0"
0+
0-
0*
0#
#277500
1"
1+
1-
1*
1#
#278000
0"
0+
0-
0*
0#
#278500
1"
1+
1-
1*
1#
#279000
0"
0+
0-
0*
0#
#279500
1"
1+
1-
1*
1#
#280000
0!
0"
0,
0+
0-
0*
0#
#280500
1"
1+
#281000
1!
0"
1,
0+
#281500
1"
1+
1-
1*
1#
#282000
0"
0+
0-
0*
0#
#282500
1"
1+
1-
1*
1#
#283000
0"
0+
0-
0*
0#
#283500
1"
1+
1-
1*
1#
#284000
0"
0+
0-
0*
0#
#284500
1"
1+
1-
1*
1#
#285000
0!
0"
0,
0+
0-
0*
0#
#285500
1"
1+
#286000
1!
0"
1,
0+
#286500
1"
1+
1-
1*
1#
#287000
0"
0+
0-
0*
0#
#287500
1"
1+
1-
1*
1#
#288000
0"
0+
0-
0*
0#
#288500
1"
1+
1-
1*
1#
#289000
0"
0+
0-
0*
0#
#289500
1"
1+
1-
1*
1#
#290000
0!
0"
0,
0+
0-
0*
0#
#290500
1"
1+
#291000
1!
0"
1,
0+
#291500
1"
1+
1-
1*
1#
#292000
0"
0+
0-
0*
0#
#292500
1"
1+
1-
1*
1#
#293000
0"
0+
0-
0*
0#
#293500
1"
1+
1-
1*
1#
#294000
0"
0+
0-
0*
0#
#294500
1"
1+
1-
1*
1#
#295000
0!
0"
0,
0+
0-
0*
0#
#295500
1"
1+
#296000
1!
0"
1,
0+
#296500
1"
1+
1-
1*
1#
#297000
0"
0+
0-
0*
0#
#297500
1"
1+
1-
1*
1#
#298000
0"
0+
0-
0*
0#
#298500
1"
1+
1-
1*
1#
#299000
0"
0+
0-
0*
0#
#299500
1"
1+
1-
1*
1#
#300000
0!
0"
0,
0+
0-
0*
0#
#300500
1"
1+
#301000
1!
0"
1,
0+
#301500
1"
1+
1-
1*
1#
#302000
0"
0+
0-
0*
0#
#302500
1"
1+
1-
1*
1#
#303000
0"
0+
0-
0*
0#
#303500
1"
1+
1-
1*
1#
#304000
0"
0+
0-
0*
0#
#304500
1"
1+
1-
1*
1#
#305000
0!
0"
0,
0+
0-
0*
0#
#305500
1"
1+
#306000
1!
0"
1,
0+
#306500
1"
1+
1-
1*
1#
#307000
0"
0+
0-
0*
0#
#307500
1"
1+
1-
1*
1#
#308000
0"
0+
0-
0*
0#
#308500
1"
1+
1-
1*
1#
#309000
0"
0+
0-
0*
0#
#309500
1"
1+
1-
1*
1#
#310000
0!
0"
0,
0+
0-
0*
0#
#310500
1"
1+
#311000
1!
0"
1,
0+
#311500
1"
1+
1-
1*
1#
#312000
0"
0+
0-
0*
0#
#312500
1"
1+
1-
1*
1#
#313000
0"
0+
0-
0*
0#
#313500
1"
1+
1-
1*
1#
#314000
0"
0+
0-
0*
0#
#314500
1"
1+
1-
1*
1#
#315000
0!
0"
0,
0+
0-
0*
0#
#315500
1"
1+
#316000
1!
0"
1,
0+
#316500
1"
1+
1-
1*
1#
#317000
0"
0+
0-
0*
0#
#317500
1"
1+
1-
1*
1#
#318000
0"
0+
0-
0*
0#
#318500
1"
1+
1-
1*
1#
#319000
0"
0+
0-
0*
0#
#319500
1"
1+
1-
1*
1#
#320000
0!
0"
0,
0+
0-
0*
0#
#320500
1"
1+
#321000
1!
0"
1,
0+
#321500
1"
1+
1-
1*
1#
#322000
0"
0+
0-
0*
0#
#322500
1"
1+
1-
1*
1#
#323000
0"
0+
0-
0*
0#
#323500
1"
1+
1-
1*
1#
#324000
0"
0+
0-
0*
0#
#324500
1"
1+
1-
1*
1#
#325000
0!
0"
0,
0+
0-
0*
0#
#325500
1"
1+
#326000
1!
0"
1,
0+
#326500
1"
1+
1-
1*
1#
#327000
0"
0+
0-
0*
0#
#327500
1"
1+
1-
1*
1#
#328000
0"
0+
0-
0*
0#
#328500
1"
1+
1-
1*
1#
#329000
0"
0+
0-
0*
0#
#329500
1"
1+
1-
1*
1#
#330000
0!
0"
0,
0+
0-
0*
0#
#330500
1"
1+
#331000
1!
0"
1,
0+
#331500
1"
1+
1-
1*
1#
#332000
0"
0+
0-
0*
0#
#332500
1"
1+
1-
1*
1#
#333000
0"
0+
0-
0*
0#
#333500
1"
1+
1-
1*
1#
#334000
0"
0+
0-
0*
0#
#334500
1"
1+
1-
1*
1#
#335000
0!
0"
0,
0+
0-
0*
0#
#335500
1"
1+
#336000
1!
0"
1,
0+
#336500
1"
1+
1-
1*
1#
#337000
0"
0+
0-
0*
0#
#337500
1"
1+
1-
1*
1#
#338000
0"
0+
0-
0*
0#
#338500
1"
1+
1-
1*
1#
#339000
0"
0+
0-
0*
0#
#339500
1"
1+
1-
1*
1#
#340000
0!
0"
0,
0+
0-
0*
0#
#340500
1"
1+
#341000
1!
0"
1,
0+
#341500
1"
1+
1-
1*
1#
#342000
0"
0+
0-
0*
0#
#342500
1"
1+
1-
1*
1#
#343000
0"
0+
0-
0*
0#
#343500
1"
1+
1-
1*
1#
#344000
0"
0+
0-
0*
0#
#344500
1"
1+
1-
1*
1#
#345000
0!
0"
0,
0+
0-
0*
0#
#345500
1"
1+
#346000
1!
0"
1,
0+
#346500
1"
1+
1-
1*
1#
#347000
0"
0+
0-
0*
0#
#347500
1"
1+
1-
1*
1#
#348000
0"
0+
0-
0*
0#
#348500
1"
1+
1-
1*
1#
#349000
0"
0+
0-
0*
0#
#349500
1"
1+
1-
1*
1#
#350000
0!
0"
0,
0+
0-
0*
0#
#350500
1"
1+
#351000
1!
0"
1,
0+
#351500
1"
1+
1-
1*
1#
#352000
0"
0+
0-
0*
0#
#352500
1"
1+
1-
1*
1#
#353000
0"
0+
0-
0*
0#
#353500
1"
1+
1-
1*
1#
#354000
0"
0+
0-
0*
0#
#354500
1"
1+
1-
1*
1#
#355000
0!
0"
0,
0+
0-
0*
0#
#355500
1"
1+
#356000
1!
0"
1,
0+
#356500
1"
1+
1-
1*
1#
#357000
0"
0+
0-
0*
0#
#357500
1"
1+
1-
1*
1#
#358000
0"
0+
0-
0*
0#
#358500
1"
1+
1-
1*
1#
#359000
0"
0+
0-
0*
0#
#359500
1"
1+
1-
1*
1#
#360000
0!
0"
0,
0+
0-
0*
0#
#360500
1"
1+
#361000
1!
0"
1,
0+
#361500
1"
1+
1-
1*
1#
#362000
0"
0+
0-
0*
0#
#362500
1"
1+
1-
1*
1#
#363000
0"
0+
0-
0*
0#
#363500
1"
1+
1-
1*
1#
#364000
0"
0+
0-
0*
0#
#364500
1"
1+
1-
1*
1#
#365000
0!
0"
0,
0+
0-
0*
0#
#365500
1"
1+
#366000
1!
0"
1,
0+
#366500
1"
1+
1-
1*
1#
#367000
0"
0+
0-
0*
0#
#367500
1"
1+
1-
1*
1#
#368000
0"
0+
0-
0*
0#
#368500
1"
1+
1-
1*
1#
#369000
0"
0+
0-
0*
0#
#369500
1"
1+
1-
1*
1#
#370000
0!
0"
0,
0+
0-
0*
0#
#370500
1"
1+
#371000
1!
0"
1,
0+
#371500
1"
1+
1-
1*
1#
#372000
0"
0+
0-
0*
0#
#372500
1"
1+
1-
1*
1#
#373000
0"
0+
0-
0*
0#
#373500
1"
1+
1-
1*
1#
#374000
0"
0+
0-
0*
0#
#374500
1"
1+
1-
1*
1#
#375000
0!
0"
0,
0+
0-
0*
0#
#375500
1"
1+
#376000
1!
0"
1,
0+
#376500
1"
1+
1-
1*
1#
#377000
0"
0+
0-
0*
0#
#377500
1"
1+
1-
1*
1#
#378000
0"
0+
0-
0*
0#
#378500
1"
1+
1-
1*
1#
#379000
0"
0+
0-
0*
0#
#379500
1"
1+
1-
1*
1#
#380000
0!
0"
0,
0+
0-
0*
0#
#380500
1"
1+
#381000
1!
0"
1,
0+
#381500
1"
1+
1-
1*
1#
#382000
0"
0+
0-
0*
0#
#382500
1"
1+
1-
1*
1#
#383000
0"
0+
0-
0*
0#
#383500
1"
1+
1-
1*
1#
#384000
0"
0+
0-
0*
0#
#384500
1"
1+
1-
1*
1#
#385000
0!
0"
0,
0+
0-
0*
0#
#385500
1"
1+
#386000
1!
0"
1,
0+
#386500
1"
1+
1-
1*
1#
#387000
0"
0+
0-
0*
0#
#387500
1"
1+
1-
1*
1#
#388000
0"
0+
0-
0*
0#
#388500
1"
1+
1-
1*
1#
#389000
0"
0+
0-
0*
0#
#389500
1"
1+
1-
1*
1#
#390000
0!
0"
0,
0+
0-
0*
0#
#390500
1"
1+
#391000
1!
0"
1,
0+
#391500
1"
1+
1-
1*
1#
#392000
0"
0+
0-
0*
0#
#392500
1"
1+
1-
1*
1#
#393000
0"
0+
0-
0*
0#
#393500
1"
1+
1-
1*
1#
#394000
0"
0+
0-
0*
0#
#394500
1"
1+
1-
1*
1#
#395000
0!
0"
0,
0+
0-
0*
0#
#395500
1"
1+
#396000
1!
0"
1,
0+
