simulation/qsim/Projeto_2.msim.vcd
$comment
	File created using the following command:
		vcd file Projeto_2.msim.vcd -direction
$end
$date
	Mon Jul 26 17:17:45 2021
$end
$version
	ModelSim Version 2020.1
$end
$timescale
	1ps
$end

$scope module despertador_vlg_vec_tst $end
$var reg 1 ! ajuste $end
$var reg 1 " clk $end
$var reg 1 # troca_modo $end
$var reg 1 $ trocar $end
$var reg 1 % up $end
$var wire 1 & AnodeOutput [3] $end
$var wire 1 ' AnodeOutput [2] $end
$var wire 1 ( AnodeOutput [1] $end
$var wire 1 ) AnodeOutput [0] $end
$var wire 1 * horas_dezenas [3] $end
$var wire 1 + horas_dezenas [2] $end
$var wire 1 , horas_dezenas [1] $end
$var wire 1 - horas_dezenas [0] $end
$var wire 1 . horas_unidades [3] $end
$var wire 1 / horas_unidades [2] $end
$var wire 1 0 horas_unidades [1] $end
$var wire 1 1 horas_unidades [0] $end
$var wire 1 2 min_dezenas [3] $end
$var wire 1 3 min_dezenas [2] $end
$var wire 1 4 min_dezenas [1] $end
$var wire 1 5 min_dezenas [0] $end
$var wire 1 6 min_unidades [3] $end
$var wire 1 7 min_unidades [2] $end
$var wire 1 8 min_unidades [1] $end
$var wire 1 9 min_unidades [0] $end
$var wire 1 : sec_dezenas [3] $end
$var wire 1 ; sec_dezenas [2] $end
$var wire 1 < sec_dezenas [1] $end
$var wire 1 = sec_dezenas [0] $end
$var wire 1 > sec_unidades [3] $end
$var wire 1 ? sec_unidades [2] $end
$var wire 1 @ sec_unidades [1] $end
$var wire 1 A sec_unidades [0] $end
$var wire 1 B Seg7Output [6] $end
$var wire 1 C Seg7Output [5] $end
$var wire 1 D Seg7Output [4] $end
$var wire 1 E Seg7Output [3] $end
$var wire 1 F Seg7Output [2] $end
$var wire 1 G Seg7Output [1] $end
$var wire 1 H Seg7Output [0] $end
$var wire 1 I tc_horas $end
$var wire 1 J tc_minutos $end
$var wire 1 K tc_segundos $end

$scope module i1 $end
$var wire 1 L gnd $end
$var wire 1 M vcc $end
$var wire 1 N unknown $end
$var tri1 1 O devclrn $end
$var tri1 1 P devpor $end
$var tri1 1 Q devoe $end
$var wire 1 R ajuste~input_o $end
$var wire 1 S up~input_o $end
$var wire 1 T trocar~input_o $end
$var wire 1 U troca_modo~input_o $end
$var wire 1 V sec_unidades[0]~output_o $end
$var wire 1 W sec_unidades[1]~output_o $end
$var wire 1 X sec_unidades[2]~output_o $end
$var wire 1 Y sec_unidades[3]~output_o $end
$var wire 1 Z sec_dezenas[0]~output_o $end
$var wire 1 [ sec_dezenas[1]~output_o $end
$var wire 1 \ sec_dezenas[2]~output_o $end
$var wire 1 ] sec_dezenas[3]~output_o $end
$var wire 1 ^ min_unidades[0]~output_o $end
$var wire 1 _ min_unidades[1]~output_o $end
$var wire 1 ` min_unidades[2]~output_o $end
$var wire 1 a min_unidades[3]~output_o $end
$var wire 1 b min_dezenas[0]~output_o $end
$var wire 1 c min_dezenas[1]~output_o $end
$var wire 1 d min_dezenas[2]~output_o $end
$var wire 1 e min_dezenas[3]~output_o $end
$var wire 1 f horas_unidades[0]~output_o $end
$var wire 1 g horas_unidades[1]~output_o $end
$var wire 1 h horas_unidades[2]~output_o $end
$var wire 1 i horas_unidades[3]~output_o $end
$var wire 1 j horas_dezenas[0]~output_o $end
$var wire 1 k horas_dezenas[1]~output_o $end
$var wire 1 l horas_dezenas[2]~output_o $end
$var wire 1 m horas_dezenas[3]~output_o $end
$var wire 1 n tc_segundos~output_o $end
$var wire 1 o tc_minutos~output_o $end
$var wire 1 p tc_horas~output_o $end
$var wire 1 q Seg7Output[0]~output_o $end
$var wire 1 r Seg7Output[1]~output_o $end
$var wire 1 s Seg7Output[2]~output_o $end
$var wire 1 t Seg7Output[3]~output_o $end
$var wire 1 u Seg7Output[4]~output_o $end
$var wire 1 v Seg7Output[5]~output_o $end
$var wire 1 w Seg7Output[6]~output_o $end
$var wire 1 x AnodeOutput[0]~output_o $end
$var wire 1 y AnodeOutput[1]~output_o $end
$var wire 1 z AnodeOutput[2]~output_o $end
$var wire 1 { AnodeOutput[3]~output_o $end
$var wire 1 | clk~input_o $end
$var wire 1 } cont_clock|count[0]~1_combout $end
$var wire 1 ~ cont_clock|op_2~0_combout $end
$var wire 1 !! cont_clock|count[2]~2_combout $end
$var wire 1 "! cont_clock|op_2~1_combout $end
$var wire 1 #! cont_clock|count[3]~3_combout $end
$var wire 1 $! cont_clock|op_1~1_combout $end
$var wire 1 %! cont_clock|count[1]~0_combout $end
$var wire 1 &! cont_clock|op_1~0_combout $end
$var wire 1 '! cont_clock|op_4~0_combout $end
$var wire 1 (! cont_clock|flag~0_combout $end
$var wire 1 )! mod10_seg|_~3_combout $end
$var wire 1 *! mod10_seg|_~4_combout $end
$var wire 1 +! mod10_seg|_~2_combout $end
$var wire 1 ,! mod10_seg|_~1_combout $end
$var wire 1 -! mod10_seg|_~0_combout $end
$var wire 1 .! mod6_seg|count[2]~2_combout $end
$var wire 1 /! mod6_seg|count[1]~1_combout $end
$var wire 1 0! mod6_seg|count[0]~0_combout $end
$var wire 1 1! mod6_seg|tc~2_combout $end
$var wire 1 2! mod10_min|count[2]~2_combout $end
$var wire 1 3! mod6_seg|tc~combout $end
$var wire 1 4! mod10_min|op_2~0_combout $end
$var wire 1 5! mod10_min|count[3]~3_combout $end
$var wire 1 6! mod10_min|count[1]~1_combout $end
$var wire 1 7! mod10_min|op_1~0_combout $end
$var wire 1 8! mod10_min|count[0]~0_combout $end
$var wire 1 9! mod10_min|tc~0_combout $end
$var wire 1 :! mod10_min|tc~combout $end
$var wire 1 ;! mod6_min|count[2]~2_combout $end
$var wire 1 <! mod6_min|count[1]~1_combout $end
$var wire 1 =! mod6_min|count[0]~0_combout $end
$var wire 1 >! mod6_min|tc~0_combout $end
$var wire 1 ?! mod6_min|tc~combout $end
$var wire 1 @! mod24|low[1]~6_combout $end
$var wire 1 A! mod24|low[1]~3_combout $end
$var wire 1 B! mod24|time~2_combout $end
$var wire 1 C! mod24|low[2]~4_combout $end
$var wire 1 D! mod24|op_2~0_combout $end
$var wire 1 E! mod24|low[3]~5_combout $end
$var wire 1 F! mod24|op_1~0_combout $end
$var wire 1 G! mod24|_~1_combout $end
$var wire 1 H! mod24|_~2_combout $end
$var wire 1 I! mod24|_~3_combout $end
$var wire 1 J! mod24|high[0]~0_combout $end
$var wire 1 K! mod24|_~4_combout $end
$var wire 1 L! mod24|high[1]~1_combout $end
$var wire 1 M! mod24|time~3_combout $end
$var wire 1 N! mod24|_~0_combout $end
$var wire 1 O! mod24|low[0]~2_combout $end
$var wire 1 P! mod24|time~4_combout $end
$var wire 1 Q! refresh_clock|mod5|_~4_combout $end
$var wire 1 R! refresh_clock|mod5|_~3_combout $end
$var wire 1 S! refresh_clock|mod5|_~2_combout $end
$var wire 1 T! refresh_clock|mod5|_~0_combout $end
$var wire 1 U! refresh_clock|mod5_2|_~4_combout $end
$var wire 1 V! refresh_clock|mod5_2|_~3_combout $end
$var wire 1 W! refresh_clock|mod5_2|_~2_combout $end
$var wire 1 X! refresh_clock|mod5_2|_~0_combout $end
$var wire 1 Y! refresh_clock|mod5_3|_~4_combout $end
$var wire 1 Z! refresh_clock|mod5_3|_~3_combout $end
$var wire 1 [! refresh_clock|mod5_3|_~2_combout $end
$var wire 1 \! refresh_clock|mod5_3|_~0_combout $end
$var wire 1 ]! refresh_clock|mod5_4|_~4_combout $end
$var wire 1 ^! refresh_clock|mod5_4|_~3_combout $end
$var wire 1 _! refresh_clock|mod5_4|_~2_combout $end
$var wire 1 `! refresh_clock|mod5_4|_~0_combout $end
$var wire 1 a! refresh_clock|mod10|_~3_combout $end
$var wire 1 b! refresh_clock|mod10|_~5_combout $end
$var wire 1 c! refresh_clock|mod10|_~4_combout $end
$var wire 1 d! refresh_clock|mod10|_~2_combout $end
$var wire 1 e! refresh_clock|mod10|_~0_combout $end
$var wire 1 f! refresh_clock|clk_saida~0_combout $end
$var wire 1 g! refresh_clock|clk_saida~q $end
$var wire 1 h! chaveador|count[0]~1_combout $end
$var wire 1 i! chaveador|_~0_combout $end
$var wire 1 j! mux|dout[1]~16_combout $end
$var wire 1 k! mux|dout[1]~17_combout $end
$var wire 1 l! mux|dout[2]~18_combout $end
$var wire 1 m! mux|dout[0]~19_combout $end
$var wire 1 n! mux|dout[0]~20_combout $end
$var wire 1 o! bcd_7Seg_dec|a~combout $end
$var wire 1 p! bcd_7Seg_dec|b~1_combout $end
$var wire 1 q! bcd_7Seg_dec|_~0_combout $end
$var wire 1 r! bcd_7Seg_dec|d~2_combout $end
$var wire 1 s! bcd_7Seg_dec|e~1_combout $end
$var wire 1 t! bcd_7Seg_dec|f~0_combout $end
$var wire 1 u! bcd_7Seg_dec|g~1_combout $end
$var wire 1 v! decoder|saida[2]~4_combout $end
$var wire 1 w! decoder|saida[2]~5_combout $end
$var wire 1 x! decoder|saida[2]~6_combout $end
$var wire 1 y! decoder|saida[3]~7_combout $end
$var wire 1 z! mod10_seg|count [3] $end
$var wire 1 {! mod10_seg|count [2] $end
$var wire 1 |! mod10_seg|count [1] $end
$var wire 1 }! mod10_seg|count [0] $end
$var wire 1 ~! chaveador|count [1] $end
$var wire 1 !" chaveador|count [0] $end
$var wire 1 "" mod24|low [3] $end
$var wire 1 #" mod24|low [2] $end
$var wire 1 $" mod24|low [1] $end
$var wire 1 %" mod24|low [0] $end
$var wire 1 &" mod6_seg|count [3] $end
$var wire 1 '" mod6_seg|count [2] $end
$var wire 1 (" mod6_seg|count [1] $end
$var wire 1 )" mod6_seg|count [0] $end
$var wire 1 *" mod6_min|count [3] $end
$var wire 1 +" mod6_min|count [2] $end
$var wire 1 ," mod6_min|count [1] $end
$var wire 1 -" mod6_min|count [0] $end
$var wire 1 ." mod10_min|count [3] $end
$var wire 1 /" mod10_min|count [2] $end
$var wire 1 0" mod10_min|count [1] $end
$var wire 1 1" mod10_min|count [0] $end
$var wire 1 2" cont_clock|count [3] $end
$var wire 1 3" cont_clock|count [2] $end
$var wire 1 4" cont_clock|count [1] $end
$var wire 1 5" cont_clock|count [0] $end
$var wire 1 6" mod24|high [3] $end
$var wire 1 7" mod24|high [2] $end
$var wire 1 8" mod24|high [1] $end
$var wire 1 9" mod24|high [0] $end
$var wire 1 :" mux|dout [3] $end
$var wire 1 ;" mux|dout [2] $end
$var wire 1 <" mux|dout [1] $end
$var wire 1 =" mux|dout [0] $end
$var wire 1 >" refresh_clock|mod10|count [3] $end
$var wire 1 ?" refresh_clock|mod10|count [2] $end
$var wire 1 @" refresh_clock|mod10|count [1] $end
$var wire 1 A" refresh_clock|mod10|count [0] $end
$var wire 1 B" refresh_clock|mod5_4|count [2] $end
$var wire 1 C" refresh_clock|mod5_4|count [1] $end
$var wire 1 D" refresh_clock|mod5_4|count [0] $end
$var wire 1 E" refresh_clock|mod5_3|count [2] $end
$var wire 1 F" refresh_clock|mod5_3|count [1] $end
$var wire 1 G" refresh_clock|mod5_3|count [0] $end
$var wire 1 H" refresh_clock|mod5_2|count [2] $end
$var wire 1 I" refresh_clock|mod5_2|count [1] $end
$var wire 1 J" refresh_clock|mod5_2|count [0] $end
$var wire 1 K" refresh_clock|mod5|count [2] $end
$var wire 1 L" refresh_clock|mod5|count [1] $end
$var wire 1 M" refresh_clock|mod5|count [0] $end
$upscope $end
$upscope $end
$enddefinitions $end
#0
$dumpvars
0!
0"
0#
0$
0%
1)
1(
1'
0&
0-
0,
0+
0*
01
00
0/
0.
05
04
03
02
09
08
07
06
0=
0<
0;
0:
0A
0@
0?
0>
0H
0G
0F
0E
0D
0C
1B
0I
0J
0K
0L
1M
xN
1O
1P
1Q
0R
0S
0T
0U
0V
0W
0X
0Y
0Z
0[
0\
0]
0^
0_
0`
0a
0b
0c
0d
0e
0f
0g
0h
0i
0j
0k
0l
0m
0n
0o
0p
0q
0r
0s
0t
0u
0v
1w
1x
1y
1z
0{
0|
1}
0~
0!!
0"!
0#!
1$!
0%!
1&!
0'!
0(!
0)!
0*!
0+!
1,!
0-!
0.!
0/!
00!
11!
02!
03!
04!
05!
06!
17!
08!
19!
0:!
0;!
0<!
0=!
1>!
1?!
1@!
0A!
0B!
0C!
0D!
0E!
1F!
1G!
0H!
0I!
0J!
0K!
0L!
0M!
0N!
0O!
0P!
1Q!
0R!
0S!
0T!
1U!
0V!
0W!
0X!
1Y!
0Z!
0[!
0\!
1]!
0^!
0_!
0`!
1a!
0b!
0c!
0d!
0e!
1f!
0g!
1h!
0i!
0j!
1k!
0l!
0m!
0n!
0o!
0p!
0q!
0r!
0s!
0t!
1u!
0v!
0w!
0x!
0y!
0}!
0|!
0{!
0z!
0!"
0~!
0%"
0$"
0#"
0""
0)"
0("
0'"
z&"
0-"
0,"
0+"
z*"
01"
00"
0/"
0."
05"
04"
03"
02"
09"
08"
z7"
z6"
z="
z<"
0;"
0:"
0A"
0@"
0?"
0>"
0D"
0C"
0B"
0G"
0F"
0E"
0J"
0I"
0H"
0M"
0L"
0K"
$end
#1000
1"
1|
1M"
15"
1R!
0Q!
1%!
0}
#2000
0"
0|
#3000
1"
1|
1L"
0M"
14"
05"
1'!
1Q!
1}
#4000
0"
0|
#5000
1"
1|
1M"
15"
1~
1S!
0R!
0Q!
0%!
0}
1!!
#6000
0"
0|
#7000
1"
1|
1K"
0L"
0M"
04"
13"
05"
1T!
0S!
1}
1J"
1V!
0U!
#8000
0"
0|
#9000
1"
1|
0K"
15"
0&!
0$!
0T!
1Q!
1%!
0}
1(!
0%!
0!!
1%!
1!!
1}!
1V
1A
0,!
1+!
#10000
0"
0|
#11000
1"
1|
1M"
14"
05"
1R!
0Q!
1}
#12000
0"
0|
#13000
1"
1|
1L"
0M"
15"
1"!
0~
1Q!
0%!
0}
1#!
0!!
#14000
0"
0|
#15000
1"
1|
1M"
04"
12"
03"
05"
0'!
1&!
1S!
0R!
0Q!
0(!
1}
1(!
0#!
0}
1#!
1}
0}!
1|!
1W
0V
0A
1@
1,!
#16000
0"
0|
#17000
1"
1|
1K"
0L"
0M"
15"
1T!
0S!
1%!
0}
1I"
0J"
1U!
#18000
0"
0|
#19000
1"
1|
0K"
14"
05"
1'!
0T!
1Q!
1}
0(!
0%!
0#!
0}
#20000
0"
0|
#21000
1"
1|
1M"
04"
02"
0'!
1$!
0"!
1R!
0Q!
1}
#22000
0"
0|
#23000
1"
1|
1L"
0M"
15"
1Q!
1%!
0}
#24000
0"
0|
#25000
1"
1|
1M"
14"
05"
1'!
1S!
0R!
0Q!
1}
#26000
0"
0|
#27000
1"
1|
1K"
0L"
0M"
15"
1~
1T!
0S!
0%!
0}
1!!
1J"
1W!
0V!
0U!
#28000
0"
0|
#29000
1"
1|
0K"
04"
13"
05"
0T!
1Q!
1}
#30000
0"
0|
#31000
1"
1|
1M"
15"
0&!
0$!
1R!
0Q!
1%!
0}
1(!
0%!
0!!
1%!
1!!
1}!
1V
1A
0,!
0+!
1)!
#32000
0"
0|
#33000
1"
1|
1L"
0M"
14"
05"
1Q!
1}
#34000
0"
0|
#35000
1"
1|
1M"
15"
1"!
0~
1S!
0R!
0Q!
0%!
0}
1#!
0!!
#36000
0"
0|
#37000
1"
1|
1K"
0L"
0M"
04"
12"
03"
05"
0'!
1&!
1T!
0S!
0(!
1}
1(!
0#!
0}
1#!
1}
1H"
0I"
0J"
0}!
0|!
1{!
1X
0W
0V
0A
0@
1?
1X!
0W!
1,!
1G"
1Z!
0Y!
#38000
0"
0|
#39000
1"
1|
0K"
15"
0T!
1Q!
1%!
0}
#40000
0"
0|
#41000
1"
1|
1M"
14"
05"
1'!
1R!
0Q!
1}
0(!
0%!
0#!
0}
#42000
0"
0|
#43000
1"
1|
1L"
0M"
04"
02"
0'!
1$!
0"!
1Q!
1}
#44000
0"
0|
#45000
1"
1|
1M"
15"
1S!
0R!
0Q!
1%!
0}
#46000
0"
0|
#47000
1"
1|
1K"
0L"
0M"
14"
05"
1'!
1T!
0S!
1}
0H"
0X!
1U!
#48000
0"
0|
#49000
1"
1|
0K"
15"
1~
0T!
1Q!
0%!
0}
1!!
#50000
0"
0|
#51000
1"
1|
1M"
04"
13"
05"
1R!
0Q!
1}
#52000
0"
0|
#53000
1"
1|
1L"
0M"
15"
0&!
0$!
1Q!
1%!
0}
1(!
0%!
0!!
1%!
1!!
1}!
1V
1A
0,!
1+!
#54000
0"
0|
#55000
1"
1|
1M"
14"
05"
1S!
0R!
0Q!
1}
#56000
0"
0|
#57000
1"
1|
1K"
0L"
0M"
15"
1"!
0~
1T!
0S!
0%!
0}
1#!
0!!
1J"
1V!
0U!
#58000
0"
0|
#59000
1"
1|
0K"
04"
12"
03"
05"
0'!
1&!
0T!
1Q!
0(!
1}
1(!
0#!
0}
1#!
1}
0}!
1|!
1W
0V
0A
1@
1,!
#60000
0"
0|
#61000
1"
1|
1M"
15"
1R!
0Q!
1%!
0}
#62000
0"
0|
#63000
1"
1|
1L"
0M"
14"
05"
1'!
1Q!
1}
0(!
0%!
0#!
0}
#64000
0"
0|
#65000
1"
1|
1M"
04"
02"
0'!
1$!
0"!
1S!
0R!
0Q!
1}
#66000
0"
0|
#67000
1"
1|
1K"
0L"
0M"
15"
1T!
0S!
1%!
0}
1I"
0J"
1U!
#68000
0"
0|
#69000
1"
1|
0K"
14"
05"
1'!
0T!
1Q!
1}
#70000
0"
0|
#71000
1"
1|
1M"
15"
1~
1R!
0Q!
0%!
0}
1!!
#72000
0"
0|
#73000
1"
1|
1L"
0M"
04"
13"
05"
1Q!
1}
#74000
0"
0|
#75000
1"
1|
1M"
15"
0&!
0$!
1S!
0R!
0Q!
1%!
0}
1(!
0%!
0!!
1%!
1!!
1}!
1V
1A
0,!
0+!
1*!
0)!
#76000
0"
0|
#77000
1"
1|
1K"
0L"
0M"
14"
05"
1T!
0S!
1}
1J"
1W!
0V!
0U!
#78000
0"
0|
#79000
1"
1|
0K"
15"
1"!
0~
0T!
1Q!
0%!
0}
1#!
0!!
#80000
0"
0|
#81000
1"
1|
1M"
04"
12"
03"
05"
0'!
1&!
1R!
0Q!
0(!
1}
1(!
0#!
0}
1#!
1}
0}!
0|!
1z!
0{!
0X
1Y
0W
0V
0A
0@
1>
0?
1,!
#82000
0"
0|
#83000
1"
1|
1L"
0M"
15"
1Q!
1%!
0}
#84000
0"
0|
#85000
1"
1|
1M"
14"
05"
1'!
1S!
0R!
0Q!
1}
0(!
0%!
0#!
0}
#86000
0"
0|
#87000
1"
1|
1K"
0L"
0M"
04"
02"
0'!
1$!
0"!
1T!
0S!
1}
1H"
0I"
0J"
1X!
0W!
1F"
0G"
1Y!
#88000
0"
0|
#89000
1"
1|
0K"
15"
0T!
1Q!
1%!
0}
#90000
0"
0|
#91000
1"
1|
1M"
14"
05"
1'!
1R!
0Q!
1}
#92000
0"
0|
#93000
1"
1|
1L"
0M"
15"
1~
1Q!
0%!
0}
1!!
#94000
0"
0|
#95000
1"
1|
1M"
04"
13"
05"
1S!
0R!
0Q!
1}
#96000
0"
0|
#97000
1"
1|
1K"
0L"
0M"
15"
0&!
0$!
1T!
0S!
1%!
0}
1(!
0%!
0!!
1%!
1!!
0H"
1}!
1V
1-!
1A
0X!
1U!
0,!
0*!
10!
#98000
0"
0|
#99000
1"
1|
0K"
14"
05"
0T!
1Q!
1}
#100000
0"
0|
#101000
1"
1|
1M"
15"
1"!
0~
1R!
0Q!
0%!
0}
1#!
0!!
#102000
0"
0|
#103000
1"
1|
1L"
0M"
04"
12"
03"
05"
0'!
1&!
1Q!
0(!
1}
1(!
0#!
0}
1#!
1}
1)"
0}!
0z!
0Y
0V
1Z
0-!
1=
0A
0>
00!
1/!
1,!
10!
#104000
0"
0|
#105000
1"
1|
1M"
15"
1S!
0R!
0Q!
1%!
0}
#106000
0"
0|
#107000
1"
1|
1K"
0L"
0M"
14"
05"
1'!
1T!
0S!
1}
0(!
0%!
0#!
0}
1J"
1V!
0U!
#108000
0"
0|
#109000
1"
1|
0K"
04"
02"
0'!
1$!
0"!
0T!
1Q!
1}
#110000
0"
0|
#111000
1"
1|
1M"
15"
1R!
0Q!
1%!
0}
#112000
0"
0|
#113000
1"
1|
1L"
0M"
14"
05"
1'!
1Q!
1}
#114000
0"
0|
#115000
1"
1|
1M"
15"
1~
1S!
0R!
0Q!
0%!
0}
1!!
#116000
0"
0|
#117000
1"
1|
1K"
0L"
0M"
04"
13"
05"
1T!
0S!
1}
1I"
0J"
1U!
#118000
0"
0|
#119000
1"
1|
0K"
15"
0&!
0$!
0T!
1Q!
1%!
0}
1(!
0%!
0!!
1%!
1!!
1}!
1V
1A
0,!
1+!
#120000
0"
0|
#121000
1"
1|
1M"
14"
05"
1R!
0Q!
1}
#122000
0"
0|
#123000
1"
1|
1L"
0M"
15"
1"!
0~
1Q!
0%!
0}
1#!
0!!
#124000
0"
0|
#125000
1"
1|
1M"
04"
12"
03"
05"
0'!
1&!
1S!
0R!
0Q!
0(!
1}
1(!
0#!
0}
1#!
1}
0}!
1|!
1W
0V
0A
1@
1,!
#126000
0"
0|
#127000
1"
1|
1K"
0L"
0M"
15"
1T!
0S!
1%!
0}
1J"
1W!
0V!
0U!
#128000
0"
0|
#129000
1"
1|
0K"
14"
05"
1'!
0T!
1Q!
1}
0(!
0%!
0#!
0}
#130000
0"
0|
#131000
1"
1|
1M"
04"
02"
0'!
1$!
0"!
1R!
0Q!
1}
#132000
0"
0|
#133000
1"
1|
1L"
0M"
15"
1Q!
1%!
0}
#134000
0"
0|
#135000
1"
1|
1M"
14"
05"
1'!
1S!
0R!
0Q!
1}
#136000
0"
0|
#137000
1"
1|
1K"
0L"
0M"
15"
1~
1T!
0S!
0%!
0}
1!!
1H"
0I"
0J"
1X!
0W!
1G"
1[!
0Z!
0Y!
#138000
0"
0|
#139000
1"
1|
0K"
04"
13"
05"
0T!
1Q!
1}
#140000
0"
0|
#141000
1"
1|
1M"
15"
0&!
0$!
1R!
0Q!
1%!
0}
1(!
0%!
0!!
1%!
1!!
1}!
1V
1A
0,!
0+!
1)!
#142000
0"
0|
#143000
1"
1|
1L"
0M"
14"
05"
1Q!
1}
#144000
0"
0|
#145000
1"
1|
1M"
15"
1"!
0~
1S!
0R!
0Q!
0%!
0}
1#!
0!!
#146000
0"
0|
#147000
1"
1|
1K"
0L"
0M"
04"
12"
03"
05"
0'!
1&!
1T!
0S!
0(!
1}
1(!
0#!
0}
1#!
1}
0H"
0}!
0|!
1{!
1X
0W
0V
0A
0@
1?
0X!
1U!
1,!
#148000
0"
0|
#149000
1"
1|
0K"
15"
0T!
1Q!
1%!
0}
#150000
0"
0|
#151000
1"
1|
1M"
14"
05"
1'!
1R!
0Q!
1}
0(!
0%!
0#!
0}
#152000
0"
0|
#153000
1"
1|
1L"
0M"
04"
02"
0'!
1$!
0"!
1Q!
1}
#154000
0"
0|
#155000
1"
1|
1M"
15"
1S!
0R!
0Q!
1%!
0}
#156000
0"
0|
#157000
1"
1|
1K"
0L"
0M"
14"
05"
1'!
1T!
0S!
1}
1J"
1V!
0U!
#158000
0"
0|
#159000
1"
1|
0K"
15"
1~
0T!
1Q!
0%!
0}
1!!
#160000
0"
0|
#161000
1"
1|
1M"
04"
13"
05"
1R!
0Q!
1}
#162000
0"
0|
#163000
1"
1|
1L"
0M"
15"
0&!
0$!
1Q!
1%!
0}
1(!
0%!
0!!
1%!
1!!
1}!
1V
1A
0,!
1+!
#164000
0"
0|
#165000
1"
1|
1M"
14"
05"
1S!
0R!
0Q!
1}
#166000
0"
0|
#167000
1"
1|
1K"
0L"
0M"
15"
1"!
0~
1T!
0S!
0%!
0}
1#!
0!!
1I"
0J"
1U!
#168000
0"
0|
#169000
1"
1|
0K"
04"
12"
03"
05"
0'!
1&!
0T!
1Q!
0(!
1}
1(!
0#!
0}
1#!
1}
0}!
1|!
1W
0V
0A
1@
1,!
#170000
0"
0|
#171000
1"
1|
1M"
15"
1R!
0Q!
1%!
0}
#172000
0"
0|
#173000
1"
1|
1L"
0M"
14"
05"
1'!
1Q!
1}
0(!
0%!
0#!
0}
#174000
0"
0|
#175000
1"
1|
1M"
04"
02"
0'!
1$!
0"!
1S!
0R!
0Q!
1}
#176000
0"
0|
#177000
1"
1|
1K"
0L"
0M"
15"
1T!
0S!
1%!
0}
1J"
1W!
0V!
0U!
#178000
0"
0|
#179000
1"
1|
0K"
14"
05"
1'!
0T!
1Q!
1}
#180000
0"
0|
#181000
1"
1|
1M"
15"
1~
1R!
0Q!
0%!
0}
1!!
#182000
0"
0|
#183000
1"
1|
1L"
0M"
04"
13"
05"
1Q!
1}
#184000
0"
0|
#185000
1"
1|
1M"
15"
0&!
0$!
1S!
0R!
0Q!
1%!
0}
1(!
0%!
0!!
1%!
1!!
1}!
1V
1A
0,!
0+!
1*!
0)!
#186000
0"
0|
#187000
1"
1|
1K"
0L"
0M"
14"
05"
1T!
0S!
1}
1H"
0I"
0J"
1X!
0W!
1E"
0F"
0G"
1\!
0[!
1D"
1^!
0]!
#188000
0"
0|
#189000
1"
1|
0K"
15"
1"!
0~
0T!
1Q!
0%!
0}
1#!
0!!
#190000
0"
0|
#191000
1"
1|
1M"
04"
12"
03"
05"
0'!
1&!
1R!
0Q!
0(!
1}
1(!
0#!
0}
1#!
1}
0}!
0|!
1z!
0{!
0X
1Y
0W
0V
0A
0@
1>
0?
1,!
#192000
0"
0|
#193000
1"
1|
1L"
0M"
15"
1Q!
1%!
0}
#194000
0"
0|
#195000
1"
1|
1M"
14"
05"
1'!
1S!
0R!
0Q!
1}
0(!
0%!
0#!
0}
#196000
0"
0|
#197000
1"
1|
1K"
0L"
0M"
04"
02"
0'!
1$!
0"!
1T!
0S!
1}
0H"
0X!
1U!
#198000
0"
0|
#199000
1"
1|
0K"
15"
0T!
1Q!
1%!
0}
#200000
0"
0|
#201000
1"
1|
1M"
14"
05"
1'!
1R!
0Q!
1}
#202000
0"
0|
#203000
1"
1|
1L"
0M"
15"
1~
1Q!
0%!
0}
1!!
#204000
0"
0|
#205000
1"
1|
1M"
04"
13"
05"
1S!
0R!
0Q!
1}
#206000
0"
0|
#207000
1"
1|
1K"
0L"
0M"
15"
0&!
0$!
1T!
0S!
1%!
0}
1(!
0%!
0!!
1%!
1!!
1J"
1}!
1V
1-!
1A
1V!
0U!
0,!
0*!
00!
#208000
0"
0|
#209000
1"
1|
0K"
14"
05"
0T!
1Q!
1}
#210000
0"
0|
#211000
1"
1|
1M"
15"
1"!
0~
1R!
0Q!
0%!
0}
1#!
0!!
#212000
0"
0|
#213000
1"
1|
1L"
0M"
04"
12"
03"
05"
0'!
1&!
1Q!
0(!
1}
1(!
0#!
0}
1#!
1}
0)"
1("
0}!
0z!
0Y
0V
1[
0Z
0-!
0=
1<
0A
0>
10!
1,!
00!
#214000
0"
0|
#215000
1"
1|
1M"
15"
1S!
0R!
0Q!
1%!
0}
#216000
0"
0|
#217000
1"
1|
1K"
0L"
0M"
14"
05"
1'!
1T!
0S!
1}
0(!
0%!
0#!
0}
1I"
0J"
1U!
#218000
0"
0|
#219000
1"
1|
0K"
04"
02"
0'!
1$!
0"!
0T!
1Q!
1}
#220000
0"
0|
#221000
1"
1|
1M"
15"
1R!
0Q!
1%!
0}
#222000
0"
0|
#223000
1"
1|
1L"
0M"
14"
05"
1'!
1Q!
1}
#224000
0"
0|
#225000
1"
1|
1M"
15"
1~
1S!
0R!
0Q!
0%!
0}
1!!
#226000
0"
0|
#227000
1"
1|
1K"
0L"
0M"
04"
13"
05"
1T!
0S!
1}
1J"
1W!
0V!
0U!
#228000
0"
0|
#229000
1"
1|
0K"
15"
0&!
0$!
0T!
1Q!
1%!
0}
1(!
0%!
0!!
1%!
1!!
1}!
1V
1A
0,!
1+!
#230000
0"
0|
#231000
1"
1|
1M"
14"
05"
1R!
0Q!
1}
#232000
0"
0|
#233000
1"
1|
1L"
0M"
15"
1"!
0~
1Q!
0%!
0}
1#!
0!!
#234000
0"
0|
#235000
1"
1|
1M"
04"
12"
03"
05"
0'!
1&!
1S!
0R!
0Q!
0(!
1}
1(!
0#!
0}
1#!
1}
0}!
1|!
1W
0V
0A
1@
1,!
#236000
0"
0|
#237000
1"
1|
1K"
0L"
0M"
15"
1T!
0S!
1%!
0}
1H"
0I"
0J"
1X!
0W!
0E"
0\!
1Y!
#238000
0"
0|
#239000
1"
1|
0K"
14"
05"
1'!
0T!
1Q!
1}
0(!
0%!
0#!
0}
#240000
0"
0|
#241000
1"
1|
1M"
04"
02"
0'!
1$!
0"!
1R!
0Q!
1}
#242000
0"
0|
#243000
1"
1|
1L"
0M"
15"
1Q!
1%!
0}
#244000
0"
0|
#245000
1"
1|
1M"
14"
05"
1'!
1S!
0R!
0Q!
1}
#246000
0"
0|
#247000
1"
1|
1K"
0L"
0M"
15"
1~
1T!
0S!
0%!
0}
1!!
0H"
0X!
1U!
#248000
0"
0|
#249000
1"
1|
0K"
04"
13"
05"
0T!
1Q!
1}
#250000
0"
0|
#251000
1"
1|
1M"
15"
0&!
0$!
1R!
0Q!
1%!
0}
1(!
0%!
0!!
1%!
1!!
1}!
1V
1A
0,!
0+!
1)!
#252000
0"
0|
#253000
1"
1|
1L"
0M"
14"
05"
1Q!
1}
#254000
0"
0|
#255000
1"
1|
1M"
15"
1"!
0~
1S!
0R!
0Q!
0%!
0}
1#!
0!!
#256000
0"
0|
#257000
1"
1|
1K"
0L"
0M"
04"
12"
03"
05"
0'!
1&!
1T!
0S!
0(!
1}
1(!
0#!
0}
1#!
1}
1J"
0}!
0|!
1{!
1X
0W
0V
0A
0@
1?
1V!
0U!
1,!
#258000
0"
0|
#259000
1"
1|
0K"
15"
0T!
1Q!
1%!
0}
#260000
0"
0|
