simulation/qsim/Projeto_2.msim.vcd
$comment
	File created using the following command:
		vcd file Projeto_2.msim.vcd -direction
$end
$date
	Wed Aug 04 00:04:10 2021
$end
$version
	ModelSim Version 2020.1
$end
$timescale
	1ps
$end

$scope module despertador_vlg_vec_tst $end
$var reg 1 ! ajuste $end
$var reg 1 " clk $end
$var reg 1 # troca_modo $end
$var reg 1 $ trocar $end
$var reg 1 % up $end
$var wire 1 & acorda_hd [3] $end
$var wire 1 ' acorda_hd [2] $end
$var wire 1 ( acorda_hd [1] $end
$var wire 1 ) acorda_hd [0] $end
$var wire 1 * acorda_hu [3] $end
$var wire 1 + acorda_hu [2] $end
$var wire 1 , acorda_hu [1] $end
$var wire 1 - acorda_hu [0] $end
$var wire 1 . acorda_md [3] $end
$var wire 1 / acorda_md [2] $end
$var wire 1 0 acorda_md [1] $end
$var wire 1 1 acorda_md [0] $end
$var wire 1 2 acorda_mu [3] $end
$var wire 1 3 acorda_mu [2] $end
$var wire 1 4 acorda_mu [1] $end
$var wire 1 5 acorda_mu [0] $end
$var wire 1 6 AnodeOutput [3] $end
$var wire 1 7 AnodeOutput [2] $end
$var wire 1 8 AnodeOutput [1] $end
$var wire 1 9 AnodeOutput [0] $end
$var wire 1 : digito_selecionado [3] $end
$var wire 1 ; digito_selecionado [2] $end
$var wire 1 < digito_selecionado [1] $end
$var wire 1 = digito_selecionado [0] $end
$var wire 1 > horas_dezenas [3] $end
$var wire 1 ? horas_dezenas [2] $end
$var wire 1 @ horas_dezenas [1] $end
$var wire 1 A horas_dezenas [0] $end
$var wire 1 B horas_unidades [3] $end
$var wire 1 C horas_unidades [2] $end
$var wire 1 D horas_unidades [1] $end
$var wire 1 E horas_unidades [0] $end
$var wire 1 F min_dezenas [3] $end
$var wire 1 G min_dezenas [2] $end
$var wire 1 H min_dezenas [1] $end
$var wire 1 I min_dezenas [0] $end
$var wire 1 J min_unidades [3] $end
$var wire 1 K min_unidades [2] $end
$var wire 1 L min_unidades [1] $end
$var wire 1 M min_unidades [0] $end
$var wire 1 N sec_dezenas [3] $end
$var wire 1 O sec_dezenas [2] $end
$var wire 1 P sec_dezenas [1] $end
$var wire 1 Q sec_dezenas [0] $end
$var wire 1 R sec_unidades [3] $end
$var wire 1 S sec_unidades [2] $end
$var wire 1 T sec_unidades [1] $end
$var wire 1 U sec_unidades [0] $end
$var wire 1 V Seg7Output [6] $end
$var wire 1 W Seg7Output [5] $end
$var wire 1 X Seg7Output [4] $end
$var wire 1 Y Seg7Output [3] $end
$var wire 1 Z Seg7Output [2] $end
$var wire 1 [ Seg7Output [1] $end
$var wire 1 \ Seg7Output [0] $end
$var wire 1 ] tc_horas $end
$var wire 1 ^ tc_minutos $end
$var wire 1 _ tc_segundos $end

$scope module i1 $end
$var wire 1 ` gnd $end
$var wire 1 a vcc $end
$var wire 1 b unknown $end
$var tri1 1 c devclrn $end
$var tri1 1 d devpor $end
$var tri1 1 e devoe $end
$var wire 1 f sec_unidades[0]~output_o $end
$var wire 1 g sec_unidades[1]~output_o $end
$var wire 1 h sec_unidades[2]~output_o $end
$var wire 1 i sec_unidades[3]~output_o $end
$var wire 1 j sec_dezenas[0]~output_o $end
$var wire 1 k sec_dezenas[1]~output_o $end
$var wire 1 l sec_dezenas[2]~output_o $end
$var wire 1 m sec_dezenas[3]~output_o $end
$var wire 1 n min_unidades[0]~output_o $end
$var wire 1 o min_unidades[1]~output_o $end
$var wire 1 p min_unidades[2]~output_o $end
$var wire 1 q min_unidades[3]~output_o $end
$var wire 1 r min_dezenas[0]~output_o $end
$var wire 1 s min_dezenas[1]~output_o $end
$var wire 1 t min_dezenas[2]~output_o $end
$var wire 1 u min_dezenas[3]~output_o $end
$var wire 1 v horas_unidades[0]~output_o $end
$var wire 1 w horas_unidades[1]~output_o $end
$var wire 1 x horas_unidades[2]~output_o $end
$var wire 1 y horas_unidades[3]~output_o $end
$var wire 1 z horas_dezenas[0]~output_o $end
$var wire 1 { horas_dezenas[1]~output_o $end
$var wire 1 | horas_dezenas[2]~output_o $end
$var wire 1 } horas_dezenas[3]~output_o $end
$var wire 1 ~ tc_segundos~output_o $end
$var wire 1 !! tc_minutos~output_o $end
$var wire 1 "! tc_horas~output_o $end
$var wire 1 #! Seg7Output[0]~output_o $end
$var wire 1 $! Seg7Output[1]~output_o $end
$var wire 1 %! Seg7Output[2]~output_o $end
$var wire 1 &! Seg7Output[3]~output_o $end
$var wire 1 '! Seg7Output[4]~output_o $end
$var wire 1 (! Seg7Output[5]~output_o $end
$var wire 1 )! Seg7Output[6]~output_o $end
$var wire 1 *! AnodeOutput[0]~output_o $end
$var wire 1 +! AnodeOutput[1]~output_o $end
$var wire 1 ,! AnodeOutput[2]~output_o $end
$var wire 1 -! AnodeOutput[3]~output_o $end
$var wire 1 .! digito_selecionado[0]~output_o $end
$var wire 1 /! digito_selecionado[1]~output_o $end
$var wire 1 0! digito_selecionado[2]~output_o $end
$var wire 1 1! digito_selecionado[3]~output_o $end
$var wire 1 2! acorda_mu[0]~output_o $end
$var wire 1 3! acorda_mu[1]~output_o $end
$var wire 1 4! acorda_mu[2]~output_o $end
$var wire 1 5! acorda_mu[3]~output_o $end
$var wire 1 6! acorda_md[0]~output_o $end
$var wire 1 7! acorda_md[1]~output_o $end
$var wire 1 8! acorda_md[2]~output_o $end
$var wire 1 9! acorda_md[3]~output_o $end
$var wire 1 :! acorda_hu[0]~output_o $end
$var wire 1 ;! acorda_hu[1]~output_o $end
$var wire 1 <! acorda_hu[2]~output_o $end
$var wire 1 =! acorda_hu[3]~output_o $end
$var wire 1 >! acorda_hd[0]~output_o $end
$var wire 1 ?! acorda_hd[1]~output_o $end
$var wire 1 @! acorda_hd[2]~output_o $end
$var wire 1 A! acorda_hd[3]~output_o $end
$var wire 1 B! clk~input_o $end
$var wire 1 C! cont_clock|count[0]~3_combout $end
$var wire 1 D! cont_clock|count[1]~1_combout $end
$var wire 1 E! cont_clock|count[2]~0_combout $end
$var wire 1 F! cont_clock|count[3]~2_combout $end
$var wire 1 G! cont_clock|clock_saida~1_combout $end
$var wire 1 H! ajuste~input_o $end
$var wire 1 I! trocar~input_o $end
$var wire 1 J! select_dig|_~0_combout $end
$var wire 1 K! select_dig|digito[1]~5_combout $end
$var wire 1 L! select_dig|digito[3]~8_combout $end
$var wire 1 M! select_dig|digito[3]~7_combout $end
$var wire 1 N! up~input_o $end
$var wire 1 O! troca_modo~input_o $end
$var wire 1 P! controle_modo_alarme~0_combout $end
$var wire 1 Q! controle_modo_alarme~2_combout $end
$var wire 1 R! controle_modo_alarme~q $end
$var wire 1 S! _~14_combout $end
$var wire 1 T! _~10_combout $end
$var wire 1 U! _~8_combout $end
$var wire 1 V! mod10_seg|count[1]~2_combout $end
$var wire 1 W! tc_segundos~6_combout $end
$var wire 1 X! mod10_seg|count[2]~3_combout $end
$var wire 1 Y! mod10_seg|count[3]~4_combout $end
$var wire 1 Z! mod10_seg|count[3]~5_combout $end
$var wire 1 [! mod10_seg|count[3]~6_combout $end
$var wire 1 \! tc_segundos~2_combout $end
$var wire 1 ]! select_dig|digito[0]~4_combout $end
$var wire 1 ^! _~7_combout $end
$var wire 1 _! tc_segundos~3_combout $end
$var wire 1 `! _~6_combout $end
$var wire 1 a! mod6_seg|op_2~0_combout $end
$var wire 1 b! mod6_seg|count[3]~3_combout $end
$var wire 1 c! mod6_seg|count[2]~2_combout $end
$var wire 1 d! mod6_seg|count[1]~1_combout $end
$var wire 1 e! mod6_seg|op_1~0_combout $end
$var wire 1 f! mod6_seg|count[0]~0_combout $end
$var wire 1 g! tc_segundos~4_combout $end
$var wire 1 h! _~16_combout $end
$var wire 1 i! mod10_min|op_2~0_combout $end
$var wire 1 j! mod10_min|count[3]~0_combout $end
$var wire 1 k! mod10_min|count[1]~3_combout $end
$var wire 1 l! mod10_min|op_1~0_combout $end
$var wire 1 m! mod10_min|count[0]~1_combout $end
$var wire 1 n! mod10_min|count[2]~2_combout $end
$var wire 1 o! _~11_combout $end
$var wire 1 p! _~12_combout $end
$var wire 1 q! _~13_combout $end
$var wire 1 r! mod6_min|op_2~0_combout $end
$var wire 1 s! mod6_min|count[3]~0_combout $end
$var wire 1 t! mod6_min|op_1~0_combout $end
$var wire 1 u! mod6_min|count[0]~3_combout $end
$var wire 1 v! mod6_min|count[1]~2_combout $end
$var wire 1 w! mod6_min|count[2]~1_combout $end
$var wire 1 x! tc_minutos~2_combout $end
$var wire 1 y! tc_minutos~3_combout $end
$var wire 1 z! _~15_combout $end
$var wire 1 {! select_dig|digito[2]~6_combout $end
$var wire 1 |! _~9_combout $end
$var wire 1 }! mod24|_~9_combout $end
$var wire 1 ~! mod24|_~0_combout $end
$var wire 1 !" mod24|_~1_combout $end
$var wire 1 "" mod24|_~4_combout $end
$var wire 1 #" mod24|_~7_combout $end
$var wire 1 $" mod24|_~8_combout $end
$var wire 1 %" mod24|low[3]~0_combout $end
$var wire 1 &" mod24|low[0]~7_combout $end
$var wire 1 '" mod24|low[1]~4_combout $end
$var wire 1 (" mod24|low[1]~5_combout $end
$var wire 1 )" mod24|low[1]~6_combout $end
$var wire 1 *" mod24|op_2~0_combout $end
$var wire 1 +" mod24|_~6_combout $end
$var wire 1 ," mod24|low[3]~1_combout $end
$var wire 1 -" tc_horas~3_combout $end
$var wire 1 ." mod24|_~5_combout $end
$var wire 1 /" mod24|_~10_combout $end
$var wire 1 0" mod24|_~2_combout $end
$var wire 1 1" mod24|_~11_combout $end
$var wire 1 2" mod24|low[2]~2_combout $end
$var wire 1 3" mod24|low[2]~3_combout $end
$var wire 1 4" mod24|op_1~0_combout $end
$var wire 1 5" mod24|_~3_combout $end
$var wire 1 6" mod24|high[0]~6_combout $end
$var wire 1 7" mod24|high[0]~7_combout $end
$var wire 1 8" mod24|high[1]~2_combout $end
$var wire 1 9" mod24|high[1]~3_combout $end
$var wire 1 :" mod24|high[1]~4_combout $end
$var wire 1 ;" mod24|high[1]~5_combout $end
$var wire 1 <" sec_unidades[0]~16_combout $end
$var wire 1 =" _~4_combout $end
$var wire 1 >" _~3_combout $end
$var wire 1 ?" acorda_hora|low[0]~3_combout $end
$var wire 1 @" acorda_hora|low[1]~4_combout $end
$var wire 1 A" acorda_hora|op_9~0_combout $end
$var wire 1 B" acorda_hora|_~1_combout $end
$var wire 1 C" acorda_hora|_~2_combout $end
$var wire 1 D" acorda_hora|low[3]~0_combout $end
$var wire 1 E" acorda_hora|low[2]~1_combout $end
$var wire 1 F" acorda_hora|op_9~1_combout $end
$var wire 1 G" acorda_hora|low[3]~2_combout $end
$var wire 1 H" acorda_hora|_~0_combout $end
$var wire 1 I" acorda_hora|high[1]~1_combout $end
$var wire 1 J" acorda_hora|high[0]~0_combout $end
$var wire 1 K" comparador~0_combout $end
$var wire 1 L" comparador~1_combout $end
$var wire 1 M" comparador~2_combout $end
$var wire 1 N" comparador~3_combout $end
$var wire 1 O" comparador~4_combout $end
$var wire 1 P" _~2_combout $end
$var wire 1 Q" acorda_min_d|count[0]~3_combout $end
$var wire 1 R" acorda_min_d|count[1]~4_combout $end
$var wire 1 S" acorda_min_d|op_2~1_combout $end
$var wire 1 T" acorda_min_d|count[3]~2_combout $end
$var wire 1 U" acorda_min_d|count[1]~0_combout $end
$var wire 1 V" acorda_min_d|op_2~0_combout $end
$var wire 1 W" acorda_min_d|count[2]~1_combout $end
$var wire 1 X" comparador~5_combout $end
$var wire 1 Y" comparador~6_combout $end
$var wire 1 Z" _~1_combout $end
$var wire 1 [" acorda_min_u|count[0]~3_combout $end
$var wire 1 \" acorda_min_u|count[1]~2_combout $end
$var wire 1 ]" acorda_min_u|op_2~1_combout $end
$var wire 1 ^" acorda_min_u|count[3]~1_combout $end
$var wire 1 _" acorda_min_u|op_1~0_combout $end
$var wire 1 `" acorda_min_u|op_2~0_combout $end
$var wire 1 a" acorda_min_u|count[2]~0_combout $end
$var wire 1 b" comparador~7_combout $end
$var wire 1 c" comparador~8_combout $end
$var wire 1 d" comparador~9_combout $end
$var wire 1 e" comparador~10_combout $end
$var wire 1 f" _~5_combout $end
$var wire 1 g" mod10_seg|count[0]~0_combout $end
$var wire 1 h" mod10_seg|count[0]~1_combout $end
$var wire 1 i" sec_unidades[0]~12_combout $end
$var wire 1 j" sec_unidades[1]~13_combout $end
$var wire 1 k" sec_unidades[2]~14_combout $end
$var wire 1 l" sec_unidades[3]~15_combout $end
$var wire 1 m" sec_dezenas[0]~12_combout $end
$var wire 1 n" sec_dezenas[1]~13_combout $end
$var wire 1 o" sec_dezenas[2]~14_combout $end
$var wire 1 p" sec_dezenas[3]~15_combout $end
$var wire 1 q" min_unidades[0]~16_combout $end
$var wire 1 r" min_unidades[1]~17_combout $end
$var wire 1 s" min_unidades[2]~18_combout $end
$var wire 1 t" min_unidades[3]~19_combout $end
$var wire 1 u" min_dezenas[0]~16_combout $end
$var wire 1 v" min_dezenas[1]~17_combout $end
$var wire 1 w" min_dezenas[2]~18_combout $end
$var wire 1 x" min_dezenas[3]~19_combout $end
$var wire 1 y" horas_unidades[0]~16_combout $end
$var wire 1 z" horas_unidades[1]~17_combout $end
$var wire 1 {" horas_unidades[2]~18_combout $end
$var wire 1 |" horas_unidades[3]~19_combout $end
$var wire 1 }" horas_dezenas[0]~16_combout $end
$var wire 1 ~" horas_dezenas[1]~17_combout $end
$var wire 1 !# tc_segundos~5_combout $end
$var wire 1 "# tc_minutos~4_combout $end
$var wire 1 ## tc_horas~2_combout $end
$var wire 1 $# tc_horas~4_combout $end
$var wire 1 %# refresh_clock|mod5|_~4_combout $end
$var wire 1 &# refresh_clock|mod5|_~3_combout $end
$var wire 1 '# refresh_clock|mod5|_~2_combout $end
$var wire 1 (# refresh_clock|mod5|_~0_combout $end
$var wire 1 )# refresh_clock|mod5_2|_~4_combout $end
$var wire 1 *# refresh_clock|mod5_2|_~3_combout $end
$var wire 1 +# refresh_clock|mod5_2|_~2_combout $end
$var wire 1 ,# refresh_clock|mod5_2|_~0_combout $end
$var wire 1 -# refresh_clock|mod5_3|_~4_combout $end
$var wire 1 .# refresh_clock|mod5_3|_~3_combout $end
$var wire 1 /# refresh_clock|mod5_3|_~2_combout $end
$var wire 1 0# refresh_clock|mod5_3|_~0_combout $end
$var wire 1 1# refresh_clock|mod5_4|_~4_combout $end
$var wire 1 2# refresh_clock|mod5_4|_~3_combout $end
$var wire 1 3# refresh_clock|mod5_4|_~2_combout $end
$var wire 1 4# refresh_clock|mod5_4|_~0_combout $end
$var wire 1 5# refresh_clock|mod10|_~3_combout $end
$var wire 1 6# refresh_clock|mod10|_~5_combout $end
$var wire 1 7# refresh_clock|mod10|_~4_combout $end
$var wire 1 8# refresh_clock|mod10|_~2_combout $end
$var wire 1 9# refresh_clock|mod10|_~0_combout $end
$var wire 1 :# refresh_clock|clk_saida~0_combout $end
$var wire 1 ;# refresh_clock|clk_saida~q $end
$var wire 1 <# _~0_combout $end
$var wire 1 =# chaveador|count[0]~1_combout $end
$var wire 1 ># chaveador|_~0_combout $end
$var wire 1 ?# mux|_~0_combout $end
$var wire 1 @# mux|dout[0]~20_combout $end
$var wire 1 A# mux|dout[1]~21_combout $end
$var wire 1 B# mux|_~1_combout $end
$var wire 1 C# mux|_~2_combout $end
$var wire 1 D# mux|dout[1]~22_combout $end
$var wire 1 E# mux|dout[1]~23_combout $end
$var wire 1 F# mux|dout[2]~24_combout $end
$var wire 1 G# mux|dout[0]~25_combout $end
$var wire 1 H# mux|dout[0]~26_combout $end
$var wire 1 I# mux|dout[3]~27_combout $end
$var wire 1 J# bcd_7Seg_dec|a~combout $end
$var wire 1 K# bcd_7Seg_dec|b~1_combout $end
$var wire 1 L# bcd_7Seg_dec|_~0_combout $end
$var wire 1 M# bcd_7Seg_dec|d~2_combout $end
$var wire 1 N# bcd_7Seg_dec|e~1_combout $end
$var wire 1 O# bcd_7Seg_dec|f~0_combout $end
$var wire 1 P# bcd_7Seg_dec|g~1_combout $end
$var wire 1 Q# AnodeOutput[0]~8_combout $end
$var wire 1 R# AnodeOutput[1]~9_combout $end
$var wire 1 S# AnodeOutput[2]~10_combout $end
$var wire 1 T# AnodeOutput[3]~11_combout $end
$var wire 1 U# acorda_min_d|count [3] $end
$var wire 1 V# acorda_min_d|count [2] $end
$var wire 1 W# acorda_min_d|count [1] $end
$var wire 1 X# acorda_min_d|count [0] $end
$var wire 1 Y# mod24|high [3] $end
$var wire 1 Z# mod24|high [2] $end
$var wire 1 [# mod24|high [1] $end
$var wire 1 \# mod24|high [0] $end
$var wire 1 ]# mod10_seg|count [3] $end
$var wire 1 ^# mod10_seg|count [2] $end
$var wire 1 _# mod10_seg|count [1] $end
$var wire 1 `# mod10_seg|count [0] $end
$var wire 1 a# acorda_hora|high [3] $end
$var wire 1 b# acorda_hora|high [2] $end
$var wire 1 c# acorda_hora|high [1] $end
$var wire 1 d# acorda_hora|high [0] $end
$var wire 1 e# refresh_clock|mod5|count [2] $end
$var wire 1 f# refresh_clock|mod5|count [1] $end
$var wire 1 g# refresh_clock|mod5|count [0] $end
$var wire 1 h# acorda_min_u|count [3] $end
$var wire 1 i# acorda_min_u|count [2] $end
$var wire 1 j# acorda_min_u|count [1] $end
$var wire 1 k# acorda_min_u|count [0] $end
$var wire 1 l# mod6_min|count [3] $end
$var wire 1 m# mod6_min|count [2] $end
$var wire 1 n# mod6_min|count [1] $end
$var wire 1 o# mod6_min|count [0] $end
$var wire 1 p# mod24|low [3] $end
$var wire 1 q# mod24|low [2] $end
$var wire 1 r# mod24|low [1] $end
$var wire 1 s# mod24|low [0] $end
$var wire 1 t# acorda_hora|low [3] $end
$var wire 1 u# acorda_hora|low [2] $end
$var wire 1 v# acorda_hora|low [1] $end
$var wire 1 w# acorda_hora|low [0] $end
$var wire 1 x# refresh_clock|mod5_3|count [2] $end
$var wire 1 y# refresh_clock|mod5_3|count [1] $end
$var wire 1 z# refresh_clock|mod5_3|count [0] $end
$var wire 1 {# mod10_min|count [3] $end
$var wire 1 |# mod10_min|count [2] $end
$var wire 1 }# mod10_min|count [1] $end
$var wire 1 ~# mod10_min|count [0] $end
$var wire 1 !$ mod6_seg|count [3] $end
$var wire 1 "$ mod6_seg|count [2] $end
$var wire 1 #$ mod6_seg|count [1] $end
$var wire 1 $$ mod6_seg|count [0] $end
$var wire 1 %$ chaveador|count [1] $end
$var wire 1 &$ chaveador|count [0] $end
$var wire 1 '$ mux|dout [3] $end
$var wire 1 ($ mux|dout [2] $end
$var wire 1 )$ mux|dout [1] $end
$var wire 1 *$ mux|dout [0] $end
$var wire 1 +$ cont_clock|count [3] $end
$var wire 1 ,$ cont_clock|count [2] $end
$var wire 1 -$ cont_clock|count [1] $end
$var wire 1 .$ cont_clock|count [0] $end
$var wire 1 /$ select_dig|count [2] $end
$var wire 1 0$ select_dig|count [1] $end
$var wire 1 1$ select_dig|count [0] $end
$var wire 1 2$ refresh_clock|mod10|count [3] $end
$var wire 1 3$ refresh_clock|mod10|count [2] $end
$var wire 1 4$ refresh_clock|mod10|count [1] $end
$var wire 1 5$ refresh_clock|mod10|count [0] $end
$var wire 1 6$ refresh_clock|mod5_4|count [2] $end
$var wire 1 7$ refresh_clock|mod5_4|count [1] $end
$var wire 1 8$ refresh_clock|mod5_4|count [0] $end
$var wire 1 9$ refresh_clock|mod5_2|count [2] $end
$var wire 1 :$ refresh_clock|mod5_2|count [1] $end
$var wire 1 ;$ refresh_clock|mod5_2|count [0] $end
$upscope $end
$upscope $end
$enddefinitions $end
#0
$dumpvars
0!
0"
1#
0$
0%
0)
0(
0'
0&
0-
0,
0+
0*
01
00
0/
0.
05
04
03
02
09
08
07
06
0=
0<
0;
0:
0A
0@
0?
0>
0E
0D
0C
0B
0I
0H
0G
0F
0M
0L
0K
0J
0Q
0P
0O
0N
0U
0T
0S
0R
0\
0[
0Z
0Y
0X
0W
1V
0]
0^
0_
0`
1a
xb
1c
1d
1e
0f
0g
0h
0i
0j
0k
0l
0m
0n
0o
0p
0q
0r
0s
0t
0u
0v
0w
0x
0y
0z
0{
0|
0}
0~
0!!
0"!
0#!
0$!
0%!
0&!
0'!
0(!
1)!
0*!
0+!
0,!
0-!
0.!
0/!
00!
01!
02!
03!
04!
05!
06!
07!
08!
09!
0:!
0;!
0<!
0=!
0>!
0?!
0@!
0A!
0B!
1C!
0D!
0E!
0F!
0G!
0H!
0I!
0J!
0K!
1L!
0M!
0N!
1O!
0P!
1Q!
0R!
1S!
0T!
0U!
0V!
1W!
0X!
0Y!
0Z!
0[!
0\!
0]!
0^!
0_!
0`!
0a!
0b!
0c!
0d!
1e!
0f!
0g!
0h!
0i!
0j!
0k!
1l!
0m!
0n!
1o!
1p!
0q!
0r!
0s!
1t!
0u!
0v!
0w!
0x!
0y!
0z!
0{!
0|!
0}!
0~!
0!"
0""
0#"
0$"
0%"
0&"
0'"
0("
0)"
0*"
0+"
0,"
0-"
0."
0/"
00"
01"
02"
03"
14"
15"
06"
07"
08"
09"
0:"
0;"
1<"
0="
0>"
0?"
0@"
0A"
1B"
1C"
0D"
0E"
0F"
0G"
0H"
0I"
0J"
1K"
1L"
1M"
1N"
0O"
0P"
0Q"
0R"
0S"
0T"
1U"
0V"
0W"
1X"
1Y"
0Z"
0["
0\"
0]"
0^"
1_"
0`"
0a"
1b"
1c"
1d"
0e"
0f"
1g"
1h"
0i"
0j"
0k"
0l"
0m"
0n"
0o"
0p"
0q"
0r"
0s"
0t"
0u"
0v"
0w"
0x"
0y"
0z"
0{"
0|"
0}"
0~"
0!#
0"#
0##
0$#
1%#
0&#
0'#
0(#
1)#
0*#
0+#
0,#
1-#
0.#
0/#
00#
11#
02#
03#
04#
15#
06#
07#
08#
09#
1:#
0;#
0<#
1=#
0>#
0?#
1@#
1A#
0B#
0C#
0D#
1E#
0F#
0G#
0H#
0I#
0J#
0K#
0L#
0M#
0N#
0O#
1P#
0Q#
0R#
0S#
0T#
0X#
0W#
0V#
0U#
0\#
0[#
zZ#
zY#
0`#
0_#
0^#
0]#
0d#
0c#
zb#
za#
0g#
0f#
0e#
0k#
0j#
0i#
0h#
0o#
0n#
0m#
0l#
0s#
0r#
0q#
0p#
0w#
0v#
0u#
0t#
0z#
0y#
0x#
0~#
0}#
0|#
0{#
0$$
0#$
0"$
0!$
0&$
0%$
0*$
z)$
0($
0'$
0.$
0-$
0,$
0+$
01$
00$
0/$
05$
04$
03$
02$
08$
07$
06$
0;$
0:$
09$
$end
#500
1"
1B!
1g#
1.$
1&#
0%#
1D!
0C!
#1000
0"
0B!
#1500
1"
1B!
1f#
0g#
1-$
0.$
1%#
1C!
#2000
0"
0B!
#2500
1"
1B!
1g#
1.$
1'#
0&#
0%#
1E!
0D!
0C!
#3000
0"
0B!
#3500
1"
1B!
1e#
0f#
0g#
1,$
0-$
0.$
1(#
0'#
1C!
1;$
1*#
0)#
#4000
1%
0"
1N!
0B!
#4500
1"
1B!
0e#
1.$
0(#
1%#
1D!
0C!
#5000
0#
0"
0O!
0B!
#5500
1"
1B!
1g#
1-$
0.$
1G!
1&#
0%#
1C!
1f"
1`!
1|!
1^!
1U!
1T!
1`#
0g"
1i"
1V!
1f
1U
0h"
#6000
0"
0B!
#6500
1"
1B!
1f#
0g#
1.$
1%#
1F!
0E!
0D!
0C!
#7000
0"
0B!
#7500
1"
1B!
1g#
1+$
0,$
0-$
0.$
1'#
0&#
0%#
1C!
#8000
0%
0"
0N!
0B!
#8500
1"
1B!
1e#
0f#
0g#
1.$
1(#
0'#
1D!
0C!
1:$
0;$
1)#
#9000
0"
0B!
#9500
1"
1B!
0e#
1-$
0.$
0G!
0(#
1%#
1C!
0f"
0`!
0|!
0^!
0U!
0T!
#10000
0"
0B!
#10500
1"
1B!
1g#
1.$
1&#
0%#
1E!
0D!
0C!
#11000
0"
0B!
#11500
1"
1B!
1f#
0g#
1,$
0-$
0.$
1%#
1C!
#12000
1%
0"
1N!
0B!
#12500
1"
1B!
1g#
1.$
1'#
0&#
0%#
1D!
0C!
#13000
0"
0B!
#13500
1"
1B!
1e#
0f#
0g#
1-$
0.$
1(#
0'#
1C!
1;$
1+#
0*#
0)#
#14000
0"
0B!
#14500
1"
1B!
0e#
1.$
0(#
1%#
0F!
0E!
0D!
0C!
#15000
0"
0B!
#15500
1"
1B!
1g#
0+$
0,$
0-$
0.$
1&#
0%#
1C!
#16000
0%
0"
0N!
0B!
#16500
1"
1B!
1f#
0g#
1.$
1%#
1D!
0C!
#17000
0"
0B!
#17500
1"
1B!
1g#
1-$
0.$
1'#
0&#
0%#
1C!
#18000
0"
0B!
#18500
1"
1B!
1e#
0f#
0g#
1.$
1(#
0'#
1E!
0D!
0C!
19$
0:$
0;$
1,#
0+#
1z#
1.#
0-#
#19000
0"
0B!
#19500
1"
1B!
0e#
1,$
0-$
0.$
0(#
1%#
1C!
#20000
1$
1%
0"
1N!
1I!
0B!
11$
1M!
0L!
1J!
11!
1:
#20500
1"
1B!
1g#
1.$
1&#
0%#
1D!
0C!
#21000
0"
0B!
#21500
1"
1B!
1f#
0g#
1-$
0.$
1G!
1%#
1C!
1f"
1`!
1|!
1^!
1U!
1T!
0`#
1_#
1g"
0i"
1j"
1g
0f
0U
1T
1h"
#22000
0"
0B!
#22500
1"
1B!
1g#
1.$
1'#
0&#
0%#
1F!
0E!
0D!
0C!
#23000
0"
0B!
#23500
1"
1B!
1e#
0f#
0g#
1+$
0,$
0-$
0.$
1(#
0'#
1C!
09$
0,#
1)#
#24000
0%
0"
0N!
0B!
#24500
1"
1B!
0e#
1.$
0(#
1%#
1D!
0C!
#25000
0"
0B!
#25500
1"
1B!
1g#
1-$
0.$
0G!
1&#
0%#
1C!
0f"
0`!
0|!
0^!
0U!
0T!
#26000
0"
0B!
#26500
1"
1B!
1f#
0g#
1.$
1%#
1E!
0D!
0C!
#27000
0"
0B!
#27500
1"
1B!
1g#
1,$
0-$
0.$
1'#
0&#
0%#
1C!
#28000
1%
0"
1N!
0B!
#28500
1"
1B!
1e#
0f#
0g#
1.$
1(#
0'#
1D!
0C!
1;$
1*#
0)#
#29000
0"
0B!
#29500
1"
1B!
0e#
1-$
0.$
0(#
1%#
1C!
#30000
0"
0B!
#30500
1"
1B!
1g#
1.$
1&#
0%#
0F!
0E!
0D!
0C!
#31000
0"
0B!
#31500
1"
1B!
1f#
0g#
0+$
0,$
0-$
0.$
1%#
1C!
#32000
0%
0"
0N!
0B!
#32500
1"
1B!
1g#
1.$
1'#
0&#
0%#
1D!
0C!
#33000
0"
0B!
#33500
1"
1B!
1e#
0f#
0g#
1-$
0.$
1(#
0'#
1C!
1:$
0;$
1)#
#34000
0"
0B!
#34500
1"
1B!
0e#
1.$
0(#
1%#
1E!
0D!
0C!
#35000
0"
0B!
#35500
1"
1B!
1g#
1,$
0-$
0.$
1&#
0%#
1C!
#36000
1%
0"
1N!
0B!
#36500
1"
1B!
1f#
0g#
1.$
1%#
1D!
0C!
#37000
0"
0B!
#37500
1"
1B!
1g#
1-$
0.$
1G!
1'#
0&#
0%#
1C!
1f"
1`!
1|!
1^!
1U!
1T!
1`#
0g"
1i"
1X!
0V!
1f
1U
0h"
#38000
0"
0B!
#38500
1"
1B!
1e#
0f#
0g#
1.$
1(#
0'#
1F!
0E!
0D!
0C!
1;$
1+#
0*#
0)#
#39000
0"
0B!
#39500
1"
1B!
0e#
1+$
0,$
0-$
0.$
0(#
1%#
1C!
#40000
0$
0%
0"
0N!
0I!
0B!
#40500
1"
1B!
1g#
1.$
1&#
0%#
1D!
0C!
#41000
0"
0B!
#41500
1"
1B!
1f#
0g#
1-$
0.$
0G!
1%#
1C!
0f"
0`!
0|!
0^!
0U!
0T!
#42000
0"
0B!
#42500
1"
1B!
1g#
1.$
1'#
0&#
0%#
1E!
0D!
0C!
#43000
0"
0B!
#43500
1"
1B!
1e#
0f#
0g#
1,$
0-$
0.$
1(#
0'#
1C!
19$
0:$
0;$
1,#
0+#
1y#
0z#
1-#
#44000
1%
0"
1N!
0B!
#44500
1"
1B!
0e#
1.$
0(#
1%#
1D!
0C!
#45000
0"
0B!
#45500
1"
1B!
1g#
1-$
0.$
1&#
0%#
1C!
#46000
0"
0B!
#46500
1"
1B!
1f#
0g#
1.$
1%#
0F!
0E!
0D!
0C!
#47000
0"
0B!
#47500
1"
1B!
1g#
0+$
0,$
0-$
0.$
1'#
0&#
0%#
1C!
#48000
0%
0"
0N!
0B!
#48500
1"
1B!
1e#
0f#
0g#
1.$
1(#
0'#
1D!
0C!
09$
0,#
1)#
#49000
0"
0B!
#49500
1"
1B!
0e#
1-$
0.$
0(#
1%#
1C!
#50000
0"
0B!
#50500
1"
1B!
1g#
1.$
1&#
0%#
1E!
0D!
0C!
#51000
0"
0B!
#51500
1"
1B!
1f#
0g#
1,$
0-$
0.$
1%#
1C!
#52000
1%
0"
1N!
0B!
#52500
1"
1B!
1g#
1.$
1'#
0&#
0%#
1D!
0C!
#53000
0"
0B!
#53500
1"
1B!
1e#
0f#
0g#
1-$
0.$
1G!
1(#
0'#
1C!
1f"
1`!
1|!
1^!
1U!
1T!
0`#
1^#
0_#
1;$
1g"
0i"
1k"
0j"
1*#
0)#
0g
1h
0f
0U
1S
0T
1h"
#54000
0"
0B!
#54500
1"
1B!
0e#
1.$
0(#
1%#
1F!
0E!
0D!
0C!
#55000
0"
0B!
#55500
1"
1B!
1g#
1+$
0,$
0-$
0.$
1&#
0%#
1C!
#56000
0%
0"
0N!
0B!
#56500
1"
1B!
1f#
0g#
1.$
1%#
1D!
0C!
#57000
0"
0B!
#57500
1"
1B!
1g#
1-$
0.$
0G!
1'#
0&#
0%#
1C!
0f"
0`!
0|!
0^!
0U!
0T!
#58000
0"
0B!
