simulation/qsim/Projeto_2.msim.vcd
$comment
	File created using the following command:
		vcd file Projeto_2.msim.vcd -direction
$end
$date
	Wed Jul 28 20:02:55 2021
$end
$version
	ModelSim Version 2020.1
$end
$timescale
	1ps
$end

$scope module despertador_vlg_vec_tst $end
$var reg 1 ! ajuste $end
$var reg 1 " clk $end
$var reg 1 # troca_modo $end
$var reg 1 $ trocar $end
$var reg 1 % up $end
$var wire 1 & AnodeOutput [3] $end
$var wire 1 ' AnodeOutput [2] $end
$var wire 1 ( AnodeOutput [1] $end
$var wire 1 ) AnodeOutput [0] $end
$var wire 1 * digito_selecionado [3] $end
$var wire 1 + digito_selecionado [2] $end
$var wire 1 , digito_selecionado [1] $end
$var wire 1 - digito_selecionado [0] $end
$var wire 1 . horas_dezenas [3] $end
$var wire 1 / horas_dezenas [2] $end
$var wire 1 0 horas_dezenas [1] $end
$var wire 1 1 horas_dezenas [0] $end
$var wire 1 2 horas_unidades [3] $end
$var wire 1 3 horas_unidades [2] $end
$var wire 1 4 horas_unidades [1] $end
$var wire 1 5 horas_unidades [0] $end
$var wire 1 6 min_dezenas [3] $end
$var wire 1 7 min_dezenas [2] $end
$var wire 1 8 min_dezenas [1] $end
$var wire 1 9 min_dezenas [0] $end
$var wire 1 : min_unidades [3] $end
$var wire 1 ; min_unidades [2] $end
$var wire 1 < min_unidades [1] $end
$var wire 1 = min_unidades [0] $end
$var wire 1 > sec_dezenas [3] $end
$var wire 1 ? sec_dezenas [2] $end
$var wire 1 @ sec_dezenas [1] $end
$var wire 1 A sec_dezenas [0] $end
$var wire 1 B sec_unidades [3] $end
$var wire 1 C sec_unidades [2] $end
$var wire 1 D sec_unidades [1] $end
$var wire 1 E sec_unidades [0] $end
$var wire 1 F Seg7Output [6] $end
$var wire 1 G Seg7Output [5] $end
$var wire 1 H Seg7Output [4] $end
$var wire 1 I Seg7Output [3] $end
$var wire 1 J Seg7Output [2] $end
$var wire 1 K Seg7Output [1] $end
$var wire 1 L Seg7Output [0] $end
$var wire 1 M tc_horas $end
$var wire 1 N tc_minutos $end
$var wire 1 O tc_segundos $end

$scope module i1 $end
$var wire 1 P gnd $end
$var wire 1 Q vcc $end
$var wire 1 R unknown $end
$var tri1 1 S devclrn $end
$var tri1 1 T devpor $end
$var tri1 1 U devoe $end
$var wire 1 V sec_unidades[0]~output_o $end
$var wire 1 W sec_unidades[1]~output_o $end
$var wire 1 X sec_unidades[2]~output_o $end
$var wire 1 Y sec_unidades[3]~output_o $end
$var wire 1 Z sec_dezenas[0]~output_o $end
$var wire 1 [ sec_dezenas[1]~output_o $end
$var wire 1 \ sec_dezenas[2]~output_o $end
$var wire 1 ] sec_dezenas[3]~output_o $end
$var wire 1 ^ min_unidades[0]~output_o $end
$var wire 1 _ min_unidades[1]~output_o $end
$var wire 1 ` min_unidades[2]~output_o $end
$var wire 1 a min_unidades[3]~output_o $end
$var wire 1 b min_dezenas[0]~output_o $end
$var wire 1 c min_dezenas[1]~output_o $end
$var wire 1 d min_dezenas[2]~output_o $end
$var wire 1 e min_dezenas[3]~output_o $end
$var wire 1 f horas_unidades[0]~output_o $end
$var wire 1 g horas_unidades[1]~output_o $end
$var wire 1 h horas_unidades[2]~output_o $end
$var wire 1 i horas_unidades[3]~output_o $end
$var wire 1 j horas_dezenas[0]~output_o $end
$var wire 1 k horas_dezenas[1]~output_o $end
$var wire 1 l horas_dezenas[2]~output_o $end
$var wire 1 m horas_dezenas[3]~output_o $end
$var wire 1 n tc_segundos~output_o $end
$var wire 1 o tc_minutos~output_o $end
$var wire 1 p tc_horas~output_o $end
$var wire 1 q Seg7Output[0]~output_o $end
$var wire 1 r Seg7Output[1]~output_o $end
$var wire 1 s Seg7Output[2]~output_o $end
$var wire 1 t Seg7Output[3]~output_o $end
$var wire 1 u Seg7Output[4]~output_o $end
$var wire 1 v Seg7Output[5]~output_o $end
$var wire 1 w Seg7Output[6]~output_o $end
$var wire 1 x AnodeOutput[0]~output_o $end
$var wire 1 y AnodeOutput[1]~output_o $end
$var wire 1 z AnodeOutput[2]~output_o $end
$var wire 1 { AnodeOutput[3]~output_o $end
$var wire 1 | digito_selecionado[0]~output_o $end
$var wire 1 } digito_selecionado[1]~output_o $end
$var wire 1 ~ digito_selecionado[2]~output_o $end
$var wire 1 !! digito_selecionado[3]~output_o $end
$var wire 1 "! troca_modo~input_o $end
$var wire 1 #! ajuste~input_o $end
$var wire 1 $! controle_modo_alarme~0_combout $end
$var wire 1 %! controle_modo_alarme~2_combout $end
$var wire 1 &! controle_modo_alarme~feeder_combout $end
$var wire 1 '! controle_modo_alarme~q $end
$var wire 1 (! clk~input_o $end
$var wire 1 )! cont_clock|count[0]~1_combout $end
$var wire 1 *! cont_clock|count[3]~3_combout $end
$var wire 1 +! cont_clock|count[2]~2_combout $end
$var wire 1 ,! cont_clock|count[1]~0_combout $end
$var wire 1 -! cont_clock|op_4~0_combout $end
$var wire 1 .! cont_clock|op_3~0_combout $end
$var wire 1 /! cont_clock|flag~0_combout $end
$var wire 1 0! _~4_combout $end
$var wire 1 1! _~4clkctrl_outclk $end
$var wire 1 2! mod10_seg|op_2~0_combout $end
$var wire 1 3! mod10_seg|count[3]~3_combout $end
$var wire 1 4! mod10_seg|count[1]~1_combout $end
$var wire 1 5! mod10_seg|count[2]~2_combout $end
$var wire 1 6! mod10_seg|op_1~1_combout $end
$var wire 1 7! mod10_seg|count[0]~0_combout $end
$var wire 1 8! sec_unidades[0]~0_combout $end
$var wire 1 9! sec_unidades[1]~1_combout $end
$var wire 1 :! sec_unidades[2]~2_combout $end
$var wire 1 ;! sec_unidades[3]~3_combout $end
$var wire 1 <! _~5_combout $end
$var wire 1 =! _~5clkctrl_outclk $end
$var wire 1 >! mod10_seg|op_1~0_combout $end
$var wire 1 ?! tc_segundos~6_combout $end
$var wire 1 @! mod6_seg|count[1]~1_combout $end
$var wire 1 A! mod6_seg|count[2]~2_combout $end
$var wire 1 B! mod6_seg|count[0]~0_combout $end
$var wire 1 C! sec_dezenas[0]~0_combout $end
$var wire 1 D! sec_dezenas[1]~1_combout $end
$var wire 1 E! sec_dezenas[2]~2_combout $end
$var wire 1 F! up~input_o $end
$var wire 1 G! trocar~input_o $end
$var wire 1 H! select_dig|digito[3]~8_combout $end
$var wire 1 I! select_dig|_~0_combout $end
$var wire 1 J! select_dig|digito[1]~5_combout $end
$var wire 1 K! select_dig|count[2]~feeder_combout $end
$var wire 1 L! select_dig|digito[0]~4_combout $end
$var wire 1 M! _~0_combout $end
$var wire 1 N! _~0clkctrl_outclk $end
$var wire 1 O! acorda_min_u|count[1]~1_combout $end
$var wire 1 P! acorda_min_u|op_2~0_combout $end
$var wire 1 Q! acorda_min_u|count[3]~3_combout $end
$var wire 1 R! acorda_min_u|count[2]~2_combout $end
$var wire 1 S! acorda_min_u|op_1~0_combout $end
$var wire 1 T! acorda_min_u|count[0]~0_combout $end
$var wire 1 U! _~15_combout $end
$var wire 1 V! _~6_combout $end
$var wire 1 W! _~6clkctrl_outclk $end
$var wire 1 X! mod10_min|count[1]~1_combout $end
$var wire 1 Y! tc_segundos~4_combout $end
$var wire 1 Z! tc_segundos~5_combout $end
$var wire 1 [! _~11_combout $end
$var wire 1 \! mod10_min|count[2]~2_combout $end
$var wire 1 ]! mod10_min|op_2~0_combout $end
$var wire 1 ^! mod10_min|count[3]~3_combout $end
$var wire 1 _! mod10_min|op_1~0_combout $end
$var wire 1 `! mod10_min|count[0]~0_combout $end
$var wire 1 a! min_unidades[0]~8_combout $end
$var wire 1 b! min_unidades[1]~9_combout $end
$var wire 1 c! min_unidades[2]~10_combout $end
$var wire 1 d! min_unidades[3]~11_combout $end
$var wire 1 e! _~1_combout $end
$var wire 1 f! _~1clkctrl_outclk $end
$var wire 1 g! acorda_min_d|count[2]~2_combout $end
$var wire 1 h! acorda_min_d|count[1]~1_combout $end
$var wire 1 i! acorda_min_d|count[0]~0_combout $end
$var wire 1 j! _~7_combout $end
$var wire 1 k! _~7clkctrl_outclk $end
$var wire 1 l! mod10_min|tc~0_combout $end
$var wire 1 m! _~12_combout $end
$var wire 1 n! mod6_min|count[1]~1_combout $end
$var wire 1 o! mod6_min|count[2]~2_combout $end
$var wire 1 p! mod6_min|count[0]~0_combout $end
$var wire 1 q! min_dezenas[0]~8_combout $end
$var wire 1 r! min_dezenas[1]~9_combout $end
$var wire 1 s! min_dezenas[2]~10_combout $end
$var wire 1 t! select_dig|digito[2]~6_combout $end
$var wire 1 u! _~8_combout $end
$var wire 1 v! _~8clkctrl_outclk $end
$var wire 1 w! _~10_combout $end
$var wire 1 x! tc_minutos~0_combout $end
$var wire 1 y! mod24|_~5_combout $end
$var wire 1 z! mod24|_~0_combout $end
$var wire 1 {! mod24|low[1]~6_combout $end
$var wire 1 |! mod24|low[1]~9_combout $end
$var wire 1 }! mod24|op_5~0_combout $end
$var wire 1 ~! mod24|low[2]~10_combout $end
$var wire 1 !" mod24|op_2~0_combout $end
$var wire 1 "" mod24|low[3]~11_combout $end
$var wire 1 #" select_dig|digito[3]~7_combout $end
$var wire 1 $" _~9_combout $end
$var wire 1 %" _~9clkctrl_outclk $end
$var wire 1 &" mod24|high[0]~1_combout $end
$var wire 1 '" mod24|high[1]~4_combout $end
$var wire 1 (" mod24|_~3_combout $end
$var wire 1 )" mod24|_~4_combout $end
$var wire 1 *" mod24|high[1]~3_combout $end
$var wire 1 +" mod24|high[1]~5_combout $end
$var wire 1 ," mod24|op_1~0_combout $end
$var wire 1 -" mod24|_~1_combout $end
$var wire 1 ." mod24|high[0]~0_combout $end
$var wire 1 /" mod24|high[0]~2_combout $end
$var wire 1 0" tc_horas~0_combout $end
$var wire 1 1" mod24|_~2_combout $end
$var wire 1 2" mod24|low[1]~12_combout $end
$var wire 1 3" mod24|low[1]~14_combout $end
$var wire 1 4" mod24|low[1]~13_combout $end
$var wire 1 5" mod24|low[1]~7_combout $end
$var wire 1 6" mod24|low[0]~8_combout $end
$var wire 1 7" _~2_combout $end
$var wire 1 8" _~2clkctrl_outclk $end
$var wire 1 9" acorda_hora|low[1]~4_combout $end
$var wire 1 :" acorda_hora|op_9~0_combout $end
$var wire 1 ;" acorda_hora|low[2]~5_combout $end
$var wire 1 <" acorda_hora|op_9~1_combout $end
$var wire 1 =" acorda_hora|low[3]~6_combout $end
$var wire 1 >" _~3_combout $end
$var wire 1 ?" _~3clkctrl_outclk $end
$var wire 1 @" acorda_hora|high[0]~0_combout $end
$var wire 1 A" acorda_hora|high[1]~1_combout $end
$var wire 1 B" acorda_hora|low[0]~1_combout $end
$var wire 1 C" acorda_hora|low[0]~0_combout $end
$var wire 1 D" acorda_hora|low[0]~2_combout $end
$var wire 1 E" acorda_hora|low[0]~3_combout $end
$var wire 1 F" horas_unidades[0]~8_combout $end
$var wire 1 G" horas_unidades[1]~9_combout $end
$var wire 1 H" horas_unidades[2]~10_combout $end
$var wire 1 I" horas_unidades[3]~11_combout $end
$var wire 1 J" horas_dezenas[0]~8_combout $end
$var wire 1 K" horas_dezenas[1]~9_combout $end
$var wire 1 L" tc_minutos~1_combout $end
$var wire 1 M" tc_horas~1_combout $end
$var wire 1 N" tc_horas~2_combout $end
$var wire 1 O" refresh_clock|mod5|_~3_combout $end
$var wire 1 P" refresh_clock|mod5|_~2_combout $end
$var wire 1 Q" refresh_clock|mod5|_~4_combout $end
$var wire 1 R" refresh_clock|mod5|count[0]~feeder_combout $end
$var wire 1 S" refresh_clock|mod5|_~0_combout $end
$var wire 1 T" refresh_clock|mod5_2|_~2_combout $end
$var wire 1 U" refresh_clock|mod5_2|_~4_combout $end
$var wire 1 V" refresh_clock|mod5_2|count[0]~feeder_combout $end
$var wire 1 W" refresh_clock|mod5_2|_~3_combout $end
$var wire 1 X" refresh_clock|mod5_2|_~0_combout $end
$var wire 1 Y" refresh_clock|mod5_3|_~3_combout $end
$var wire 1 Z" refresh_clock|mod5_3|_~2_combout $end
$var wire 1 [" refresh_clock|mod5_3|_~4_combout $end
$var wire 1 \" refresh_clock|mod5_3|count[0]~feeder_combout $end
$var wire 1 ]" refresh_clock|mod5_3|_~0_combout $end
$var wire 1 ^" refresh_clock|mod5_4|_~4_combout $end
$var wire 1 _" refresh_clock|mod5_4|count[0]~feeder_combout $end
$var wire 1 `" refresh_clock|mod5_4|_~3_combout $end
$var wire 1 a" refresh_clock|mod5_4|_~2_combout $end
$var wire 1 b" refresh_clock|mod5_4|_~0_combout $end
$var wire 1 c" refresh_clock|mod10|_~4_combout $end
$var wire 1 d" refresh_clock|mod10|_~3_combout $end
$var wire 1 e" refresh_clock|mod10|count[0]~feeder_combout $end
$var wire 1 f" refresh_clock|mod10|_~5_combout $end
$var wire 1 g" refresh_clock|mod10|_~2_combout $end
$var wire 1 h" refresh_clock|mod10|_~0_combout $end
$var wire 1 i" refresh_clock|clk_saida~0_combout $end
$var wire 1 j" refresh_clock|clk_saida~feeder_combout $end
$var wire 1 k" refresh_clock|clk_saida~q $end
$var wire 1 l" chaveador|count[0]~1_combout $end
$var wire 1 m" chaveador|_~0_combout $end
$var wire 1 n" decoder|saida[2]~5_combout $end
$var wire 1 o" mux|dout[0]~22_combout $end
$var wire 1 p" decoder|saida[3]~7_combout $end
$var wire 1 q" mux|dout[0]~23_combout $end
$var wire 1 r" decoder|saida[2]~6_combout $end
$var wire 1 s" mux|dout[2]~21_combout $end
$var wire 1 t" decoder|saida[2]~4_combout $end
$var wire 1 u" mux|dout[1]~19_combout $end
$var wire 1 v" mux|dout[1]~18_combout $end
$var wire 1 w" mux|dout[1]~20_combout $end
$var wire 1 x" bcd_7Seg_dec|a~combout $end
$var wire 1 y" bcd_7Seg_dec|b~1_combout $end
$var wire 1 z" bcd_7Seg_dec|_~0_combout $end
$var wire 1 {" bcd_7Seg_dec|d~2_combout $end
$var wire 1 |" bcd_7Seg_dec|e~1_combout $end
$var wire 1 }" bcd_7Seg_dec|f~0_combout $end
$var wire 1 ~" bcd_7Seg_dec|g~1_combout $end
$var wire 1 !# mod6_min|count [3] $end
$var wire 1 "# mod6_min|count [2] $end
$var wire 1 ## mod6_min|count [1] $end
$var wire 1 $# mod6_min|count [0] $end
$var wire 1 %# mod10_min|count [3] $end
$var wire 1 &# mod10_min|count [2] $end
$var wire 1 '# mod10_min|count [1] $end
$var wire 1 (# mod10_min|count [0] $end
$var wire 1 )# mod10_seg|count [3] $end
$var wire 1 *# mod10_seg|count [2] $end
$var wire 1 +# mod10_seg|count [1] $end
$var wire 1 ,# mod10_seg|count [0] $end
$var wire 1 -# acorda_hora|high [3] $end
$var wire 1 .# acorda_hora|high [2] $end
$var wire 1 /# acorda_hora|high [1] $end
$var wire 1 0# acorda_hora|high [0] $end
$var wire 1 1# mod24|low [3] $end
$var wire 1 2# mod24|low [2] $end
$var wire 1 3# mod24|low [1] $end
$var wire 1 4# mod24|low [0] $end
$var wire 1 5# mod6_seg|count [3] $end
$var wire 1 6# mod6_seg|count [2] $end
$var wire 1 7# mod6_seg|count [1] $end
$var wire 1 8# mod6_seg|count [0] $end
$var wire 1 9# acorda_min_u|count [3] $end
$var wire 1 :# acorda_min_u|count [2] $end
$var wire 1 ;# acorda_min_u|count [1] $end
$var wire 1 <# acorda_min_u|count [0] $end
$var wire 1 =# acorda_min_d|count [3] $end
$var wire 1 ># acorda_min_d|count [2] $end
$var wire 1 ?# acorda_min_d|count [1] $end
$var wire 1 @# acorda_min_d|count [0] $end
$var wire 1 A# acorda_hora|low [3] $end
$var wire 1 B# acorda_hora|low [2] $end
$var wire 1 C# acorda_hora|low [1] $end
$var wire 1 D# acorda_hora|low [0] $end
$var wire 1 E# mod24|high [3] $end
$var wire 1 F# mod24|high [2] $end
$var wire 1 G# mod24|high [1] $end
$var wire 1 H# mod24|high [0] $end
$var wire 1 I# refresh_clock|mod5|count [2] $end
$var wire 1 J# refresh_clock|mod5|count [1] $end
$var wire 1 K# refresh_clock|mod5|count [0] $end
$var wire 1 L# chaveador|count [1] $end
$var wire 1 M# chaveador|count [0] $end
$var wire 1 N# mux|dout [3] $end
$var wire 1 O# mux|dout [2] $end
$var wire 1 P# mux|dout [1] $end
$var wire 1 Q# mux|dout [0] $end
$var wire 1 R# select_dig|count [2] $end
$var wire 1 S# select_dig|count [1] $end
$var wire 1 T# select_dig|count [0] $end
$var wire 1 U# cont_clock|count [3] $end
$var wire 1 V# cont_clock|count [2] $end
$var wire 1 W# cont_clock|count [1] $end
$var wire 1 X# cont_clock|count [0] $end
$var wire 1 Y# refresh_clock|mod10|count [3] $end
$var wire 1 Z# refresh_clock|mod10|count [2] $end
$var wire 1 [# refresh_clock|mod10|count [1] $end
$var wire 1 \# refresh_clock|mod10|count [0] $end
$var wire 1 ]# refresh_clock|mod5_4|count [2] $end
$var wire 1 ^# refresh_clock|mod5_4|count [1] $end
$var wire 1 _# refresh_clock|mod5_4|count [0] $end
$var wire 1 `# refresh_clock|mod5_3|count [2] $end
$var wire 1 a# refresh_clock|mod5_3|count [1] $end
$var wire 1 b# refresh_clock|mod5_3|count [0] $end
$var wire 1 c# refresh_clock|mod5_2|count [2] $end
$var wire 1 d# refresh_clock|mod5_2|count [1] $end
$var wire 1 e# refresh_clock|mod5_2|count [0] $end
$upscope $end
$upscope $end
$enddefinitions $end
#0
$dumpvars
1!
0"
0#
0$
0%
1)
1(
1'
0&
0-
0,
0+
0*
01
00
0/
0.
05
04
03
02
09
08
07
06
0=
0<
0;
0:
0A
0@
0?
0>
0E
0D
0C
0B
0L
0K
0J
0I
0H
0G
1F
0M
0N
0O
0P
1Q
xR
1S
1T
1U
0V
0W
0X
0Y
0Z
0[
0\
0]
0^
0_
0`
0a
0b
0c
0d
0e
0f
0g
0h
0i
0j
0k
0l
0m
0n
0o
0p
0q
0r
0s
0t
0u
0v
1w
1x
1y
1z
0{
0|
0}
0~
0!!
0"!
1#!
0$!
1%!
1&!
0'!
0(!
1)!
0*!
0+!
0,!
0-!
1.!
0/!
00!
01!
02!
03!
04!
05!
16!
17!
08!
09!
0:!
0;!
0<!
0=!
1>!
0?!
0@!
0A!
0B!
0C!
0D!
0E!
0F!
0G!
1H!
0I!
0J!
0K!
0L!
0M!
0N!
0O!
0P!
0Q!
0R!
1S!
0T!
0U!
0V!
0W!
0X!
0Y!
0Z!
1[!
0\!
0]!
0^!
1_!
1`!
0a!
0b!
0c!
0d!
0e!
0f!
0g!
0h!
0i!
0j!
0k!
0l!
1m!
0n!
0o!
1p!
0q!
0r!
0s!
0t!
0u!
0v!
1w!
0x!
1y!
0z!
1{!
0|!
1}!
0~!
0!"
0""
0#"
0$"
0%"
1&"
0'"
0("
0)"
0*"
0+"
1,"
1-"
0."
1/"
00"
01"
12"
13"
14"
15"
16"
07"
08"
09"
0:"
0;"
0<"
0="
0>"
0?"
0@"
0A"
0B"
1C"
0D"
0E"
0F"
0G"
0H"
0I"
0J"
0K"
0L"
0M"
0N"
0O"
0P"
1Q"
1R"
0S"
0T"
1U"
1V"
0W"
0X"
0Y"
0Z"
1["
1\"
0]"
1^"
1_"
0`"
0a"
0b"
0c"
1d"
1e"
0f"
0g"
0h"
1i"
1j"
0k"
1l"
0m"
0n"
0o"
0p"
0q"
0r"
0s"
0t"
0u"
1v"
1w"
0x"
0y"
0z"
0{"
0|"
0}"
1~"
0$#
0##
0"#
z!#
0(#
0'#
0&#
0%#
0,#
0+#
0*#
0)#
00#
0/#
z.#
z-#
04#
03#
02#
01#
08#
07#
06#
z5#
0<#
0;#
0:#
09#
0@#
0?#
0>#
z=#
0D#
0C#
0B#
0A#
0H#
0G#
zF#
zE#
0K#
0J#
0I#
0M#
0L#
0Q#
zP#
0O#
0N#
0T#
0S#
0R#
0X#
0W#
0V#
0U#
0\#
0[#
0Z#
0Y#
0_#
0^#
0]#
0b#
0a#
0`#
0e#
0d#
0c#
$end
#1000
1"
1(!
1K#
1X#
0Q"
1O"
1,!
0)!
0R"
#2000
0"
0(!
#2500
1%
1F!
#3000
1"
1(!
0K#
1J#
1W#
0X#
1Q"
1-!
1)!
1R"
#4000
0"
0(!
#5000
0%
1"
0F!
1(!
1K#
1X#
0Q"
1P"
0O"
0,!
1+!
0)!
0R"
#6000
0"
0(!
#7000
1"
1(!
0K#
1I#
0J#
0W#
1V#
0X#
1S"
0P"
1)!
1e#
0U"
1W"
0V"
#7500
1%
1F!
#8000
0"
0(!
#9000
1"
1(!
0I#
1X#
1Q"
0.!
0S"
1,!
0)!
1/!
1R"
#10000
1$
0%
0"
0F!
1G!
0(!
1T#
1#"
1I!
0H!
1!!
1*
#11000
1"
1(!
1K#
1W#
0X#
0Q"
1O"
1)!
0R"
#12000
0"
0(!
#12500
1%
1F!
1$"
1%"
1H#
1'"
1J"
0/"
1j
1Q#
11
1+"
1}"
1|"
1{"
1x"
1q
1t
1u
1v
1G
1H
1I
1L
#13000
1"
1(!
0K#
1J#
1X#
1Q"
0,!
0+!
1*!
0)!
1R"
#14000
0"
0(!
#15000
0%
1"
0F!
1(!
0$"
0%"
1K#
0W#
0V#
1U#
0X#
0Q"
1.!
0-!
0/!
1P"
0O"
1)!
1/!
0R"
#16000
0"
0(!
#17000
1"
1(!
0K#
1I#
0J#
1X#
1S"
0P"
1,!
0)!
1d#
0e#
1U"
1V"
#17500
1%
1F!
1$"
1%"
0H#
1G#
04"
10"
0'"
02"
0-"
0&"
0J"
1/"
1K"
1k
0j
11"
03"
0Q#
0v"
01
10
0+"
0/"
13"
05"
0w"
0}"
0|"
0{"
0x"
0q
0t
0u
0v
15"
0G
0H
0I
0L
06"
0~"
1}"
1z"
1s
1v
0w
0F
1G
1J
16"
#18000
0"
0(!
#19000
1"
1(!
0I#
1W#
0X#
1Q"
1-!
0S"
0,!
0*!
0/!
1R"
#20000
0$
0%
0"
0F!
0G!
0(!
0$"
0%"
#21000
1"
1(!
1K#
0W#
0U#
0Q"
0-!
1O"
1)!
0R"
#22000
0"
0(!
#22500
1%
1F!
1$"
1%"
0G#
14"
00"
1-"
1&"
0K"
0k
01"
1v"
00
1/"
03"
12"
1w"
05"
13"
1~"
0}"
0z"
0s
0v
1w
15"
1F
0G
0J
06"
16"
#23000
1"
1(!
0K#
1J#
1X#
1Q"
1,!
0)!
1R"
#24000
0"
0(!
#25000
0%
1"
0F!
1(!
0$"
0%"
1K#
1W#
0X#
0Q"
1-!
1P"
0O"
1)!
0R"
#26000
0"
0(!
#27000
1"
1(!
0K#
1I#
0J#
1X#
1S"
0P"
0,!
1+!
0)!
1e#
0U"
0W"
1T"
0V"
#27500
1%
1F!
1$"
1%"
1H#
1'"
1J"
0/"
1j
1Q#
11
1+"
1}"
1|"
1{"
1x"
1q
1t
1u
1v
1G
1H
1I
1L
#28000
0"
0(!
#29000
1"
1(!
0I#
0W#
1V#
0X#
1Q"
0S"
1)!
1R"
#30000
1$
0%
0"
0F!
1G!
0(!
0$"
0%"
1S#
0T#
0#"
1t!
1H!
1~
0!!
0*
1+
#31000
1"
1(!
1K#
1X#
0Q"
0.!
1O"
1,!
0)!
1/!
0R"
#32000
0"
0(!
#32500
1%
1F!
1u!
1v!
14#
1F"
06"
1|!
1f
15
#33000
1"
1(!
0K#
1J#
1W#
0X#
1Q"
1)!
1R"
#34000
0"
0(!
#35000
0%
1"
0F!
1(!
0u!
0v!
1K#
1X#
0Q"
1P"
0O"
0,!
0+!
1*!
0)!
0R"
#36000
0"
0(!
#37000
1"
1(!
0K#
1I#
0J#
0W#
0V#
1U#
0X#
1.!
0-!
0/!
1S"
0P"
1)!
1/!
0d#
0e#
1c#
1X"
0T"
1b#
0["
1Y"
0\"
#37500
1%
1F!
1u!
1v!
04#
13#
0F"
16"
1G"
1g
0f
05
14
#38000
0"
0(!
#39000
1"
1(!
0I#
1X#
1Q"
0S"
1,!
0)!
1R"
#40000
0$
0%
0"
0F!
0G!
0(!
0u!
0v!
#41000
1"
1(!
1K#
1W#
0X#
0Q"
1-!
1O"
0,!
0*!
0/!
0R"
#42000
0"
0(!
#42500
1%
1F!
1u!
1v!
14#
1M"
0}!
1F"
06"
0|!
1f
15
1~!
#43000
1"
1(!
0K#
1J#
0W#
0U#
1Q"
0-!
1)!
1R"
#44000
0"
0(!
#45000
0%
1"
0F!
1(!
0u!
0v!
1K#
1X#
0Q"
1P"
0O"
1,!
0)!
0R"
#46000
0"
0(!
#47000
1"
1(!
0K#
1I#
0J#
1W#
0X#
1-!
1S"
0P"
1)!
0c#
1U"
0X"
1V"
#47500
1%
1F!
1u!
1v!
04#
12#
03#
0M"
1}!
0F"
16"
1H"
0~!
0G"
0g
1h
0f
05
13
04
1~!
#48000
0"
0(!
#49000
1"
1(!
0I#
1X#
1Q"
0S"
0,!
1+!
0)!
1R"
#50000
1$
0%
0"
0F!
1G!
0(!
0u!
0v!
1T#
0t!
1J!
0I!
0H!
1}
0~
0+
1,
1K!
#51000
1"
1(!
1K#
0W#
1V#
0X#
0Q"
1O"
1)!
0R"
#52000
0"
0(!
#52500
1%
1F!
1j!
1k!
1$#
1q!
0p!
1n!
1b
19
#53000
1"
1(!
0K#
1J#
1X#
1Q"
0.!
1,!
0)!
1/!
1R"
#54000
0"
0(!
#55000
0%
1"
0F!
1(!
0j!
0k!
1K#
1W#
0X#
0Q"
1P"
0O"
1)!
0R"
#56000
0"
0(!
#57000
1"
1(!
0K#
1I#
0J#
1X#
1S"
0P"
0,!
0+!
1*!
0)!
1e#
0U"
1W"
0V"
#57500
1%
1F!
1j!
1k!
0$#
1##
0q!
1p!
1r!
1c
0b
09
18
#58000
0"
0(!
#59000
1"
1(!
0I#
0W#
0V#
1U#
0X#
1Q"
1.!
0-!
0/!
0S"
1)!
1/!
1R"
#60000
0$
0%
0"
0F!
0G!
0(!
0j!
0k!
#61000
1"
1(!
1K#
1X#
0Q"
1O"
1,!
0)!
0R"
#62000
0"
0(!
#62500
1%
1F!
1j!
1k!
1$#
1q!
0p!
1o!
0n!
1b
19
#63000
1"
1(!
0K#
1J#
1W#
0X#
1Q"
1-!
0,!
0*!
0/!
1R"
#64000
0"
0(!
#65000
0%
1"
0F!
1(!
0j!
0k!
1K#
0W#
0U#
0Q"
0-!
1P"
0O"
1)!
0R"
#66000
0"
0(!
#67000
1"
1(!
0K#
1I#
0J#
1X#
1S"
0P"
1,!
0)!
1d#
0e#
1U"
1V"
#67500
1%
1F!
1j!
1k!
0$#
1"#
0##
0q!
1p!
1s!
0r!
0c
1d
0b
09
17
08
#68000
0"
0(!
#69000
1"
1(!
0I#
1W#
0X#
1Q"
1-!
0S"
1)!
1R"
#70000
1$
0%
0"
0F!
1G!
0(!
0j!
0k!
1R#
0S#
0T#
1L!
0J!
1H!
0}
1|
1-
0,
0K!
#71000
1"
1(!
1K#
1X#
0Q"
1O"
0,!
1+!
0)!
0R"
#72000
0"
0(!
#72500
1%
1F!
1V!
1W!
1(#
1a!
0`!
1X!
1^
1=
#73000
1"
1(!
0K#
1J#
0W#
1V#
0X#
1Q"
1)!
1R"
#74000
0"
0(!
#75000
0%
1"
0F!
1(!
0V!
0W!
1K#
1X#
0Q"
0.!
1P"
0O"
1,!
0)!
1/!
0R"
#76000
0"
0(!
#77000
1"
1(!
0K#
1I#
0J#
1W#
0X#
1S"
0P"
1)!
1e#
0U"
0W"
1T"
0V"
#77500
1%
1F!
1V!
1W!
0(#
1'#
0a!
1`!
1b!
1_
0^
0=
1<
#78000
0"
0(!
#79000
1"
1(!
0I#
1X#
1Q"
0S"
0,!
0+!
1*!
0)!
1R"
#80000
0$
0%
0"
0F!
0G!
0(!
0V!
0W!
#81000
1"
1(!
1K#
0W#
0V#
1U#
0X#
0Q"
1.!
0-!
0/!
1O"
1)!
1/!
0R"
#82000
0"
0(!
#82500
1%
1F!
1V!
1W!
1(#
1a!
0`!
1\!
0X!
1^
1=
#83000
1"
1(!
0K#
1J#
1X#
1Q"
1,!
0)!
1R"
#84000
0"
0(!
#85000
0%
1"
0F!
1(!
0V!
0W!
1K#
1W#
0X#
0Q"
1-!
1P"
0O"
0,!
0*!
0/!
0R"
#86000
0"
0(!
#87000
1"
1(!
0K#
1I#
0J#
0W#
0U#
0-!
1S"
0P"
1)!
0d#
0e#
1c#
1X"
0T"
0b#
1a#
1["
1\"
#87500
1%
1F!
1V!
1W!
0(#
1&#
0'#
0a!
1`!
1c!
0b!
0_
1`
0^
0=
1;
0<
#88000
0"
0(!
#89000
1"
1(!
0I#
1X#
1Q"
0S"
1,!
0)!
1R"
#90000
1$
0%
0"
0F!
1G!
0(!
0V!
0W!
0R#
1T#
1#"
0L!
1I!
0H!
0|
1!!
1*
0-
#91000
1"
1(!
1K#
1W#
0X#
0Q"
1-!
1O"
1)!
0R"
#92000
0"
0(!
#92500
1%
1F!
1$"
1%"
0H#
1G#
04"
0'"
02"
0-"
0&"
0J"
1/"
1K"
1k
0j
03"
0Q#
0v"
01
10
0+"
0/"
05"
0w"
0}"
0|"
0{"
0x"
0q
0t
0u
0v
0G
0H
0I
0L
06"
0~!
0~"
1}"
1z"
1s
1v
0w
0F
1G
1J
#93000
1"
1(!
0K#
1J#
1X#
1Q"
0,!
1+!
0)!
1R"
#94000
0"
0(!
#95000
0%
1"
0F!
1(!
0$"
0%"
1K#
0W#
1V#
0X#
0Q"
1P"
0O"
1)!
0R"
#96000
0"
0(!
#97000
1"
1(!
0K#
1I#
0J#
1X#
0.!
1S"
0P"
1,!
0)!
1/!
0c#
1U"
0X"
1V"
#97500
1%
1F!
1$"
1%"
0G#
14"
12"
1-"
1&"
0K"
0k
13"
1v"
00
1/"
15"
1w"
16"
1~!
1~"
0}"
0z"
0s
0v
1w
1F
0G
0J
#98000
0"
0(!
#99000
1"
1(!
0I#
1W#
0X#
1Q"
0S"
1)!
1R"
