simulation/qsim/Projeto_2.msim.vcd
$comment
	File created using the following command:
		vcd file Projeto_2.msim.vcd -direction
$end
$date
	Sat Jul 24 01:24:12 2021
$end
$version
	ModelSim Version 2020.1
$end
$timescale
	1ps
$end

$scope module despertador_vlg_vec_tst $end
$var reg 1 ! clk $end
$var reg 1 " ena $end
$var wire 1 # horas_dezenas [2] $end
$var wire 1 $ horas_dezenas [1] $end
$var wire 1 % horas_dezenas [0] $end
$var wire 1 & horas_unidades [3] $end
$var wire 1 ' horas_unidades [2] $end
$var wire 1 ( horas_unidades [1] $end
$var wire 1 ) horas_unidades [0] $end
$var wire 1 * min_dezenas [2] $end
$var wire 1 + min_dezenas [1] $end
$var wire 1 , min_dezenas [0] $end
$var wire 1 - min_unidades [3] $end
$var wire 1 . min_unidades [2] $end
$var wire 1 / min_unidades [1] $end
$var wire 1 0 min_unidades [0] $end
$var wire 1 1 sec_dezenas [2] $end
$var wire 1 2 sec_dezenas [1] $end
$var wire 1 3 sec_dezenas [0] $end
$var wire 1 4 sec_unidades [3] $end
$var wire 1 5 sec_unidades [2] $end
$var wire 1 6 sec_unidades [1] $end
$var wire 1 7 sec_unidades [0] $end
$var wire 1 8 tc_horas $end
$var wire 1 9 tc_minutos $end
$var wire 1 : tc_segundos $end

$scope module i1 $end
$var wire 1 ; gnd $end
$var wire 1 < vcc $end
$var wire 1 = unknown $end
$var tri1 1 > devclrn $end
$var tri1 1 ? devpor $end
$var tri1 1 @ devoe $end
$var wire 1 A sec_unidades[0]~output_o $end
$var wire 1 B sec_unidades[1]~output_o $end
$var wire 1 C sec_unidades[2]~output_o $end
$var wire 1 D sec_unidades[3]~output_o $end
$var wire 1 E sec_dezenas[0]~output_o $end
$var wire 1 F sec_dezenas[1]~output_o $end
$var wire 1 G sec_dezenas[2]~output_o $end
$var wire 1 H min_unidades[0]~output_o $end
$var wire 1 I min_unidades[1]~output_o $end
$var wire 1 J min_unidades[2]~output_o $end
$var wire 1 K min_unidades[3]~output_o $end
$var wire 1 L min_dezenas[0]~output_o $end
$var wire 1 M min_dezenas[1]~output_o $end
$var wire 1 N min_dezenas[2]~output_o $end
$var wire 1 O horas_unidades[0]~output_o $end
$var wire 1 P horas_unidades[1]~output_o $end
$var wire 1 Q horas_unidades[2]~output_o $end
$var wire 1 R horas_unidades[3]~output_o $end
$var wire 1 S horas_dezenas[0]~output_o $end
$var wire 1 T horas_dezenas[1]~output_o $end
$var wire 1 U horas_dezenas[2]~output_o $end
$var wire 1 V tc_segundos~output_o $end
$var wire 1 W tc_minutos~output_o $end
$var wire 1 X tc_horas~output_o $end
$var wire 1 Y clk~input_o $end
$var wire 1 Z mod10_seg|count[2]~2_combout $end
$var wire 1 [ ena~input_o $end
$var wire 1 \ mod10_seg|op_2~0_combout $end
$var wire 1 ] mod10_seg|count[3]~3_combout $end
$var wire 1 ^ mod10_seg|count[1]~1_combout $end
$var wire 1 _ mod10_seg|op_1~0_combout $end
$var wire 1 ` mod10_seg|count[0]~0_combout $end
$var wire 1 a mod10_seg|tc~0_combout $end
$var wire 1 b mod10_seg|tc~combout $end
$var wire 1 c mod6_seg|count[2]~2_combout $end
$var wire 1 d mod6_seg|count[1]~1_combout $end
$var wire 1 e mod6_seg|count[0]~0_combout $end
$var wire 1 f mod6_seg|tc~0_combout $end
$var wire 1 g mod6_seg|tc~combout $end
$var wire 1 h mod10_min|count[2]~2_combout $end
$var wire 1 i mod10_min|op_2~0_combout $end
$var wire 1 j mod10_min|count[3]~3_combout $end
$var wire 1 k mod10_min|count[1]~1_combout $end
$var wire 1 l mod10_min|op_1~0_combout $end
$var wire 1 m mod10_min|count[0]~0_combout $end
$var wire 1 n mod10_min|tc~0_combout $end
$var wire 1 o mod10_min|tc~combout $end
$var wire 1 p mod6_min|count[2]~2_combout $end
$var wire 1 q mod6_min|count[1]~1_combout $end
$var wire 1 r mod6_min|count[0]~0_combout $end
$var wire 1 s mod24|high[0]~0_combout $end
$var wire 1 t mod24|high[0]~1_combout $end
$var wire 1 u mod24|low[1]~2_combout $end
$var wire 1 v mod24|op_2~0_combout $end
$var wire 1 w mod24|low[3]~4_combout $end
$var wire 1 x mod24|op_1~0_combout $end
$var wire 1 y mod24|_~3_combout $end
$var wire 1 z mod24|_~4_combout $end
$var wire 1 { mod24|high[0]~2_combout $end
$var wire 1 | mod24|_~5_combout $end
$var wire 1 } mod24|high[1]~3_combout $end
$var wire 1 ~ mod24|_~2_combout $end
$var wire 1 !! mod24|time~1_combout $end
$var wire 1 "! mod24|_~0_combout $end
$var wire 1 #! mod24|low[2]~1_combout $end
$var wire 1 $! mod24|low[2]~3_combout $end
$var wire 1 %! mod24|time~0_combout $end
$var wire 1 &! mod24|_~1_combout $end
$var wire 1 '! mod24|low[0]~0_combout $end
$var wire 1 (! mod24|time~combout $end
$var wire 1 )! mod10_seg|count [3] $end
$var wire 1 *! mod10_seg|count [2] $end
$var wire 1 +! mod10_seg|count [1] $end
$var wire 1 ,! mod10_seg|count [0] $end
$var wire 1 -! mod6_min|count [2] $end
$var wire 1 .! mod6_min|count [1] $end
$var wire 1 /! mod6_min|count [0] $end
$var wire 1 0! mod10_min|count [3] $end
$var wire 1 1! mod10_min|count [2] $end
$var wire 1 2! mod10_min|count [1] $end
$var wire 1 3! mod10_min|count [0] $end
$var wire 1 4! mod6_seg|count [2] $end
$var wire 1 5! mod6_seg|count [1] $end
$var wire 1 6! mod6_seg|count [0] $end
$var wire 1 7! mod24|low [3] $end
$var wire 1 8! mod24|low [2] $end
$var wire 1 9! mod24|low [1] $end
$var wire 1 :! mod24|low [0] $end
$var wire 1 ;! mod24|high [2] $end
$var wire 1 <! mod24|high [1] $end
$var wire 1 =! mod24|high [0] $end
$upscope $end
$upscope $end
$enddefinitions $end
#0
$dumpvars
0!
1"
0%
0$
0#
0)
0(
0'
0&
0,
0+
0*
00
0/
0.
0-
03
02
01
07
06
05
04
08
09
0:
0;
1<
x=
1>
1?
1@
0A
0B
0C
0D
0E
0F
0G
0H
0I
0J
0K
0L
0M
0N
0O
0P
0Q
0R
0S
0T
0U
0V
0W
0X
0Y
0Z
1[
0\
0]
0^
1_
1`
1a
0b
0c
0d
0e
1f
0g
0h
0i
0j
0k
1l
0m
1n
0o
0p
0q
0r
0s
0t
0u
0v
0w
1x
0y
0z
0{
0|
0}
1~
0!!
0"!
0#!
0$!
1%!
0&!
0'!
0(!
0,!
0+!
0*!
0)!
0/!
0.!
0-!
03!
02!
01!
00!
06!
05!
04!
0:!
09!
08!
07!
0=!
0<!
z;!
$end
#1000
1!
1Y
1,!
1A
17
0`
1^
#2000
0!
0Y
#3000
1!
1Y
0,!
1+!
1B
0A
07
16
1`
#4000
0!
0Y
#5000
1!
1Y
1,!
1A
17
0`
0^
1Z
#6000
0!
0Y
#7000
1!
1Y
0,!
0+!
1*!
1C
0B
0A
07
06
15
1`
#8000
0!
0Y
#9000
1!
1Y
1,!
1A
17
0`
1^
#10000
0!
0Y
#11000
1!
1Y
0,!
1+!
1B
0A
07
16
1`
#12000
0!
0Y
#13000
1!
1Y
1,!
1A
1\
17
0`
0^
0Z
1]
#14000
0!
0Y
#15000
1!
1Y
0,!
0+!
1)!
0*!
0C
1D
0B
0A
0a
07
06
14
05
1`
#16000
0!
0Y
#17000
1!
1Y
1,!
1A
1b
0_
17
0`
1e
0]
#18000
0!
0Y
#19000
1!
1Y
16!
0,!
0)!
0D
0A
1E
0b
1_
0\
1a
13
07
04
0e
1d
1e
1`
#20000
0!
0Y
#21000
1!
1Y
1,!
1A
17
0`
1^
#22000
0!
0Y
#23000
1!
1Y
0,!
1+!
1B
0A
07
16
1`
#24000
0!
0Y
#25000
1!
1Y
1,!
1A
17
0`
0^
1Z
#26000
0!
0Y
#27000
1!
1Y
0,!
0+!
1*!
1C
0B
0A
07
06
15
1`
#28000
0!
0Y
#29000
1!
1Y
1,!
1A
17
0`
1^
#30000
0!
0Y
#31000
1!
1Y
0,!
1+!
1B
0A
07
16
1`
#32000
0!
0Y
#33000
1!
1Y
1,!
1A
1\
17
0`
0^
0Z
1]
#34000
0!
0Y
#35000
1!
1Y
0,!
0+!
1)!
0*!
0C
1D
0B
0A
0a
07
06
14
05
1`
#36000
0!
0Y
#37000
1!
1Y
1,!
1A
1b
0_
17
0`
0e
0]
#38000
0!
0Y
#39000
1!
1Y
06!
15!
0,!
0)!
0D
0A
1F
0E
0b
1_
0\
1a
03
12
07
04
1e
0e
1`
#40000
0!
0Y
#41000
1!
1Y
1,!
1A
17
0`
1^
#42000
0!
0Y
#43000
1!
1Y
0,!
1+!
1B
0A
07
16
1`
#44000
0!
0Y
#45000
1!
1Y
1,!
1A
17
0`
0^
1Z
#46000
0!
0Y
#47000
1!
1Y
0,!
0+!
1*!
1C
0B
0A
07
06
15
1`
#48000
0!
0Y
#49000
1!
1Y
1,!
1A
17
0`
1^
#50000
0!
0Y
#51000
1!
1Y
0,!
1+!
1B
0A
07
16
1`
#52000
0!
0Y
#53000
1!
1Y
1,!
1A
1\
17
0`
0^
0Z
1]
#54000
0!
0Y
#55000
1!
1Y
0,!
0+!
1)!
0*!
0C
1D
0B
0A
0a
07
06
14
05
1`
#56000
0!
0Y
#57000
1!
1Y
1,!
1A
1b
0_
17
0`
1e
0]
#58000
0!
0Y
#59000
1!
1Y
16!
0,!
0)!
0D
0A
1E
0b
1_
0\
1a
13
07
04
0e
0d
1c
1e
1`
#60000
0!
0Y
#61000
1!
1Y
1,!
1A
17
0`
1^
#62000
0!
0Y
#63000
1!
1Y
0,!
1+!
1B
0A
07
16
1`
#64000
0!
0Y
#65000
1!
1Y
1,!
1A
17
0`
0^
1Z
#66000
0!
0Y
#67000
1!
1Y
0,!
0+!
1*!
1C
0B
0A
07
06
15
1`
#68000
0!
0Y
#69000
1!
1Y
1,!
1A
17
0`
1^
#70000
0!
0Y
#71000
1!
1Y
0,!
1+!
1B
0A
07
16
1`
#72000
0!
0Y
#73000
1!
1Y
1,!
1A
1\
17
0`
0^
0Z
1]
#74000
0!
0Y
#75000
1!
1Y
0,!
0+!
1)!
0*!
0C
1D
0B
0A
0a
07
06
14
05
1`
#76000
0!
0Y
#77000
1!
1Y
1,!
1A
1b
0_
17
0`
0e
0]
#78000
0!
0Y
#79000
1!
1Y
06!
05!
14!
0,!
0)!
0D
0A
1G
0F
0E
0b
1_
0\
1a
03
02
11
07
04
1e
0e
1`
#80000
0!
0Y
#81000
1!
1Y
1,!
1A
17
0`
1^
#82000
0!
0Y
#83000
1!
1Y
0,!
1+!
1B
0A
07
16
1`
#84000
0!
0Y
#85000
1!
1Y
1,!
1A
17
0`
0^
1Z
#86000
0!
0Y
#87000
1!
1Y
0,!
0+!
1*!
1C
0B
0A
07
06
15
1`
#88000
0!
0Y
#89000
1!
1Y
1,!
1A
17
0`
1^
#90000
0!
0Y
#91000
1!
1Y
0,!
1+!
1B
0A
07
16
1`
#92000
0!
0Y
#93000
1!
1Y
1,!
1A
1\
17
0`
0^
0Z
1]
#94000
0!
0Y
#95000
1!
1Y
0,!
0+!
1)!
0*!
0C
1D
0B
0A
0a
07
06
14
05
1`
#96000
0!
0Y
#97000
1!
1Y
1,!
1A
1b
0_
17
0`
1e
0]
#98000
0!
0Y
#99000
1!
1Y
16!
0,!
0)!
0D
0A
1E
0f
0b
1_
0\
1a
13
07
04
0e
0c
1e
1`
#100000
0!
0Y
#101000
1!
1Y
1,!
1A
17
0`
1^
#102000
0!
0Y
#103000
1!
1Y
0,!
1+!
1B
0A
07
16
1`
#104000
0!
0Y
#105000
1!
1Y
1,!
1A
17
0`
0^
1Z
#106000
0!
0Y
#107000
1!
1Y
0,!
0+!
1*!
1C
0B
0A
07
06
15
1`
#108000
0!
0Y
#109000
1!
1Y
1,!
1A
17
0`
1^
#110000
0!
0Y
#111000
1!
1Y
0,!
1+!
1B
0A
07
16
1`
#112000
0!
0Y
#113000
1!
1Y
1,!
1A
1\
17
0`
0^
0Z
1]
#114000
0!
0Y
#115000
1!
1Y
0,!
0+!
1)!
0*!
0C
1D
0B
0A
0a
07
06
14
05
1`
#116000
0!
0Y
#117000
1!
1Y
1,!
1A
1b
0_
17
1g
0`
1V
1:
0e
0]
1m
#118000
0!
0Y
#119000
1!
1Y
13!
06!
04!
0,!
0)!
0D
0A
0G
0E
1H
1f
0b
1_
0\
1a
10
03
01
07
04
0m
1k
1e
0g
0V
0:
0e
1`
1m
#120000
0!
0Y
#121000
1!
1Y
1,!
1A
17
0`
1^
#122000
0!
0Y
#123000
1!
1Y
0,!
1+!
1B
0A
07
16
1`
#124000
0!
0Y
#125000
1!
1Y
1,!
1A
17
0`
0^
1Z
#126000
0!
0Y
#127000
1!
1Y
0,!
0+!
1*!
1C
0B
0A
07
06
15
1`
#128000
0!
0Y
#129000
1!
1Y
1,!
1A
17
0`
1^
#130000
0!
0Y
#131000
1!
1Y
0,!
1+!
1B
0A
07
16
1`
#132000
0!
0Y
#133000
1!
1Y
1,!
1A
1\
17
0`
0^
0Z
1]
#134000
0!
0Y
#135000
1!
1Y
0,!
0+!
1)!
0*!
0C
1D
0B
0A
0a
07
06
14
05
1`
#136000
0!
0Y
#137000
1!
1Y
1,!
1A
1b
0_
17
0`
1e
0]
#138000
0!
0Y
#139000
1!
1Y
16!
0,!
0)!
0D
0A
1E
0b
1_
0\
1a
13
07
04
0e
1d
1e
1`
#140000
0!
0Y
#141000
1!
1Y
1,!
1A
17
0`
1^
#142000
0!
0Y
#143000
1!
1Y
0,!
1+!
1B
0A
07
16
1`
#144000
0!
0Y
#145000
1!
1Y
1,!
1A
17
0`
0^
1Z
#146000
0!
0Y
#147000
1!
1Y
0,!
0+!
1*!
1C
0B
0A
07
06
15
1`
#148000
0!
0Y
#149000
1!
1Y
1,!
1A
17
0`
1^
#150000
0!
0Y
#151000
1!
1Y
0,!
1+!
1B
0A
07
16
1`
#152000
0!
0Y
#153000
1!
1Y
1,!
1A
1\
17
0`
0^
0Z
1]
#154000
0!
0Y
#155000
1!
1Y
0,!
0+!
1)!
0*!
0C
1D
0B
0A
0a
07
06
14
05
1`
#156000
0!
0Y
#157000
1!
1Y
1,!
1A
1b
0_
17
0`
0e
0]
#158000
0!
0Y
#159000
1!
1Y
06!
15!
0,!
0)!
0D
0A
1F
0E
0b
1_
0\
1a
03
12
07
04
1e
0e
1`
#160000
0!
0Y
#161000
1!
1Y
1,!
1A
17
0`
1^
#162000
0!
0Y
#163000
1!
1Y
0,!
1+!
1B
0A
07
16
1`
#164000
0!
0Y
#165000
1!
1Y
1,!
1A
17
0`
0^
1Z
#166000
0!
0Y
#167000
1!
1Y
0,!
0+!
1*!
1C
0B
0A
07
06
15
1`
#168000
0!
0Y
#169000
1!
1Y
1,!
1A
17
0`
1^
#170000
0!
0Y
#171000
1!
1Y
0,!
1+!
1B
0A
07
16
1`
#172000
0!
0Y
#173000
1!
1Y
1,!
1A
1\
17
0`
0^
0Z
1]
#174000
0!
0Y
#175000
1!
1Y
0,!
0+!
1)!
0*!
0C
1D
0B
0A
0a
07
06
14
05
1`
#176000
0!
0Y
#177000
1!
1Y
1,!
1A
1b
0_
17
0`
1e
0]
#178000
0!
0Y
#179000
1!
1Y
16!
0,!
0)!
0D
0A
1E
0b
1_
0\
1a
13
07
04
0e
0d
1c
1e
1`
#180000
0!
0Y
#181000
1!
1Y
1,!
1A
17
0`
1^
#182000
0!
0Y
#183000
1!
1Y
0,!
1+!
1B
0A
07
16
1`
#184000
0!
0Y
#185000
1!
1Y
1,!
1A
17
0`
0^
1Z
#186000
0!
0Y
#187000
1!
1Y
0,!
0+!
1*!
1C
0B
0A
07
06
15
1`
#188000
0!
0Y
#189000
1!
1Y
1,!
1A
17
0`
1^
#190000
0!
0Y
#191000
1!
1Y
0,!
1+!
1B
0A
07
16
1`
#192000
0!
0Y
#193000
1!
1Y
1,!
1A
1\
17
0`
0^
0Z
1]
#194000
0!
0Y
#195000
1!
1Y
0,!
0+!
1)!
0*!
0C
1D
0B
0A
0a
07
06
14
05
1`
#196000
0!
0Y
#197000
1!
1Y
1,!
1A
1b
0_
17
0`
0e
0]
#198000
0!
0Y
#199000
1!
1Y
06!
05!
14!
0,!
0)!
0D
0A
1G
0F
0E
0b
1_
0\
1a
03
02
11
07
04
1e
0e
1`
#200000
0!
0Y
#201000
1!
1Y
1,!
1A
17
0`
1^
#202000
0!
0Y
#203000
1!
1Y
0,!
1+!
1B
0A
07
16
1`
#204000
0!
0Y
#205000
1!
1Y
1,!
1A
17
0`
0^
1Z
#206000
0!
0Y
#207000
1!
1Y
0,!
0+!
1*!
1C
0B
0A
07
06
15
1`
#208000
0!
0Y
#209000
1!
1Y
1,!
1A
17
0`
1^
#210000
0!
0Y
#211000
1!
1Y
0,!
1+!
1B
0A
07
16
1`
#212000
0!
0Y
#213000
1!
1Y
1,!
1A
1\
17
0`
0^
0Z
1]
#214000
0!
0Y
#215000
1!
1Y
0,!
0+!
1)!
0*!
0C
1D
0B
0A
0a
07
06
14
05
1`
#216000
0!
0Y
#217000
1!
1Y
1,!
1A
1b
0_
17
0`
1e
0]
#218000
0!
0Y
#219000
1!
1Y
16!
0,!
0)!
0D
0A
1E
0f
0b
1_
0\
1a
13
07
04
0e
0c
1e
1`
#220000
0!
0Y
#221000
1!
1Y
1,!
1A
17
0`
1^
#222000
0!
0Y
#223000
1!
1Y
0,!
1+!
1B
0A
07
16
1`
#224000
0!
0Y
#225000
1!
1Y
1,!
1A
17
0`
0^
1Z
#226000
0!
0Y
#227000
1!
1Y
0,!
0+!
1*!
1C
0B
0A
07
06
15
1`
#228000
0!
0Y
#229000
1!
1Y
1,!
1A
17
0`
1^
#230000
0!
0Y
#231000
1!
1Y
0,!
1+!
1B
0A
07
16
1`
#232000
0!
0Y
#233000
1!
1Y
1,!
1A
1\
17
0`
0^
0Z
1]
#234000
0!
0Y
#235000
1!
1Y
0,!
0+!
1)!
0*!
0C
1D
0B
0A
0a
07
06
14
05
1`
#236000
0!
0Y
#237000
1!
1Y
1,!
1A
1b
0_
17
1g
0`
1V
1:
0e
0]
0m
#238000
0!
0Y
#239000
1!
1Y
03!
12!
06!
04!
0,!
0)!
0D
0A
0G
0E
1I
0H
1f
0b
1_
0\
1a
00
1/
03
01
07
04
1m
1e
0g
0V
0:
0e
1`
0m
#240000
0!
0Y
#241000
1!
1Y
1,!
1A
17
0`
1^
#242000
0!
0Y
#243000
1!
1Y
0,!
1+!
1B
0A
07
16
1`
#244000
0!
0Y
#245000
1!
1Y
1,!
1A
17
0`
0^
1Z
#246000
0!
0Y
#247000
1!
1Y
0,!
0+!
1*!
1C
0B
0A
07
06
15
1`
#248000
0!
0Y
#249000
1!
1Y
1,!
1A
17
0`
1^
#250000
0!
0Y
#251000
1!
1Y
0,!
1+!
1B
0A
07
16
1`
#252000
0!
0Y
#253000
1!
1Y
1,!
1A
1\
17
0`
0^
0Z
1]
#254000
0!
0Y
#255000
1!
1Y
0,!
0+!
1)!
0*!
0C
1D
0B
0A
0a
07
06
14
05
1`
#256000
0!
0Y
#257000
1!
1Y
1,!
1A
1b
0_
17
0`
1e
0]
#258000
0!
0Y
#259000
1!
1Y
16!
0,!
0)!
0D
0A
1E
0b
1_
0\
1a
13
07
04
0e
1d
1e
1`
#260000
0!
0Y
#261000
1!
1Y
1,!
1A
17
0`
1^
#262000
0!
0Y
#263000
1!
1Y
0,!
1+!
1B
0A
07
16
1`
#264000
0!
0Y
#265000
1!
1Y
1,!
1A
17
0`
0^
1Z
#266000
0!
0Y
#267000
1!
1Y
0,!
0+!
1*!
1C
0B
0A
07
06
15
1`
#268000
0!
0Y
#269000
1!
1Y
1,!
1A
17
0`
1^
#270000
0!
0Y
#271000
1!
1Y
0,!
1+!
1B
0A
07
16
1`
#272000
0!
0Y
#273000
1!
1Y
1,!
1A
1\
17
0`
0^
0Z
1]
#274000
0!
0Y
#275000
1!
1Y
0,!
0+!
1)!
0*!
0C
1D
0B
0A
0a
07
06
14
05
1`
#276000
0!
0Y
#277000
1!
1Y
1,!
1A
1b
0_
17
0`
0e
0]
#278000
0!
0Y
#279000
1!
1Y
06!
15!
0,!
0)!
0D
0A
1F
0E
0b
1_
0\
1a
03
12
07
04
1e
0e
1`
#280000
0!
0Y
#281000
1!
1Y
1,!
1A
17
0`
1^
#282000
0!
0Y
#283000
1!
1Y
0,!
1+!
1B
0A
07
16
1`
#284000
0!
0Y
#285000
1!
1Y
1,!
1A
17
0`
0^
1Z
#286000
0!
0Y
#287000
1!
1Y
0,!
0+!
1*!
1C
0B
0A
07
06
15
1`
#288000
0!
0Y
#289000
1!
1Y
1,!
1A
17
0`
1^
#290000
0!
0Y
#291000
1!
1Y
0,!
1+!
1B
0A
07
16
1`
#292000
0!
0Y
#293000
1!
1Y
1,!
1A
1\
17
0`
0^
0Z
1]
#294000
0!
0Y
#295000
1!
1Y
0,!
0+!
1)!
0*!
0C
1D
0B
0A
0a
07
06
14
05
1`
#296000
0!
0Y
#297000
1!
1Y
1,!
1A
1b
0_
17
0`
1e
0]
#298000
0!
0Y
#299000
1!
1Y
16!
0,!
0)!
0D
0A
1E
0b
1_
0\
1a
13
07
04
0e
0d
1c
1e
1`
#300000
0!
0Y
#301000
1!
1Y
1,!
1A
17
0`
1^
#302000
0!
0Y
#303000
1!
1Y
0,!
1+!
1B
0A
07
16
1`
#304000
0!
0Y
#305000
1!
1Y
1,!
1A
17
0`
0^
1Z
#306000
0!
0Y
#307000
1!
1Y
0,!
0+!
1*!
1C
0B
0A
07
06
15
1`
#308000
0!
0Y
#309000
1!
1Y
1,!
1A
17
0`
1^
#310000
0!
0Y
#311000
1!
1Y
0,!
1+!
1B
0A
07
16
1`
#312000
0!
0Y
#313000
1!
1Y
1,!
1A
1\
17
0`
0^
0Z
1]
#314000
0!
0Y
#315000
1!
1Y
0,!
0+!
1)!
0*!
0C
1D
0B
0A
0a
07
06
14
05
1`
#316000
0!
0Y
#317000
1!
1Y
1,!
1A
1b
0_
17
0`
0e
0]
#318000
0!
0Y
#319000
1!
1Y
06!
05!
14!
0,!
0)!
0D
0A
1G
0F
0E
0b
1_
0\
1a
03
02
11
07
04
1e
0e
1`
#320000
0!
0Y
#321000
1!
1Y
1,!
1A
17
0`
1^
#322000
0!
0Y
#323000
1!
1Y
0,!
1+!
1B
0A
07
16
1`
#324000
0!
0Y
#325000
1!
1Y
1,!
1A
17
0`
0^
1Z
#326000
0!
0Y
#327000
1!
1Y
0,!
0+!
1*!
1C
0B
0A
07
06
15
1`
#328000
0!
0Y
#329000
1!
1Y
1,!
1A
17
0`
1^
#330000
0!
0Y
#331000
1!
1Y
0,!
1+!
1B
0A
07
16
1`
#332000
0!
0Y
#333000
1!
1Y
1,!
1A
1\
17
0`
0^
0Z
1]
#334000
0!
0Y
#335000
1!
1Y
0,!
0+!
1)!
0*!
0C
1D
0B
0A
0a
07
06
14
05
1`
#336000
0!
0Y
#337000
1!
1Y
1,!
1A
1b
0_
17
0`
1e
0]
#338000
0!
0Y
#339000
1!
1Y
16!
0,!
0)!
0D
0A
1E
0f
0b
1_
0\
1a
13
07
04
0e
0c
1e
1`
#340000
0!
0Y
#341000
1!
1Y
1,!
1A
17
0`
1^
#342000
0!
0Y
#343000
1!
1Y
0,!
1+!
1B
0A
07
16
1`
#344000
0!
0Y
#345000
1!
1Y
1,!
1A
17
0`
0^
1Z
#346000
0!
0Y
#347000
1!
1Y
0,!
0+!
1*!
1C
0B
0A
07
06
15
1`
#348000
0!
0Y
#349000
1!
1Y
1,!
1A
17
0`
1^
#350000
0!
0Y
#351000
1!
1Y
0,!
1+!
1B
0A
07
16
1`
#352000
0!
0Y
#353000
1!
1Y
1,!
1A
1\
17
0`
0^
0Z
1]
#354000
0!
0Y
#355000
1!
1Y
0,!
0+!
1)!
0*!
0C
1D
0B
0A
0a
07
06
14
05
1`
#356000
0!
0Y
#357000
1!
1Y
1,!
1A
1b
0_
17
1g
0`
1V
1:
0e
0]
1m
#358000
0!
0Y
#359000
1!
1Y
13!
06!
04!
0,!
0)!
0D
0A
0G
0E
1H
1f
0b
1_
0\
1a
10
03
01
07
04
0m
0k
1h
1e
0g
0V
0:
0e
1`
1m
#360000
0!
0Y
#361000
1!
1Y
1,!
1A
17
0`
1^
#362000
0!
0Y
#363000
1!
1Y
0,!
1+!
1B
0A
07
16
1`
#364000
0!
0Y
#365000
1!
1Y
1,!
1A
17
0`
0^
1Z
#366000
0!
0Y
#367000
1!
1Y
0,!
0+!
1*!
1C
0B
0A
07
06
15
1`
#368000
0!
0Y
#369000
1!
1Y
1,!
1A
17
0`
1^
#370000
0!
0Y
#371000
1!
1Y
0,!
1+!
1B
0A
07
16
1`
#372000
0!
0Y
#373000
1!
1Y
1,!
1A
1\
17
0`
0^
0Z
1]
#374000
0!
0Y
#375000
1!
1Y
0,!
0+!
1)!
0*!
0C
1D
0B
0A
0a
07
06
14
05
1`
#376000
0!
0Y
#377000
1!
1Y
1,!
1A
1b
0_
17
0`
1e
0]
#378000
0!
0Y
#379000
1!
1Y
16!
0,!
0)!
0D
0A
1E
0b
1_
0\
1a
13
07
04
0e
1d
1e
1`
#380000
0!
0Y
#381000
1!
1Y
1,!
1A
17
0`
1^
#382000
0!
0Y
#383000
1!
1Y
0,!
1+!
1B
0A
07
16
1`
#384000
0!
0Y
#385000
1!
1Y
1,!
1A
17
0`
0^
1Z
#386000
0!
0Y
#387000
1!
1Y
0,!
0+!
1*!
1C
0B
0A
07
06
15
1`
#388000
0!
0Y
#389000
1!
1Y
1,!
1A
17
0`
1^
#390000
0!
0Y
#391000
1!
1Y
0,!
1+!
1B
0A
07
16
1`
#392000
0!
0Y
#393000
1!
1Y
1,!
1A
1\
17
0`
0^
0Z
1]
#394000
0!
0Y
#395000
1!
1Y
0,!
0+!
1)!
0*!
0C
1D
0B
0A
0a
07
06
14
05
1`
#396000
0!
0Y
#397000
1!
1Y
1,!
1A
1b
0_
17
0`
0e
0]
#398000
0!
0Y
#399000
1!
1Y
06!
15!
0,!
0)!
0D
0A
1F
0E
0b
1_
0\
1a
03
12
07
04
1e
0e
1`
#400000
0!
0Y
#401000
1!
1Y
1,!
1A
17
0`
1^
#402000
0!
0Y
#403000
1!
1Y
0,!
1+!
1B
0A
07
16
1`
#404000
0!
0Y
#405000
1!
1Y
1,!
1A
17
0`
0^
1Z
#406000
0!
0Y
#407000
1!
1Y
0,!
0+!
1*!
1C
0B
0A
07
06
15
1`
#408000
0!
0Y
#409000
1!
1Y
1,!
1A
17
0`
1^
#410000
0!
0Y
#411000
1!
1Y
0,!
1+!
1B
0A
07
16
1`
#412000
0!
0Y
#413000
1!
1Y
1,!
1A
1\
17
0`
0^
0Z
1]
#414000
0!
0Y
#415000
1!
1Y
0,!
0+!
1)!
0*!
0C
1D
0B
0A
0a
07
06
14
05
1`
#416000
0!
0Y
#417000
1!
1Y
1,!
1A
1b
0_
17
0`
1e
0]
#418000
0!
0Y
#419000
1!
1Y
16!
0,!
0)!
0D
0A
1E
0b
1_
0\
1a
13
07
04
0e
0d
1c
1e
1`
#420000
0!
0Y
#421000
1!
1Y
1,!
1A
17
0`
1^
#422000
0!
0Y
#423000
1!
1Y
0,!
1+!
1B
0A
07
16
1`
#424000
0!
0Y
#425000
1!
1Y
1,!
1A
17
0`
0^
1Z
#426000
0!
0Y
#427000
1!
1Y
0,!
0+!
1*!
1C
0B
0A
07
06
15
1`
#428000
0!
0Y
#429000
1!
1Y
1,!
1A
17
0`
1^
#430000
0!
0Y
#431000
1!
1Y
0,!
1+!
1B
0A
07
16
1`
#432000
0!
0Y
#433000
1!
1Y
1,!
1A
1\
17
0`
0^
0Z
1]
#434000
0!
0Y
#435000
1!
1Y
0,!
0+!
1)!
0*!
0C
1D
0B
0A
0a
07
06
14
05
1`
#436000
0!
0Y
#437000
1!
1Y
1,!
1A
1b
0_
17
0`
0e
0]
#438000
0!
0Y
#439000
1!
1Y
06!
05!
14!
0,!
0)!
0D
0A
1G
0F
0E
0b
1_
0\
1a
03
02
11
07
04
1e
0e
1`
#440000
0!
0Y
#441000
1!
1Y
1,!
1A
17
0`
1^
#442000
0!
0Y
#443000
1!
1Y
0,!
1+!
1B
0A
07
16
1`
#444000
0!
0Y
#445000
1!
1Y
1,!
1A
17
0`
0^
1Z
#446000
0!
0Y
#447000
1!
1Y
0,!
0+!
1*!
1C
0B
0A
07
06
15
1`
#448000
0!
0Y
#449000
1!
1Y
1,!
1A
17
0`
1^
#450000
0!
0Y
#451000
1!
1Y
0,!
1+!
1B
0A
07
16
1`
#452000
0!
0Y
#453000
1!
1Y
1,!
1A
1\
17
0`
0^
0Z
1]
#454000
0!
0Y
#455000
1!
1Y
0,!
0+!
1)!
0*!
0C
1D
0B
0A
0a
07
06
14
05
1`
#456000
0!
0Y
#457000
1!
1Y
1,!
1A
1b
0_
17
0`
1e
0]
#458000
0!
0Y
#459000
1!
1Y
16!
0,!
0)!
0D
0A
1E
0f
0b
1_
0\
1a
13
07
04
0e
0c
1e
1`
#460000
0!
0Y
#461000
1!
1Y
1,!
1A
17
0`
1^
#462000
0!
0Y
#463000
1!
1Y
0,!
1+!
1B
0A
07
16
1`
#464000
0!
0Y
#465000
1!
1Y
1,!
1A
17
0`
0^
1Z
#466000
0!
0Y
#467000
1!
1Y
0,!
0+!
1*!
1C
0B
0A
07
06
15
1`
#468000
0!
0Y
#469000
1!
1Y
1,!
1A
17
0`
1^
#470000
0!
0Y
#471000
1!
1Y
0,!
1+!
1B
0A
07
16
1`
#472000
0!
0Y
#473000
1!
1Y
1,!
1A
1\
17
0`
0^
0Z
1]
#474000
0!
0Y
#475000
1!
1Y
0,!
0+!
1)!
0*!
0C
1D
0B
0A
0a
07
06
14
05
1`
