simulation/qsim/Projeto_2.msim.vcd
$comment
	File created using the following command:
		vcd file Projeto_2.msim.vcd -direction
$end
$date
	Wed Jul 28 23:21:12 2021
$end
$version
	ModelSim Version 2020.1
$end
$timescale
	1ps
$end

$scope module despertador_vlg_vec_tst $end
$var reg 1 ! ajuste $end
$var reg 1 " clk $end
$var reg 1 # troca_modo $end
$var reg 1 $ trocar $end
$var reg 1 % up $end
$var wire 1 & AnodeOutput [3] $end
$var wire 1 ' AnodeOutput [2] $end
$var wire 1 ( AnodeOutput [1] $end
$var wire 1 ) AnodeOutput [0] $end
$var wire 1 * digito_selecionado [3] $end
$var wire 1 + digito_selecionado [2] $end
$var wire 1 , digito_selecionado [1] $end
$var wire 1 - digito_selecionado [0] $end
$var wire 1 . horas_dezenas [3] $end
$var wire 1 / horas_dezenas [2] $end
$var wire 1 0 horas_dezenas [1] $end
$var wire 1 1 horas_dezenas [0] $end
$var wire 1 2 horas_unidades [3] $end
$var wire 1 3 horas_unidades [2] $end
$var wire 1 4 horas_unidades [1] $end
$var wire 1 5 horas_unidades [0] $end
$var wire 1 6 min_dezenas [3] $end
$var wire 1 7 min_dezenas [2] $end
$var wire 1 8 min_dezenas [1] $end
$var wire 1 9 min_dezenas [0] $end
$var wire 1 : min_unidades [3] $end
$var wire 1 ; min_unidades [2] $end
$var wire 1 < min_unidades [1] $end
$var wire 1 = min_unidades [0] $end
$var wire 1 > sec_dezenas [3] $end
$var wire 1 ? sec_dezenas [2] $end
$var wire 1 @ sec_dezenas [1] $end
$var wire 1 A sec_dezenas [0] $end
$var wire 1 B sec_unidades [3] $end
$var wire 1 C sec_unidades [2] $end
$var wire 1 D sec_unidades [1] $end
$var wire 1 E sec_unidades [0] $end
$var wire 1 F Seg7Output [6] $end
$var wire 1 G Seg7Output [5] $end
$var wire 1 H Seg7Output [4] $end
$var wire 1 I Seg7Output [3] $end
$var wire 1 J Seg7Output [2] $end
$var wire 1 K Seg7Output [1] $end
$var wire 1 L Seg7Output [0] $end
$var wire 1 M tc_horas $end
$var wire 1 N tc_minutos $end
$var wire 1 O tc_segundos $end

$scope module i1 $end
$var wire 1 P gnd $end
$var wire 1 Q vcc $end
$var wire 1 R unknown $end
$var tri1 1 S devclrn $end
$var tri1 1 T devpor $end
$var tri1 1 U devoe $end
$var wire 1 V sec_unidades[0]~output_o $end
$var wire 1 W sec_unidades[1]~output_o $end
$var wire 1 X sec_unidades[2]~output_o $end
$var wire 1 Y sec_unidades[3]~output_o $end
$var wire 1 Z sec_dezenas[0]~output_o $end
$var wire 1 [ sec_dezenas[1]~output_o $end
$var wire 1 \ sec_dezenas[2]~output_o $end
$var wire 1 ] sec_dezenas[3]~output_o $end
$var wire 1 ^ min_unidades[0]~output_o $end
$var wire 1 _ min_unidades[1]~output_o $end
$var wire 1 ` min_unidades[2]~output_o $end
$var wire 1 a min_unidades[3]~output_o $end
$var wire 1 b min_dezenas[0]~output_o $end
$var wire 1 c min_dezenas[1]~output_o $end
$var wire 1 d min_dezenas[2]~output_o $end
$var wire 1 e min_dezenas[3]~output_o $end
$var wire 1 f horas_unidades[0]~output_o $end
$var wire 1 g horas_unidades[1]~output_o $end
$var wire 1 h horas_unidades[2]~output_o $end
$var wire 1 i horas_unidades[3]~output_o $end
$var wire 1 j horas_dezenas[0]~output_o $end
$var wire 1 k horas_dezenas[1]~output_o $end
$var wire 1 l horas_dezenas[2]~output_o $end
$var wire 1 m horas_dezenas[3]~output_o $end
$var wire 1 n tc_segundos~output_o $end
$var wire 1 o tc_minutos~output_o $end
$var wire 1 p tc_horas~output_o $end
$var wire 1 q Seg7Output[0]~output_o $end
$var wire 1 r Seg7Output[1]~output_o $end
$var wire 1 s Seg7Output[2]~output_o $end
$var wire 1 t Seg7Output[3]~output_o $end
$var wire 1 u Seg7Output[4]~output_o $end
$var wire 1 v Seg7Output[5]~output_o $end
$var wire 1 w Seg7Output[6]~output_o $end
$var wire 1 x AnodeOutput[0]~output_o $end
$var wire 1 y AnodeOutput[1]~output_o $end
$var wire 1 z AnodeOutput[2]~output_o $end
$var wire 1 { AnodeOutput[3]~output_o $end
$var wire 1 | digito_selecionado[0]~output_o $end
$var wire 1 } digito_selecionado[1]~output_o $end
$var wire 1 ~ digito_selecionado[2]~output_o $end
$var wire 1 !! digito_selecionado[3]~output_o $end
$var wire 1 "! clk~input_o $end
$var wire 1 #! cont_clock|count[3]~3_combout $end
$var wire 1 $! cont_clock|count[2]~2_combout $end
$var wire 1 %! cont_clock|count[0]~1_combout $end
$var wire 1 &! cont_clock|count[1]~0_combout $end
$var wire 1 '! cont_clock|op_3~0_combout $end
$var wire 1 (! cont_clock|op_4~0_combout $end
$var wire 1 )! _~10_combout $end
$var wire 1 *! ajuste~input_o $end
$var wire 1 +! _~4_combout $end
$var wire 1 ,! troca_modo~input_o $end
$var wire 1 -! controle_modo_alarme~0_combout $end
$var wire 1 .! controle_modo_alarme~2_combout $end
$var wire 1 /! controle_modo_alarme~q $end
$var wire 1 0! mod10_seg|count[2]~3_combout $end
$var wire 1 1! tc_segundos~8_combout $end
$var wire 1 2! mod10_seg|op_2~0_combout $end
$var wire 1 3! mod10_seg|count[3]~4_combout $end
$var wire 1 4! mod10_seg|count[1]~2_combout $end
$var wire 1 5! mod10_seg|op_1~1_combout $end
$var wire 1 6! mod10_seg|count[0]~5_combout $end
$var wire 1 7! sec_unidades[0]~8_combout $end
$var wire 1 8! sec_unidades[1]~9_combout $end
$var wire 1 9! sec_unidades[2]~10_combout $end
$var wire 1 :! sec_unidades[3]~11_combout $end
$var wire 1 ;! _~5_combout $end
$var wire 1 <! mod6_seg|count[2]~2_combout $end
$var wire 1 =! tc_segundos~6_combout $end
$var wire 1 >! tc_segundos~10_combout $end
$var wire 1 ?! mod6_seg|count[1]~1_combout $end
$var wire 1 @! mod6_seg|count[0]~0_combout $end
$var wire 1 A! sec_dezenas[0]~8_combout $end
$var wire 1 B! sec_dezenas[1]~9_combout $end
$var wire 1 C! sec_dezenas[2]~10_combout $end
$var wire 1 D! trocar~input_o $end
$var wire 1 E! select_dig|digito[3]~8_combout $end
$var wire 1 F! select_dig|_~0_combout $end
$var wire 1 G! select_dig|digito[1]~5_combout $end
$var wire 1 H! select_dig|digito[0]~4_combout $end
$var wire 1 I! up~input_o $end
$var wire 1 J! _~0_combout $end
$var wire 1 K! acorda_min_u|count[2]~3_combout $end
$var wire 1 L! acorda_min_u|op_2~0_combout $end
$var wire 1 M! acorda_min_u|count[3]~4_combout $end
$var wire 1 N! acorda_min_u|count[1]~2_combout $end
$var wire 1 O! acorda_min_u|op_1~0_combout $end
$var wire 1 P! acorda_min_u|count[0]~5_combout $end
$var wire 1 Q! _~26_combout $end
$var wire 1 R! _~6_combout $end
$var wire 1 S! mod10_seg|op_1~0_combout $end
$var wire 1 T! tc_segundos~7_combout $end
$var wire 1 U! _~27_combout $end
$var wire 1 V! mod10_min|count[2]~2_combout $end
$var wire 1 W! _~33_combout $end
$var wire 1 X! mod10_min|op_2~0_combout $end
$var wire 1 Y! mod10_min|count[3]~3_combout $end
$var wire 1 Z! mod10_min|count[1]~1_combout $end
$var wire 1 [! mod10_min|op_1~0_combout $end
$var wire 1 \! mod10_min|count[0]~0_combout $end
$var wire 1 ]! min_unidades[0]~12_combout $end
$var wire 1 ^! min_unidades[1]~13_combout $end
$var wire 1 _! min_unidades[2]~14_combout $end
$var wire 1 `! min_unidades[3]~15_combout $end
$var wire 1 a! _~1_combout $end
$var wire 1 b! acorda_min_d|count[2]~2_combout $end
$var wire 1 c! acorda_min_d|count[1]~1_combout $end
$var wire 1 d! acorda_min_d|count[0]~0_combout $end
$var wire 1 e! _~7_combout $end
$var wire 1 f! mod6_min|count[2]~2_combout $end
$var wire 1 g! _~23_combout $end
$var wire 1 h! _~24_combout $end
$var wire 1 i! _~25_combout $end
$var wire 1 j! mod6_min|count[1]~1_combout $end
$var wire 1 k! mod6_min|count[0]~0_combout $end
$var wire 1 l! min_dezenas[0]~12_combout $end
$var wire 1 m! min_dezenas[1]~13_combout $end
$var wire 1 n! min_dezenas[2]~14_combout $end
$var wire 1 o! select_dig|digito[2]~6_combout $end
$var wire 1 p! _~2_combout $end
$var wire 1 q! select_dig|digito[3]~7_combout $end
$var wire 1 r! _~3_combout $end
$var wire 1 s! acorda_hora|high[0]~0_combout $end
$var wire 1 t! acorda_hora|low[1]~4_combout $end
$var wire 1 u! acorda_hora|_~1_combout $end
$var wire 1 v! acorda_hora|low[2]~5_combout $end
$var wire 1 w! acorda_hora|op_9~0_combout $end
$var wire 1 x! acorda_hora|low[3]~6_combout $end
$var wire 1 y! acorda_hora|_~0_combout $end
$var wire 1 z! acorda_hora|high[1]~1_combout $end
$var wire 1 {! acorda_hora|_~2_combout $end
$var wire 1 |! acorda_hora|low[0]~2_combout $end
$var wire 1 }! acorda_hora|low[0]~3_combout $end
$var wire 1 ~! acorda_hora|low[0]~7_combout $end
$var wire 1 !" _~8_combout $end
$var wire 1 "" tc_minutos~2_combout $end
$var wire 1 #" tc_minutos~3_combout $end
$var wire 1 $" mod24|_~13_combout $end
$var wire 1 %" mod24|op_2~0_combout $end
$var wire 1 &" _~9_combout $end
$var wire 1 '" mod24|_~8_combout $end
$var wire 1 (" _~34_combout $end
$var wire 1 )" mod24|high[0]~0_combout $end
$var wire 1 *" mod24|high[0]~1_combout $end
$var wire 1 +" mod24|_~15_combout $end
$var wire 1 ," mod24|_~14_combout $end
$var wire 1 -" mod24|op_2~1_combout $end
$var wire 1 ." mod24|low[2]~5_combout $end
$var wire 1 /" mod24|op_2~2_combout $end
$var wire 1 0" mod24|low[3]~6_combout $end
$var wire 1 1" mod24|_~10_combout $end
$var wire 1 2" mod24|_~11_combout $end
$var wire 1 3" mod24|high[0]~2_combout $end
$var wire 1 4" mod24|high[1]~3_combout $end
$var wire 1 5" mod24|high[1]~4_combout $end
$var wire 1 6" mod24|high[1]~5_combout $end
$var wire 1 7" mod24|_~12_combout $end
$var wire 1 8" mod24|high[1]~6_combout $end
$var wire 1 9" tc_horas~4_combout $end
$var wire 1 :" mod24|_~9_combout $end
$var wire 1 ;" mod24|low[1]~1_combout $end
$var wire 1 <" mod24|low[1]~2_combout $end
$var wire 1 =" mod24|low[1]~4_combout $end
$var wire 1 >" mod24|op_1~0_combout $end
$var wire 1 ?" mod24|_~6_combout $end
$var wire 1 @" mod24|_~7_combout $end
$var wire 1 A" mod24|low[1]~0_combout $end
$var wire 1 B" mod24|low[0]~3_combout $end
$var wire 1 C" horas_unidades[0]~12_combout $end
$var wire 1 D" horas_unidades[1]~13_combout $end
$var wire 1 E" horas_unidades[2]~14_combout $end
$var wire 1 F" horas_unidades[3]~15_combout $end
$var wire 1 G" horas_dezenas[0]~12_combout $end
$var wire 1 H" horas_dezenas[1]~13_combout $end
$var wire 1 I" tc_segundos~9_combout $end
$var wire 1 J" tc_horas~5_combout $end
$var wire 1 K" tc_horas~6_combout $end
$var wire 1 L" refresh_clock|mod5|_~4_combout $end
$var wire 1 M" refresh_clock|mod5|_~3_combout $end
$var wire 1 N" refresh_clock|mod5|_~2_combout $end
$var wire 1 O" refresh_clock|mod5|_~0_combout $end
$var wire 1 P" refresh_clock|mod5_2|_~4_combout $end
$var wire 1 Q" refresh_clock|mod5_2|_~3_combout $end
$var wire 1 R" refresh_clock|mod5_2|_~2_combout $end
$var wire 1 S" refresh_clock|mod5_2|_~0_combout $end
$var wire 1 T" refresh_clock|mod5_3|_~4_combout $end
$var wire 1 U" refresh_clock|mod5_3|_~3_combout $end
$var wire 1 V" refresh_clock|mod5_3|_~2_combout $end
$var wire 1 W" refresh_clock|mod5_3|_~0_combout $end
$var wire 1 X" refresh_clock|mod5_4|_~4_combout $end
$var wire 1 Y" refresh_clock|mod5_4|_~3_combout $end
$var wire 1 Z" refresh_clock|mod5_4|_~2_combout $end
$var wire 1 [" refresh_clock|mod5_4|_~0_combout $end
$var wire 1 \" refresh_clock|mod10|_~3_combout $end
$var wire 1 ]" refresh_clock|mod10|_~5_combout $end
$var wire 1 ^" refresh_clock|mod10|_~4_combout $end
$var wire 1 _" refresh_clock|mod10|_~2_combout $end
$var wire 1 `" refresh_clock|mod10|_~0_combout $end
$var wire 1 a" refresh_clock|clk_saida~0_combout $end
$var wire 1 b" refresh_clock|clk_saida~q $end
$var wire 1 c" chaveador|count[0]~1_combout $end
$var wire 1 d" chaveador|_~0_combout $end
$var wire 1 e" mux|_~0_combout $end
$var wire 1 f" mux|_~1_combout $end
$var wire 1 g" mux|dout[1]~18_combout $end
$var wire 1 h" mux|dout[1]~19_combout $end
$var wire 1 i" mux|dout[1]~20_combout $end
$var wire 1 j" mux|dout[2]~21_combout $end
$var wire 1 k" mux|dout[0]~22_combout $end
$var wire 1 l" mux|dout[0]~23_combout $end
$var wire 1 m" mux|_~2_combout $end
$var wire 1 n" bcd_7Seg_dec|a~combout $end
$var wire 1 o" bcd_7Seg_dec|b~1_combout $end
$var wire 1 p" bcd_7Seg_dec|_~0_combout $end
$var wire 1 q" bcd_7Seg_dec|d~2_combout $end
$var wire 1 r" bcd_7Seg_dec|e~1_combout $end
$var wire 1 s" bcd_7Seg_dec|f~0_combout $end
$var wire 1 t" bcd_7Seg_dec|g~1_combout $end
$var wire 1 u" mux|_~3_combout $end
$var wire 1 v" mod10_seg|count [3] $end
$var wire 1 w" mod10_seg|count [2] $end
$var wire 1 x" mod10_seg|count [1] $end
$var wire 1 y" mod10_seg|count [0] $end
$var wire 1 z" acorda_hora|low [3] $end
$var wire 1 {" acorda_hora|low [2] $end
$var wire 1 |" acorda_hora|low [1] $end
$var wire 1 }" acorda_hora|low [0] $end
$var wire 1 ~" mod6_seg|count [3] $end
$var wire 1 !# mod6_seg|count [2] $end
$var wire 1 "# mod6_seg|count [1] $end
$var wire 1 ## mod6_seg|count [0] $end
$var wire 1 $# acorda_min_u|count [3] $end
$var wire 1 %# acorda_min_u|count [2] $end
$var wire 1 &# acorda_min_u|count [1] $end
$var wire 1 '# acorda_min_u|count [0] $end
$var wire 1 (# acorda_min_d|count [3] $end
$var wire 1 )# acorda_min_d|count [2] $end
$var wire 1 *# acorda_min_d|count [1] $end
$var wire 1 +# acorda_min_d|count [0] $end
$var wire 1 ,# mod10_min|count [3] $end
$var wire 1 -# mod10_min|count [2] $end
$var wire 1 .# mod10_min|count [1] $end
$var wire 1 /# mod10_min|count [0] $end
$var wire 1 0# mod6_min|count [3] $end
$var wire 1 1# mod6_min|count [2] $end
$var wire 1 2# mod6_min|count [1] $end
$var wire 1 3# mod6_min|count [0] $end
$var wire 1 4# acorda_hora|high [3] $end
$var wire 1 5# acorda_hora|high [2] $end
$var wire 1 6# acorda_hora|high [1] $end
$var wire 1 7# acorda_hora|high [0] $end
$var wire 1 8# mod24|low [3] $end
$var wire 1 9# mod24|low [2] $end
$var wire 1 :# mod24|low [1] $end
$var wire 1 ;# mod24|low [0] $end
$var wire 1 <# mod24|high [3] $end
$var wire 1 =# mod24|high [2] $end
$var wire 1 ># mod24|high [1] $end
$var wire 1 ?# mod24|high [0] $end
$var wire 1 @# chaveador|count [1] $end
$var wire 1 A# chaveador|count [0] $end
$var wire 1 B# mux|dout [3] $end
$var wire 1 C# mux|dout [2] $end
$var wire 1 D# mux|dout [1] $end
$var wire 1 E# mux|dout [0] $end
$var wire 1 F# select_dig|count [2] $end
$var wire 1 G# select_dig|count [1] $end
$var wire 1 H# select_dig|count [0] $end
$var wire 1 I# cont_clock|count [3] $end
$var wire 1 J# cont_clock|count [2] $end
$var wire 1 K# cont_clock|count [1] $end
$var wire 1 L# cont_clock|count [0] $end
$var wire 1 M# refresh_clock|mod10|count [3] $end
$var wire 1 N# refresh_clock|mod10|count [2] $end
$var wire 1 O# refresh_clock|mod10|count [1] $end
$var wire 1 P# refresh_clock|mod10|count [0] $end
$var wire 1 Q# refresh_clock|mod5_4|count [2] $end
$var wire 1 R# refresh_clock|mod5_4|count [1] $end
$var wire 1 S# refresh_clock|mod5_4|count [0] $end
$var wire 1 T# refresh_clock|mod5_3|count [2] $end
$var wire 1 U# refresh_clock|mod5_3|count [1] $end
$var wire 1 V# refresh_clock|mod5_3|count [0] $end
$var wire 1 W# refresh_clock|mod5_2|count [2] $end
$var wire 1 X# refresh_clock|mod5_2|count [1] $end
$var wire 1 Y# refresh_clock|mod5_2|count [0] $end
$var wire 1 Z# refresh_clock|mod5|count [2] $end
$var wire 1 [# refresh_clock|mod5|count [1] $end
$var wire 1 \# refresh_clock|mod5|count [0] $end
$upscope $end
$upscope $end
$enddefinitions $end
#0
$dumpvars
1!
0"
0#
0$
0%
1)
1(
1'
0&
0-
0,
0+
0*
01
00
0/
0.
05
04
03
02
09
08
07
06
0=
0<
0;
0:
0A
0@
0?
0>
0E
0D
0C
0B
0L
0K
0J
0I
0H
0G
1F
0M
0N
0O
0P
1Q
xR
1S
1T
1U
0V
0W
0X
0Y
0Z
0[
0\
0]
0^
0_
0`
0a
0b
0c
0d
0e
0f
0g
0h
0i
0j
0k
0l
0m
0n
0o
0p
0q
0r
0s
0t
0u
0v
1w
1x
1y
1z
0{
0|
0}
0~
0!!
0"!
0#!
0$!
1%!
0&!
1'!
0(!
0)!
1*!
0+!
0,!
0-!
1.!
0/!
00!
01!
02!
03!
04!
15!
16!
07!
08!
09!
0:!
0;!
0<!
0=!
0>!
0?!
0@!
0A!
0B!
0C!
0D!
1E!
0F!
0G!
0H!
0I!
0J!
0K!
0L!
0M!
0N!
1O!
0P!
1Q!
0R!
1S!
0T!
0U!
0V!
1W!
0X!
0Y!
0Z!
1[!
1\!
0]!
0^!
0_!
0`!
0a!
0b!
0c!
0d!
0e!
0f!
0g!
1h!
1i!
0j!
1k!
0l!
0m!
0n!
0o!
0p!
0q!
0r!
0s!
0t!
1u!
0v!
0w!
0x!
0y!
0z!
0{!
1|!
0}!
0~!
0!"
0""
0#"
0$"
0%"
0&"
0'"
1("
0)"
1*"
0+"
0,"
0-"
0."
0/"
00"
01"
02"
13"
04"
05"
06"
07"
08"
09"
0:"
1;"
1<"
0="
1>"
1?"
0@"
0A"
1B"
0C"
0D"
0E"
0F"
0G"
0H"
0I"
0J"
0K"
1L"
0M"
0N"
0O"
1P"
0Q"
0R"
0S"
1T"
0U"
0V"
0W"
1X"
0Y"
0Z"
0["
1\"
0]"
0^"
0_"
0`"
1a"
0b"
1c"
0d"
0e"
0f"
1g"
1h"
1i"
0j"
0k"
0l"
0m"
0n"
0o"
0p"
0q"
0r"
0s"
1t"
0u"
0y"
0x"
0w"
0v"
0}"
0|"
0{"
0z"
0##
0"#
0!#
z~"
0'#
0&#
0%#
0$#
0+#
0*#
0)#
z(#
0/#
0.#
0-#
0,#
03#
02#
01#
z0#
07#
06#
z5#
z4#
0;#
0:#
09#
08#
0?#
0>#
z=#
z<#
0A#
0@#
0E#
zD#
0C#
0B#
0H#
0G#
0F#
0L#
0K#
0J#
0I#
0P#
0O#
0N#
0M#
0S#
0R#
0Q#
0V#
0U#
0T#
0Y#
0X#
0W#
0\#
0[#
0Z#
$end
#1000
1"
1"!
1\#
1L#
1M"
0L"
1&!
0%!
#2000
0"
0"!
#2500
1%
1I!
#3000
1"
1"!
1[#
0\#
1K#
0L#
1(!
1L"
1%!
#4000
0"
0"!
#5000
0%
1"
0I!
1"!
1\#
1L#
1N"
0M"
0L"
0&!
0%!
1$!
#6000
0"
0"!
#7000
1"
1"!
1Z#
0[#
0\#
0K#
0L#
1J#
1O"
0N"
1%!
1Y#
1Q"
0P"
#7500
1%
1I!
#8000
0"
0"!
#9000
1"
1"!
0Z#
1L#
0'!
0O"
1L"
1&!
0%!
1)!
#10000
1$
0%
0"
0I!
1D!
0"!
1H#
1q!
1F!
0E!
1!!
1*
#11000
1"
1"!
1\#
1K#
0L#
1M"
0L"
1%!
#12000
0"
0"!
#12500
1%
1I!
1&"
1?#
0?"
14"
0*"
1'"
1G"
1j
16"
1k"
11
03"
1E#
18"
1s"
1r"
1q"
1n"
1q
1t
1u
1v
1G
1H
1I
1L
#13000
1"
1"!
1[#
0\#
1L#
1L"
0&!
0%!
0$!
1#!
#14000
0"
0"!
#15000
0%
1"
0I!
1"!
0&"
1\#
0K#
0L#
0J#
1I#
0(!
1'!
0)!
1N"
0M"
0L"
1%!
1)!
#16000
0"
0"!
#17000
1"
1"!
1Z#
0[#
0\#
1L#
1O"
0N"
1&!
0%!
1X#
0Y#
1P"
#17500
1%
1I!
1&"
1>#
0?#
0;"
19"
04"
0'"
1H"
0G"
0j
1k
0<"
1:"
06"
0h"
0k"
10
01
1;"
0i"
0E#
0B"
08"
1<"
0t"
0r"
0q"
1p"
0n"
0q
1s
0t
0u
0w
0F
0H
0I
1J
0L
1B"
#18000
0"
0"!
#19000
1"
1"!
0Z#
1K#
0L#
1(!
0O"
1L"
0&!
0#!
0)!
#20000
0$
0%
0"
0I!
0D!
0"!
0&"
#21000
1"
1"!
1\#
0K#
0I#
0(!
1M"
0L"
1%!
#22000
0"
0"!
#22500
1%
1I!
1&"
0>#
1?"
09"
1*"
0H"
0k
0:"
1h"
00
13"
1i"
1t"
0s"
0p"
0s
0v
1w
1F
0G
0J
#23000
1"
1"!
1[#
0\#
1L#
1L"
1&!
0%!
#24000
0"
0"!
#25000
0%
1"
0I!
1"!
0&"
1\#
1K#
0L#
1(!
1N"
0M"
0L"
1%!
#26000
0"
0"!
#27000
1"
1"!
1Z#
0[#
0\#
1L#
1O"
0N"
0&!
0%!
1$!
1Y#
1R"
0Q"
0P"
#27500
1%
1I!
1&"
1?#
0?"
14"
0*"
1'"
1G"
1j
16"
1k"
11
03"
1E#
18"
1s"
1r"
1q"
1n"
1q
1t
1u
1v
1G
1H
1I
1L
#28000
0"
0"!
#29000
1"
1"!
0Z#
0K#
0L#
1J#
0O"
1L"
1%!
#30000
1$
0%
0"
0I!
1D!
0"!
0&"
1G#
0H#
0q!
1o!
1E!
1~
0!!
0*
1+
#31000
1"
1"!
1\#
1L#
0'!
1M"
0L"
1&!
0%!
1)!
#32000
0"
0"!
#32500
1%
1I!
1!"
1;#
1%"
1C"
0B"
1f
15
1="
#33000
1"
1"!
1[#
0\#
1K#
0L#
1L"
1%!
#34000
0"
0"!
#35000
0%
1"
0I!
1"!
0!"
1\#
1L#
1N"
0M"
0L"
0&!
0%!
0$!
1#!
#36000
0"
0"!
#37000
1"
1"!
1Z#
0[#
0\#
0K#
0L#
0J#
1I#
0(!
1'!
0)!
1O"
0N"
1%!
1)!
1W#
0X#
0Y#
1S"
0R"
1V#
1U"
0T"
#37500
1%
1I!
1!"
0;#
1:#
0C"
1B"
1D"
1g
0f
05
14
#38000
0"
0"!
#39000
1"
1"!
0Z#
1L#
0O"
1L"
1&!
0%!
#40000
0$
0%
0"
0I!
0D!
0"!
0!"
#41000
1"
1"!
1\#
1K#
0L#
1(!
1M"
0L"
0&!
0#!
0)!
#42000
0"
0"!
#42500
1%
1I!
1!"
1;#
1-"
0%"
1C"
0B"
1f
15
1."
0="
#43000
1"
1"!
1[#
0\#
0K#
0I#
0(!
1L"
1%!
#44000
0"
0"!
#45000
0%
1"
0I!
1"!
0!"
1\#
1L#
1N"
0M"
0L"
1&!
0%!
#46000
0"
0"!
#47000
1"
1"!
1Z#
0[#
0\#
1K#
0L#
1(!
1O"
0N"
1%!
0W#
0S"
1P"
#47500
1%
1I!
1!"
0;#
0:#
19#
04"
0C"
1B"
0D"
1E"
1h
0g
0f
06"
05
04
13
08"
#48000
0"
0"!
#49000
1"
1"!
0Z#
1L#
0O"
1L"
0&!
0%!
1$!
#50000
1$
0%
0"
0I!
1D!
0"!
0!"
1H#
0o!
1G!
0F!
0E!
1}
0~
0+
1,
#51000
1"
1"!
1\#
0K#
0L#
1J#
1M"
0L"
1%!
#52000
0"
0"!
#52500
1%
1I!
1e!
13#
1l!
0k!
1j!
1b
19
#53000
1"
1"!
1[#
0\#
1L#
0'!
1L"
1&!
0%!
1)!
#54000
0"
0"!
#55000
0%
1"
0I!
1"!
0e!
1\#
1K#
0L#
1N"
0M"
0L"
1%!
#56000
0"
0"!
#57000
1"
1"!
1Z#
0[#
0\#
1L#
1O"
0N"
0&!
0%!
0$!
1#!
1Y#
1Q"
0P"
#57500
1%
1I!
1e!
03#
12#
0l!
1k!
1m!
1c
0b
09
18
#58000
0"
0"!
#59000
1"
1"!
0Z#
0K#
0L#
0J#
1I#
0(!
1'!
0)!
0O"
1L"
1%!
1)!
#60000
0$
0%
0"
0I!
0D!
0"!
0e!
#61000
1"
1"!
1\#
1L#
1M"
0L"
1&!
0%!
#62000
0"
0"!
#62500
1%
1I!
1e!
13#
1l!
0k!
0j!
1f!
1b
19
#63000
1"
1"!
1[#
0\#
1K#
0L#
1(!
1L"
0&!
0#!
0)!
#64000
0"
0"!
#65000
0%
1"
0I!
1"!
0e!
1\#
0K#
0I#
0(!
1N"
0M"
0L"
1%!
#66000
0"
0"!
#67000
1"
1"!
1Z#
0[#
0\#
1L#
1O"
0N"
1&!
0%!
1X#
0Y#
1P"
#67500
1%
1I!
1e!
03#
02#
11#
0l!
1k!
0m!
1n!
1d
0c
0b
09
08
17
#68000
0"
0"!
#69000
1"
1"!
0Z#
1K#
0L#
1(!
0O"
1L"
1%!
#70000
1$
0%
0"
0I!
1D!
0"!
0e!
1F#
0G#
0H#
1H!
0G!
1E!
0}
1|
1-
0,
#71000
1"
1"!
1\#
1L#
1M"
0L"
0&!
0%!
1$!
#72000
0"
0"!
#72500
1%
1I!
1R!
1/#
1]!
0\!
1Z!
1^
1=
#73000
1"
1"!
1[#
0\#
0K#
0L#
1J#
1L"
1%!
#74000
0"
0"!
#75000
0%
1"
0I!
1"!
0R!
1\#
1L#
0'!
1N"
0M"
0L"
1&!
0%!
1)!
#76000
0"
0"!
#77000
1"
1"!
1Z#
0[#
0\#
1K#
0L#
1O"
0N"
1%!
1Y#
1R"
0Q"
0P"
#77500
1%
1I!
1R!
0/#
1.#
0]!
1\!
1^!
1_
0^
0=
1<
#78000
0"
0"!
#79000
1"
1"!
0Z#
1L#
0O"
1L"
0&!
0%!
0$!
1#!
#80000
0$
0%
0"
0I!
0D!
0"!
0R!
#81000
1"
1"!
1\#
0K#
0L#
0J#
1I#
0(!
1'!
0)!
1M"
0L"
1%!
1)!
#82000
0"
0"!
#82500
1%
1I!
1R!
1/#
1]!
0\!
0Z!
1V!
1^
1=
#83000
1"
1"!
1[#
0\#
1L#
1L"
1&!
0%!
#84000
0"
0"!
#85000
0%
1"
0I!
1"!
0R!
1\#
1K#
0L#
1(!
1N"
0M"
0L"
0&!
0#!
0)!
#86000
0"
0"!
#87000
1"
1"!
1Z#
0[#
0\#
0K#
0I#
0(!
1O"
0N"
1%!
1W#
0X#
0Y#
1S"
0R"
1U#
0V#
1T"
#87500
1%
1I!
1R!
0/#
0.#
1-#
0]!
1\!
0^!
1_!
1`
0_
0^
0=
0<
1;
#88000
0"
0"!
#89000
1"
1"!
0Z#
1L#
0O"
1L"
1&!
0%!
#90000
1$
0%
0"
0I!
1D!
0"!
0R!
0F#
1H#
1q!
0H!
1F!
0E!
0|
1!!
1*
0-
#91000
1"
1"!
1\#
1K#
0L#
1(!
1M"
0L"
1%!
#92000
0"
0"!
#92500
1%
1I!
1&"
0?#
1?"
1*"
0'"
0G"
0j
0k"
01
13"
0E#
0s"
0r"
0q"
0n"
0q
0t
0u
0v
0G
0H
0I
0L
#93000
1"
1"!
1[#
0\#
1L#
1L"
0&!
0%!
1$!
#94000
0"
0"!
#95000
0%
1"
0I!
1"!
0&"
1\#
0K#
0L#
1J#
1N"
0M"
0L"
1%!
#96000
0"
0"!
#97000
1"
1"!
1Z#
0[#
0\#
1L#
0'!
1O"
0N"
1&!
0%!
1)!
0W#
0S"
1P"
#97500
1%
1I!
1&"
1?#
0?"
0*"
1'"
1G"
1j
1k"
11
03"
1E#
1s"
1r"
1q"
1n"
1q
1t
1u
1v
1G
1H
1I
1L
#98000
0"
0"!
#99000
1"
1"!
0Z#
1K#
0L#
0O"
1L"
1%!
#100000
0$
0%
0"
0I!
0D!
0"!
0&"
#101000
1"
1"!
1\#
1L#
1M"
0L"
0&!
0%!
0$!
1#!
#102000
0"
0"!
#102500
1%
1I!
1&"
0?#
1?"
1*"
0'"
0G"
0j
0k"
01
13"
0E#
0s"
0r"
0q"
0n"
0q
0t
0u
0v
0G
0H
0I
0L
#103000
1"
1"!
1[#
0\#
0K#
0L#
0J#
1I#
0(!
1'!
0)!
1L"
1%!
1)!
#104000
0"
0"!
#105000
0%
1"
0I!
1"!
0&"
1\#
1L#
1N"
0M"
0L"
1&!
0%!
#106000
0"
0"!
#107000
1"
1"!
1Z#
0[#
0\#
1K#
0L#
1(!
1O"
0N"
0&!
0#!
0)!
1Y#
1Q"
0P"
#107500
1%
1I!
1&"
1?#
0?"
0*"
1'"
1G"
1j
1k"
11
03"
1E#
1s"
1r"
1q"
1n"
1q
1t
1u
1v
1G
1H
1I
1L
#108000
0"
0"!
#109000
1"
1"!
0Z#
0K#
0I#
0(!
0O"
1L"
1%!
#110000
1$
0%
0"
0I!
1D!
0"!
0&"
1G#
0H#
0q!
1o!
1E!
1~
0!!
0*
1+
#111000
1"
1"!
1\#
1L#
1M"
0L"
1&!
0%!
#112000
0"
0"!
#112500
1%
1I!
1!"
1;#
1%"
1C"
0B"
1f
15
1="
#113000
1"
1"!
1[#
0\#
1K#
0L#
1(!
1L"
1%!
#114000
0"
0"!
#115000
0%
1"
0I!
1"!
0!"
1\#
1L#
1N"
0M"
0L"
0&!
0%!
1$!
#116000
0"
0"!
#117000
1"
1"!
1Z#
0[#
0\#
0K#
0L#
1J#
1O"
0N"
1%!
1X#
0Y#
1P"
