simulation/qsim/Projeto_2.msim.vcd
$comment
	File created using the following command:
		vcd file Projeto_2.msim.vcd -direction
$end
$date
	Fri Jul 30 16:29:51 2021
$end
$version
	ModelSim Version 2020.1
$end
$timescale
	1ps
$end

$scope module despertador_vlg_vec_tst $end
$var reg 1 ! ajuste $end
$var reg 1 " clk $end
$var reg 1 # troca_modo $end
$var reg 1 $ trocar $end
$var reg 1 % up $end
$var wire 1 & AnodeOutput [3] $end
$var wire 1 ' AnodeOutput [2] $end
$var wire 1 ( AnodeOutput [1] $end
$var wire 1 ) AnodeOutput [0] $end
$var wire 1 * digito_selecionado [3] $end
$var wire 1 + digito_selecionado [2] $end
$var wire 1 , digito_selecionado [1] $end
$var wire 1 - digito_selecionado [0] $end
$var wire 1 . horas_dezenas [3] $end
$var wire 1 / horas_dezenas [2] $end
$var wire 1 0 horas_dezenas [1] $end
$var wire 1 1 horas_dezenas [0] $end
$var wire 1 2 horas_unidades [3] $end
$var wire 1 3 horas_unidades [2] $end
$var wire 1 4 horas_unidades [1] $end
$var wire 1 5 horas_unidades [0] $end
$var wire 1 6 min_dezenas [3] $end
$var wire 1 7 min_dezenas [2] $end
$var wire 1 8 min_dezenas [1] $end
$var wire 1 9 min_dezenas [0] $end
$var wire 1 : min_unidades [3] $end
$var wire 1 ; min_unidades [2] $end
$var wire 1 < min_unidades [1] $end
$var wire 1 = min_unidades [0] $end
$var wire 1 > sec_dezenas [3] $end
$var wire 1 ? sec_dezenas [2] $end
$var wire 1 @ sec_dezenas [1] $end
$var wire 1 A sec_dezenas [0] $end
$var wire 1 B sec_unidades [3] $end
$var wire 1 C sec_unidades [2] $end
$var wire 1 D sec_unidades [1] $end
$var wire 1 E sec_unidades [0] $end
$var wire 1 F Seg7Output [6] $end
$var wire 1 G Seg7Output [5] $end
$var wire 1 H Seg7Output [4] $end
$var wire 1 I Seg7Output [3] $end
$var wire 1 J Seg7Output [2] $end
$var wire 1 K Seg7Output [1] $end
$var wire 1 L Seg7Output [0] $end
$var wire 1 M tc_horas $end
$var wire 1 N tc_minutos $end
$var wire 1 O tc_segundos $end

$scope module i1 $end
$var wire 1 P gnd $end
$var wire 1 Q vcc $end
$var wire 1 R unknown $end
$var tri1 1 S devclrn $end
$var tri1 1 T devpor $end
$var tri1 1 U devoe $end
$var wire 1 V sec_unidades[0]~output_o $end
$var wire 1 W sec_unidades[1]~output_o $end
$var wire 1 X sec_unidades[2]~output_o $end
$var wire 1 Y sec_unidades[3]~output_o $end
$var wire 1 Z sec_dezenas[0]~output_o $end
$var wire 1 [ sec_dezenas[1]~output_o $end
$var wire 1 \ sec_dezenas[2]~output_o $end
$var wire 1 ] sec_dezenas[3]~output_o $end
$var wire 1 ^ min_unidades[0]~output_o $end
$var wire 1 _ min_unidades[1]~output_o $end
$var wire 1 ` min_unidades[2]~output_o $end
$var wire 1 a min_unidades[3]~output_o $end
$var wire 1 b min_dezenas[0]~output_o $end
$var wire 1 c min_dezenas[1]~output_o $end
$var wire 1 d min_dezenas[2]~output_o $end
$var wire 1 e min_dezenas[3]~output_o $end
$var wire 1 f horas_unidades[0]~output_o $end
$var wire 1 g horas_unidades[1]~output_o $end
$var wire 1 h horas_unidades[2]~output_o $end
$var wire 1 i horas_unidades[3]~output_o $end
$var wire 1 j horas_dezenas[0]~output_o $end
$var wire 1 k horas_dezenas[1]~output_o $end
$var wire 1 l horas_dezenas[2]~output_o $end
$var wire 1 m horas_dezenas[3]~output_o $end
$var wire 1 n tc_segundos~output_o $end
$var wire 1 o tc_minutos~output_o $end
$var wire 1 p tc_horas~output_o $end
$var wire 1 q Seg7Output[0]~output_o $end
$var wire 1 r Seg7Output[1]~output_o $end
$var wire 1 s Seg7Output[2]~output_o $end
$var wire 1 t Seg7Output[3]~output_o $end
$var wire 1 u Seg7Output[4]~output_o $end
$var wire 1 v Seg7Output[5]~output_o $end
$var wire 1 w Seg7Output[6]~output_o $end
$var wire 1 x AnodeOutput[0]~output_o $end
$var wire 1 y AnodeOutput[1]~output_o $end
$var wire 1 z AnodeOutput[2]~output_o $end
$var wire 1 { AnodeOutput[3]~output_o $end
$var wire 1 | digito_selecionado[0]~output_o $end
$var wire 1 } digito_selecionado[1]~output_o $end
$var wire 1 ~ digito_selecionado[2]~output_o $end
$var wire 1 !! digito_selecionado[3]~output_o $end
$var wire 1 "! up~input_o $end
$var wire 1 #! troca_modo~input_o $end
$var wire 1 $! ajuste~input_o $end
$var wire 1 %! controle_modo_alarme~0_combout $end
$var wire 1 &! controle_modo_alarme~2_combout $end
$var wire 1 '! controle_modo_alarme~q $end
$var wire 1 (! trocar~input_o $end
$var wire 1 )! select_dig|count[2]~feeder_combout $end
$var wire 1 *! select_dig|digito[3]~8_combout $end
$var wire 1 +! select_dig|_~0_combout $end
$var wire 1 ,! select_dig|digito[1]~5_combout $end
$var wire 1 -! _~2_combout $end
$var wire 1 .! acorda_min_d|count[1]~4_combout $end
$var wire 1 /! acorda_min_d|op_2~0_combout $end
$var wire 1 0! acorda_min_d|count[2]~1_combout $end
$var wire 1 1! acorda_min_d|op_2~1_combout $end
$var wire 1 2! acorda_min_d|count[3]~2_combout $end
$var wire 1 3! acorda_min_d|count[1]~0_combout $end
$var wire 1 4! acorda_min_d|count[0]~3_combout $end
$var wire 1 5! _~11_combout $end
$var wire 1 6! _~8_combout $end
$var wire 1 7! mod6_min|count[2]~1_combout $end
$var wire 1 8! tc_segundos~4_combout $end
$var wire 1 9! mod10_seg|count[2]~3_combout $end
$var wire 1 :! mod10_seg|count[3]~5_combout $end
$var wire 1 ;! mod10_seg|count[3]~4_combout $end
$var wire 1 <! mod10_seg|count[3]~6_combout $end
$var wire 1 =! mod10_seg|count[1]~2_combout $end
$var wire 1 >! tc_segundos~2_combout $end
$var wire 1 ?! clk~input_o $end
$var wire 1 @! cont_clock|count[0]~1_combout $end
$var wire 1 A! cont_clock|count[3]~3_combout $end
$var wire 1 B! cont_clock|count[2]~2_combout $end
$var wire 1 C! cont_clock|count[1]~0_combout $end
$var wire 1 D! cont_clock|op_4~0_combout $end
$var wire 1 E! cont_clock|op_3~0_combout $end
$var wire 1 F! cont_clock|flag~0_combout $end
$var wire 1 G! _~6_combout $end
$var wire 1 H! _~6clkctrl_outclk $end
$var wire 1 I! tc_segundos~6_combout $end
$var wire 1 J! mod6_seg|count[1]~1_combout $end
$var wire 1 K! mod6_seg|count[2]~2_combout $end
$var wire 1 L! mod6_seg|op_2~0_combout $end
$var wire 1 M! mod6_seg|count[3]~3_combout $end
$var wire 1 N! mod6_seg|op_1~0_combout $end
$var wire 1 O! mod6_seg|count[0]~0_combout $end
$var wire 1 P! tc_segundos~3_combout $end
$var wire 1 Q! _~12_combout $end
$var wire 1 R! select_dig|digito[0]~4_combout $end
$var wire 1 S! _~7_combout $end
$var wire 1 T! mod10_min|op_1~0_combout $end
$var wire 1 U! mod10_min|count[0]~3_combout $end
$var wire 1 V! mod10_min|count[1]~2_combout $end
$var wire 1 W! mod10_min|op_2~0_combout $end
$var wire 1 X! mod10_min|count[3]~0_combout $end
$var wire 1 Y! mod10_min|count[2]~1_combout $end
$var wire 1 Z! _~13_combout $end
$var wire 1 [! _~15_combout $end
$var wire 1 \! mod6_min|op_1~0_combout $end
$var wire 1 ]! mod6_min|count[0]~3_combout $end
$var wire 1 ^! mod6_min|op_2~0_combout $end
$var wire 1 _! mod6_min|count[3]~0_combout $end
$var wire 1 `! mod6_min|count[1]~2_combout $end
$var wire 1 a! comparador~5_combout $end
$var wire 1 b! _~1_combout $end
$var wire 1 c! acorda_min_u|op_2~0_combout $end
$var wire 1 d! acorda_min_u|count[2]~0_combout $end
$var wire 1 e! acorda_min_u|op_1~0_combout $end
$var wire 1 f! acorda_min_u|count[0]~2_combout $end
$var wire 1 g! acorda_min_u|count[1]~3_combout $end
$var wire 1 h! acorda_min_u|op_2~1_combout $end
$var wire 1 i! acorda_min_u|count[3]~1_combout $end
$var wire 1 j! comparador~6_combout $end
$var wire 1 k! comparador~7_combout $end
$var wire 1 l! comparador~8_combout $end
$var wire 1 m! comparador~9_combout $end
$var wire 1 n! sec_unidades[0]~12_combout $end
$var wire 1 o! select_dig|digito[3]~7_combout $end
$var wire 1 p! _~4_combout $end
$var wire 1 q! acorda_hora|high[0]~0_combout $end
$var wire 1 r! select_dig|digito[2]~6_combout $end
$var wire 1 s! _~3_combout $end
$var wire 1 t! acorda_hora|op_9~1_combout $end
$var wire 1 u! acorda_hora|low[3]~2_combout $end
$var wire 1 v! acorda_hora|_~1_combout $end
$var wire 1 w! acorda_hora|_~2_combout $end
$var wire 1 x! acorda_hora|low[3]~0_combout $end
$var wire 1 y! acorda_hora|low[0]~3_combout $end
$var wire 1 z! acorda_hora|low[1]~4_combout $end
$var wire 1 {! acorda_hora|op_9~0_combout $end
$var wire 1 |! acorda_hora|low[2]~1_combout $end
$var wire 1 }! acorda_hora|_~0_combout $end
$var wire 1 ~! acorda_hora|high[1]~1_combout $end
$var wire 1 !" _~10_combout $end
$var wire 1 "" mod24|_~7_combout $end
$var wire 1 #" tc_minutos~2_combout $end
$var wire 1 $" tc_minutos~3_combout $end
$var wire 1 %" _~14_combout $end
$var wire 1 &" _~9_combout $end
$var wire 1 '" mod24|_~8_combout $end
$var wire 1 (" mod24|low[0]~7_combout $end
$var wire 1 )" mod24|_~2_combout $end
$var wire 1 *" mod24|_~3_combout $end
$var wire 1 +" mod24|low[2]~3_combout $end
$var wire 1 ," mod24|low[2]~5_combout $end
$var wire 1 -" mod24|op_1~0_combout $end
$var wire 1 ." mod24|low[3]~1_combout $end
$var wire 1 /" mod24|op_2~0_combout $end
$var wire 1 0" mod24|low[3]~2_combout $end
$var wire 1 1" mod24|_~12_combout $end
$var wire 1 2" tc_horas~3_combout $end
$var wire 1 3" mod24|_~14_combout $end
$var wire 1 4" mod24|low[3]~0_combout $end
$var wire 1 5" mod24|low[2]~4_combout $end
$var wire 1 6" mod24|low[1]~6_combout $end
$var wire 1 7" mod24|_~10_combout $end
$var wire 1 8" mod24|_~13_combout $end
$var wire 1 9" mod24|low[0]~8_combout $end
$var wire 1 :" mod24|low[0]~9_combout $end
$var wire 1 ;" mod24|_~5_combout $end
$var wire 1 <" mod24|_~11_combout $end
$var wire 1 =" mod24|_~4_combout $end
$var wire 1 >" mod24|high[0]~8_combout $end
$var wire 1 ?" mod24|high[0]~6_combout $end
$var wire 1 @" mod24|high[0]~7_combout $end
$var wire 1 A" mod24|_~6_combout $end
$var wire 1 B" mod24|_~9_combout $end
$var wire 1 C" mod24|high[1]~3_combout $end
$var wire 1 D" mod24|high[1]~4_combout $end
$var wire 1 E" mod24|high[1]~2_combout $end
$var wire 1 F" mod24|high[1]~5_combout $end
$var wire 1 G" comparador~0_combout $end
$var wire 1 H" comparador~1_combout $end
$var wire 1 I" comparador~2_combout $end
$var wire 1 J" comparador~3_combout $end
$var wire 1 K" comparador~4_combout $end
$var wire 1 L" _~5_combout $end
$var wire 1 M" _~5clkctrl_outclk $end
$var wire 1 N" mod10_seg|count[0]~0_combout $end
$var wire 1 O" mod10_seg|count[0]~1_combout $end
$var wire 1 P" sec_unidades[0]~13_combout $end
$var wire 1 Q" sec_unidades[1]~14_combout $end
$var wire 1 R" sec_unidades[2]~15_combout $end
$var wire 1 S" sec_unidades[3]~16_combout $end
$var wire 1 T" sec_dezenas[0]~12_combout $end
$var wire 1 U" sec_dezenas[1]~13_combout $end
$var wire 1 V" sec_dezenas[2]~14_combout $end
$var wire 1 W" sec_dezenas[3]~15_combout $end
$var wire 1 X" min_unidades[0]~16_combout $end
$var wire 1 Y" min_unidades[1]~17_combout $end
$var wire 1 Z" min_unidades[2]~18_combout $end
$var wire 1 [" min_unidades[3]~19_combout $end
$var wire 1 \" min_dezenas[0]~16_combout $end
$var wire 1 ]" min_dezenas[1]~17_combout $end
$var wire 1 ^" min_dezenas[2]~18_combout $end
$var wire 1 _" min_dezenas[3]~19_combout $end
$var wire 1 `" horas_unidades[0]~16_combout $end
$var wire 1 a" horas_unidades[1]~17_combout $end
$var wire 1 b" horas_unidades[2]~18_combout $end
$var wire 1 c" horas_unidades[3]~19_combout $end
$var wire 1 d" horas_dezenas[0]~16_combout $end
$var wire 1 e" horas_dezenas[1]~17_combout $end
$var wire 1 f" tc_segundos~5_combout $end
$var wire 1 g" tc_minutos~4_combout $end
$var wire 1 h" tc_horas~2_combout $end
$var wire 1 i" tc_horas~4_combout $end
$var wire 1 j" refresh_clock|mod5|_~4_combout $end
$var wire 1 k" refresh_clock|mod5|_~3_combout $end
$var wire 1 l" refresh_clock|mod5|_~2_combout $end
$var wire 1 m" refresh_clock|mod5|_~0_combout $end
$var wire 1 n" refresh_clock|mod5_2|_~3_combout $end
$var wire 1 o" refresh_clock|mod5_2|_~2_combout $end
$var wire 1 p" refresh_clock|mod5_2|_~4_combout $end
$var wire 1 q" refresh_clock|mod5_2|count[0]~feeder_combout $end
$var wire 1 r" refresh_clock|mod5_2|_~0_combout $end
$var wire 1 s" refresh_clock|mod5_3|_~4_combout $end
$var wire 1 t" refresh_clock|mod5_3|_~3_combout $end
$var wire 1 u" refresh_clock|mod5_3|_~2_combout $end
$var wire 1 v" refresh_clock|mod5_3|_~0_combout $end
$var wire 1 w" refresh_clock|mod5_4|_~4_combout $end
$var wire 1 x" refresh_clock|mod5_4|count[0]~feeder_combout $end
$var wire 1 y" refresh_clock|mod5_4|_~3_combout $end
$var wire 1 z" refresh_clock|mod5_4|_~2_combout $end
$var wire 1 {" refresh_clock|mod5_4|_~0_combout $end
$var wire 1 |" refresh_clock|mod10|_~2_combout $end
$var wire 1 }" refresh_clock|mod10|_~4_combout $end
$var wire 1 ~" refresh_clock|mod10|_~3_combout $end
$var wire 1 !# refresh_clock|mod10|count[0]~feeder_combout $end
$var wire 1 "# refresh_clock|mod10|_~5_combout $end
$var wire 1 ## refresh_clock|mod10|_~0_combout $end
$var wire 1 $# refresh_clock|clk_saida~0_combout $end
$var wire 1 %# refresh_clock|clk_saida~feeder_combout $end
$var wire 1 &# refresh_clock|clk_saida~q $end
$var wire 1 '# _~0_combout $end
$var wire 1 (# _~0clkctrl_outclk $end
$var wire 1 )# chaveador|count[0]~1_combout $end
$var wire 1 *# chaveador|_~0_combout $end
$var wire 1 +# mux|dout[2]~18_combout $end
$var wire 1 ,# mux|dout[2]~19_combout $end
$var wire 1 -# mux|dout[0]~20_combout $end
$var wire 1 .# mux|dout[0]~21_combout $end
$var wire 1 /# mux|dout[3]~22_combout $end
$var wire 1 0# mux|dout[3]~23_combout $end
$var wire 1 1# mux|dout[1]~16_combout $end
$var wire 1 2# mux|dout[1]~17_combout $end
$var wire 1 3# bcd_7Seg_dec|a~combout $end
$var wire 1 4# bcd_7Seg_dec|b~1_combout $end
$var wire 1 5# bcd_7Seg_dec|_~0_combout $end
$var wire 1 6# bcd_7Seg_dec|d~2_combout $end
$var wire 1 7# bcd_7Seg_dec|e~1_combout $end
$var wire 1 8# bcd_7Seg_dec|f~0_combout $end
$var wire 1 9# bcd_7Seg_dec|g~1_combout $end
$var wire 1 :# AnodeOutput[0]~8_combout $end
$var wire 1 ;# AnodeOutput[0]~9_combout $end
$var wire 1 <# AnodeOutput[1]~10_combout $end
$var wire 1 =# AnodeOutput[2]~11_combout $end
$var wire 1 ># AnodeOutput[3]~12_combout $end
$var wire 1 ?# mod10_min|count [3] $end
$var wire 1 @# mod10_min|count [2] $end
$var wire 1 A# mod10_min|count [1] $end
$var wire 1 B# mod10_min|count [0] $end
$var wire 1 C# mod10_seg|count [3] $end
$var wire 1 D# mod10_seg|count [2] $end
$var wire 1 E# mod10_seg|count [1] $end
$var wire 1 F# mod10_seg|count [0] $end
$var wire 1 G# acorda_min_d|count [3] $end
$var wire 1 H# acorda_min_d|count [2] $end
$var wire 1 I# acorda_min_d|count [1] $end
$var wire 1 J# acorda_min_d|count [0] $end
$var wire 1 K# mod24|high [3] $end
$var wire 1 L# mod24|high [2] $end
$var wire 1 M# mod24|high [1] $end
$var wire 1 N# mod24|high [0] $end
$var wire 1 O# acorda_hora|high [3] $end
$var wire 1 P# acorda_hora|high [2] $end
$var wire 1 Q# acorda_hora|high [1] $end
$var wire 1 R# acorda_hora|high [0] $end
$var wire 1 S# refresh_clock|mod5|count [2] $end
$var wire 1 T# refresh_clock|mod5|count [1] $end
$var wire 1 U# refresh_clock|mod5|count [0] $end
$var wire 1 V# acorda_min_u|count [3] $end
$var wire 1 W# acorda_min_u|count [2] $end
$var wire 1 X# acorda_min_u|count [1] $end
$var wire 1 Y# acorda_min_u|count [0] $end
$var wire 1 Z# refresh_clock|mod5_2|count [2] $end
$var wire 1 [# refresh_clock|mod5_2|count [1] $end
$var wire 1 \# refresh_clock|mod5_2|count [0] $end
$var wire 1 ]# mod6_min|count [3] $end
$var wire 1 ^# mod6_min|count [2] $end
$var wire 1 _# mod6_min|count [1] $end
$var wire 1 `# mod6_min|count [0] $end
$var wire 1 a# mod24|low [3] $end
$var wire 1 b# mod24|low [2] $end
$var wire 1 c# mod24|low [1] $end
$var wire 1 d# mod24|low [0] $end
$var wire 1 e# acorda_hora|low [3] $end
$var wire 1 f# acorda_hora|low [2] $end
$var wire 1 g# acorda_hora|low [1] $end
$var wire 1 h# acorda_hora|low [0] $end
$var wire 1 i# mod6_seg|count [3] $end
$var wire 1 j# mod6_seg|count [2] $end
$var wire 1 k# mod6_seg|count [1] $end
$var wire 1 l# mod6_seg|count [0] $end
$var wire 1 m# chaveador|count [1] $end
$var wire 1 n# chaveador|count [0] $end
$var wire 1 o# cont_clock|count [3] $end
$var wire 1 p# cont_clock|count [2] $end
$var wire 1 q# cont_clock|count [1] $end
$var wire 1 r# cont_clock|count [0] $end
$var wire 1 s# select_dig|count [2] $end
$var wire 1 t# select_dig|count [1] $end
$var wire 1 u# select_dig|count [0] $end
$var wire 1 v# refresh_clock|mod10|count [3] $end
$var wire 1 w# refresh_clock|mod10|count [2] $end
$var wire 1 x# refresh_clock|mod10|count [1] $end
$var wire 1 y# refresh_clock|mod10|count [0] $end
$var wire 1 z# refresh_clock|mod5_4|count [2] $end
$var wire 1 {# refresh_clock|mod5_4|count [1] $end
$var wire 1 |# refresh_clock|mod5_4|count [0] $end
$var wire 1 }# refresh_clock|mod5_3|count [2] $end
$var wire 1 ~# refresh_clock|mod5_3|count [1] $end
$var wire 1 !$ refresh_clock|mod5_3|count [0] $end
$upscope $end
$upscope $end
$enddefinitions $end
#0
$dumpvars
1!
0"
0#
0$
0%
1)
1(
1'
0&
0-
0,
0+
0*
01
00
0/
0.
05
04
03
02
09
08
07
06
0=
0<
0;
0:
0A
0@
0?
0>
0E
0D
0C
0B
0L
0K
0J
0I
0H
0G
1F
0M
0N
0O
0P
1Q
xR
1S
1T
1U
0V
0W
0X
0Y
0Z
0[
0\
0]
0^
0_
0`
0a
0b
0c
0d
0e
0f
0g
0h
0i
0j
0k
0l
0m
0n
0o
0p
0q
0r
0s
0t
0u
0v
1w
1x
1y
1z
0{
0|
0}
0~
0!!
0"!
0#!
1$!
0%!
1&!
0'!
0(!
0)!
1*!
0+!
0,!
0-!
0.!
0/!
00!
01!
02!
13!
04!
05!
06!
07!
18!
09!
0:!
0;!
0<!
0=!
0>!
0?!
1@!
0A!
0B!
0C!
0D!
1E!
0F!
0G!
0H!
0I!
0J!
0K!
0L!
0M!
1N!
0O!
0P!
1Q!
0R!
0S!
1T!
1U!
0V!
0W!
0X!
0Y!
1Z!
1[!
1\!
1]!
0^!
0_!
0`!
1a!
0b!
0c!
0d!
1e!
0f!
0g!
0h!
0i!
1j!
1k!
0l!
0m!
1n!
0o!
0p!
0q!
0r!
0s!
0t!
0u!
1v!
1w!
0x!
0y!
0z!
0{!
0|!
0}!
0~!
0!"
1""
0#"
0$"
1%"
0&"
1'"
0("
1)"
1*"
0+"
0,"
1-"
0."
0/"
00"
11"
02"
03"
14"
15"
06"
07"
08"
19"
1:"
1;"
0<"
0="
0>"
1?"
1@"
1A"
0B"
0C"
0D"
0E"
0F"
1G"
1H"
1I"
1J"
1K"
0L"
0M"
1N"
1O"
0P"
0Q"
0R"
0S"
0T"
0U"
0V"
0W"
0X"
0Y"
0Z"
0["
0\"
0]"
0^"
0_"
0`"
0a"
0b"
0c"
0d"
0e"
0f"
0g"
0h"
0i"
1j"
0k"
0l"
0m"
0n"
0o"
1p"
1q"
0r"
1s"
0t"
0u"
0v"
1w"
1x"
0y"
0z"
0{"
0|"
0}"
1~"
1!#
0"#
0##
1$#
1%#
0&#
0'#
0(#
1)#
0*#
0+#
0,#
0-#
0.#
0/#
00#
01#
12#
03#
04#
05#
06#
07#
08#
19#
1:#
1;#
1<#
1=#
0>#
0B#
0A#
0@#
0?#
0F#
0E#
0D#
0C#
0J#
0I#
0H#
0G#
0N#
0M#
zL#
zK#
0R#
0Q#
zP#
zO#
0U#
0T#
0S#
0Y#
0X#
0W#
0V#
0\#
0[#
0Z#
0`#
0_#
0^#
0]#
0d#
0c#
0b#
0a#
0h#
0g#
0f#
0e#
0l#
0k#
0j#
0i#
0n#
0m#
0r#
0q#
0p#
0o#
0u#
0t#
0s#
0y#
0x#
0w#
0v#
0|#
0{#
0z#
0!$
0~#
0}#
$end
#1000
1"
1?!
1U#
1r#
0j"
1k"
1C!
0@!
#2000
0"
0?!
#2500
1%
1"!
#3000
1"
1?!
1T#
0U#
1q#
0r#
1j"
1D!
1@!
#4000
0"
0?!
#5000
0%
1"
0"!
1?!
1U#
1r#
0j"
1l"
0k"
0C!
1B!
0@!
#6000
0"
0?!
#7000
1"
1?!
1S#
0T#
0U#
0q#
1p#
0r#
1m"
0l"
1@!
1\#
0p"
1n"
0q"
#7500
1%
1"!
#8000
0"
0?!
#9000
1"
1?!
0S#
1r#
1j"
0E!
0m"
1C!
0@!
1F!
#10000
1$
0%
0"
0"!
1(!
0?!
1u#
1o!
1+!
0*!
1!!
1*
#11000
1"
1?!
1U#
1q#
0r#
0j"
1k"
1@!
#12000
0"
0?!
#12500
1%
1"!
1!"
1N#
0G"
1E"
0A"
0'"
1d"
0@"
1j
0K"
1.#
11
1F"
18#
17#
16#
13#
1q
1t
1u
1v
1G
1H
1I
1L
#13000
1"
1?!
1T#
0U#
1r#
1j"
0C!
0B!
1A!
0@!
#14000
0"
0?!
#15000
0%
1"
0"!
1?!
0!"
1U#
0q#
0p#
1o#
0r#
0j"
1E!
0D!
0F!
1l"
0k"
1@!
1F!
#16000
0"
0?!
#17000
1"
1?!
1S#
0T#
0U#
1r#
1m"
0l"
1C!
0@!
0\#
1[#
1p"
1q"
#17500
1%
1"!
1!"
1M#
0N#
0;"
12"
0)"
0E"
1A"
1'"
1e"
0d"
1@"
0j
1k
0'"
17"
0*"
02#
0.#
10
01
0F"
18"
0?"
01"
09#
07#
06#
15#
03#
0q
1s
0t
0u
0w
0F
0H
0I
1J
0L
0@"
#18000
0"
0?!
#19000
1"
1?!
0S#
1q#
0r#
1j"
1D!
0m"
0C!
0A!
0F!
#20000
0$
0%
0"
0"!
0(!
0?!
0!"
#21000
1"
1?!
1U#
0q#
0o#
0j"
0D!
1k"
1@!
#22000
0"
0?!
#22500
1%
1"!
1!"
0M#
1G"
1;"
02"
1)"
0e"
0k
1K"
1'"
07"
1*"
12#
00
08"
1?"
11"
19#
08#
05#
0s
0v
1w
1F
0G
0J
1@"
#23000
1"
1?!
1T#
0U#
1r#
1j"
1C!
0@!
#24000
0"
0?!
#25000
0%
1"
0"!
1?!
0!"
1U#
1q#
0r#
0j"
1D!
1l"
0k"
1@!
#26000
0"
0?!
#27000
1"
1?!
1S#
0T#
0U#
1r#
1m"
0l"
0C!
1B!
0@!
1\#
0p"
1o"
0n"
0q"
#27500
1%
1"!
1!"
1N#
0G"
1E"
0A"
0'"
1d"
0@"
1j
0K"
1.#
11
1F"
18#
17#
16#
13#
1q
1t
1u
1v
1G
1H
1I
1L
#28000
0"
0?!
#29000
1"
1?!
0S#
0q#
1p#
0r#
1j"
0m"
1@!
#30000
1$
0%
0"
0"!
1(!
0?!
0!"
1t#
0u#
1r!
0o!
1*!
0!!
1~
1+
0*
#31000
1"
1?!
1U#
1r#
0j"
0E!
1k"
1C!
0@!
1F!
#32000
0"
0?!
#32500
1%
1"!
1&"
1d#
0I"
09"
1`"
16"
1f
15
0:"
#33000
1"
1?!
1T#
0U#
1q#
0r#
1j"
1@!
#34000
0"
0?!
#35000
0%
1"
0"!
1?!
0&"
1U#
1r#
0j"
1l"
0k"
0C!
0B!
1A!
0@!
#36000
0"
0?!
#37000
1"
1?!
1S#
0T#
0U#
0q#
0p#
1o#
0r#
1E!
0D!
0F!
1m"
0l"
1@!
1F!
0\#
1Z#
0[#
1r"
0o"
1!$
0s"
1t"
#37500
1%
1"!
1&"
0d#
1c#
19"
0-"
0`"
1a"
1g
0f
05
14
1:"
#38000
0"
0?!
#39000
1"
1?!
0S#
1r#
1j"
0m"
1C!
0@!
#40000
0$
0%
0"
0"!
0(!
0?!
0&"
#41000
1"
1?!
1U#
1q#
0r#
0j"
1D!
1k"
0C!
0A!
0F!
#42000
0"
0?!
#42500
1%
1"!
1&"
1d#
1h"
09"
1+"
1`"
06"
1f
15
0:"
1,"
#43000
1"
1?!
1T#
0U#
0q#
0o#
1j"
0D!
1@!
#44000
0"
0?!
#45000
0%
1"
0"!
1?!
0&"
1U#
1r#
0j"
1l"
0k"
1C!
0@!
#46000
0"
0?!
#47000
1"
1?!
1S#
0T#
0U#
1q#
0r#
1D!
1m"
0l"
1@!
0Z#
1p"
0r"
1q"
#47500
1%
1"!
1&"
0d#
0c#
1b#
0h"
1I"
19"
0+"
0H"
0E"
0`"
0a"
1b"
0,"
1h
0g
0f
05
04
13
1:"
1,"
0F"
#48000
0"
0?!
#49000
1"
1?!
0S#
1r#
1j"
0m"
0C!
1B!
0@!
#50000
1$
0%
0"
0"!
1(!
0?!
0&"
1u#
0r!
1,!
0+!
0*!
1}
0~
0+
1,
1)!
#51000
1"
1?!
1U#
0q#
1p#
0r#
0j"
1k"
1@!
#52000
0"
0?!
#52500
1%
1"!
16!
1`#
0a!
1\"
1`!
0]!
1b
19
#53000
1"
1?!
1T#
0U#
1r#
1j"
0E!
1C!
0@!
1F!
#54000
0"
0?!
#55000
0%
1"
0"!
1?!
06!
1U#
1q#
0r#
0j"
1l"
0k"
1@!
#56000
0"
0?!
#57000
1"
1?!
1S#
0T#
0U#
1r#
1m"
0l"
0C!
0B!
1A!
0@!
1\#
0p"
1n"
0q"
#57500
1%
1"!
16!
1_#
0`#
1]"
0\"
1]!
0b
1c
18
09
#58000
0"
0?!
#59000
1"
1?!
0S#
0q#
0p#
1o#
0r#
1j"
1E!
0D!
0F!
0m"
1@!
1F!
#60000
0$
0%
0"
0"!
0(!
0?!
06!
#61000
1"
1?!
1U#
1r#
0j"
1k"
1C!
0@!
#62000
0"
0?!
#62500
1%
1"!
16!
1`#
1\"
0`!
0]!
17!
1b
19
#63000
1"
1?!
1T#
0U#
1q#
0r#
1j"
1D!
0C!
0A!
0F!
#64000
0"
0?!
#65000
0%
1"
0"!
1?!
06!
1U#
0q#
0o#
0j"
0D!
1l"
0k"
1@!
#66000
0"
0?!
#67000
1"
1?!
1S#
0T#
0U#
1r#
1m"
0l"
1C!
0@!
0\#
1[#
1p"
1q"
#67500
1%
1"!
16!
0_#
0`#
1^#
1a!
0J"
0]"
0\"
1]!
1^"
1d
0b
0c
08
09
17
#68000
0"
0?!
#69000
1"
1?!
0S#
1q#
0r#
1j"
1D!
0m"
1@!
#70000
1$
0%
0"
0"!
1(!
0?!
06!
0t#
0u#
1s#
1R!
0,!
1*!
0}
1|
1-
0,
0)!
#71000
1"
1?!
1U#
1r#
0j"
1k"
0C!
1B!
0@!
#72000
0"
0?!
#72500
1%
1"!
1S!
1B#
0k!
1X"
1V!
0U!
1^
1=
#73000
1"
1?!
1T#
0U#
0q#
1p#
0r#
1j"
1@!
#74000
0"
0?!
#75000
0%
1"
0"!
1?!
0S!
1U#
1r#
0j"
0E!
1l"
0k"
1C!
0@!
1F!
#76000
0"
0?!
#77000
1"
1?!
1S#
0T#
0U#
1q#
0r#
1m"
0l"
1@!
1\#
0p"
1o"
0n"
0q"
#77500
1%
1"!
1S!
1A#
0B#
1Y"
0X"
1U!
0^
1_
1<
0=
#78000
0"
0?!
#79000
1"
1?!
0S#
1r#
1j"
0m"
0C!
0B!
1A!
0@!
#80000
0$
0%
0"
0"!
0(!
0?!
0S!
#81000
1"
1?!
1U#
0q#
0p#
1o#
0r#
0j"
1E!
0D!
0F!
1k"
1@!
1F!
#82000
0"
0?!
#82500
1%
1"!
1S!
1B#
1X"
1Y!
0V!
0U!
1^
1=
#83000
1"
1?!
1T#
0U#
1r#
1j"
1C!
0@!
#84000
0"
0?!
#85000
0%
1"
0"!
1?!
0S!
1U#
1q#
0r#
0j"
1D!
1l"
0k"
0C!
0A!
0F!
#86000
0"
0?!
#87000
1"
1?!
1S#
0T#
0U#
0q#
0o#
0D!
1m"
0l"
1@!
0\#
1Z#
0[#
1r"
0o"
1~#
0!$
1s"
#87500
1%
1"!
1S!
1@#
0A#
0B#
0j!
1k!
1Z"
0Y"
0X"
1U!
0^
0_
1`
1;
0<
0=
#88000
0"
0?!
#89000
1"
1?!
0S#
1r#
1j"
0m"
1C!
0@!
#90000
1$
0%
0"
0"!
1(!
0?!
0S!
1u#
0s#
1o!
0R!
1+!
0*!
0|
1!!
1*
0-
#91000
1"
1?!
1U#
1q#
0r#
0j"
1D!
1k"
1@!
#92000
0"
0?!
#92500
1%
1"!
1!"
0N#
1G"
1A"
1'"
0d"
1@"
0j
0.#
01
08#
07#
06#
03#
0q
0t
0u
0v
0G
0H
0I
0L
