simulation/qsim/Projeto_2.msim.vcd
$comment
	File created using the following command:
		vcd file Projeto_2.msim.vcd -direction
$end
$date
	Wed Jul 28 22:26:46 2021
$end
$version
	ModelSim Version 2020.1
$end
$timescale
	1ps
$end

$scope module despertador_vlg_vec_tst $end
$var reg 1 ! ajuste $end
$var reg 1 " clk $end
$var reg 1 # troca_modo $end
$var reg 1 $ trocar $end
$var reg 1 % up $end
$var wire 1 & AnodeOutput [3] $end
$var wire 1 ' AnodeOutput [2] $end
$var wire 1 ( AnodeOutput [1] $end
$var wire 1 ) AnodeOutput [0] $end
$var wire 1 * digito_selecionado [3] $end
$var wire 1 + digito_selecionado [2] $end
$var wire 1 , digito_selecionado [1] $end
$var wire 1 - digito_selecionado [0] $end
$var wire 1 . horas_dezenas [3] $end
$var wire 1 / horas_dezenas [2] $end
$var wire 1 0 horas_dezenas [1] $end
$var wire 1 1 horas_dezenas [0] $end
$var wire 1 2 horas_unidades [3] $end
$var wire 1 3 horas_unidades [2] $end
$var wire 1 4 horas_unidades [1] $end
$var wire 1 5 horas_unidades [0] $end
$var wire 1 6 min_dezenas [3] $end
$var wire 1 7 min_dezenas [2] $end
$var wire 1 8 min_dezenas [1] $end
$var wire 1 9 min_dezenas [0] $end
$var wire 1 : min_unidades [3] $end
$var wire 1 ; min_unidades [2] $end
$var wire 1 < min_unidades [1] $end
$var wire 1 = min_unidades [0] $end
$var wire 1 > sec_dezenas [3] $end
$var wire 1 ? sec_dezenas [2] $end
$var wire 1 @ sec_dezenas [1] $end
$var wire 1 A sec_dezenas [0] $end
$var wire 1 B sec_unidades [3] $end
$var wire 1 C sec_unidades [2] $end
$var wire 1 D sec_unidades [1] $end
$var wire 1 E sec_unidades [0] $end
$var wire 1 F Seg7Output [6] $end
$var wire 1 G Seg7Output [5] $end
$var wire 1 H Seg7Output [4] $end
$var wire 1 I Seg7Output [3] $end
$var wire 1 J Seg7Output [2] $end
$var wire 1 K Seg7Output [1] $end
$var wire 1 L Seg7Output [0] $end
$var wire 1 M tc_horas $end
$var wire 1 N tc_minutos $end
$var wire 1 O tc_segundos $end

$scope module i1 $end
$var wire 1 P gnd $end
$var wire 1 Q vcc $end
$var wire 1 R unknown $end
$var tri1 1 S devclrn $end
$var tri1 1 T devpor $end
$var tri1 1 U devoe $end
$var wire 1 V troca_modo~input_o $end
$var wire 1 W sec_unidades[0]~output_o $end
$var wire 1 X sec_unidades[1]~output_o $end
$var wire 1 Y sec_unidades[2]~output_o $end
$var wire 1 Z sec_unidades[3]~output_o $end
$var wire 1 [ sec_dezenas[0]~output_o $end
$var wire 1 \ sec_dezenas[1]~output_o $end
$var wire 1 ] sec_dezenas[2]~output_o $end
$var wire 1 ^ sec_dezenas[3]~output_o $end
$var wire 1 _ min_unidades[0]~output_o $end
$var wire 1 ` min_unidades[1]~output_o $end
$var wire 1 a min_unidades[2]~output_o $end
$var wire 1 b min_unidades[3]~output_o $end
$var wire 1 c min_dezenas[0]~output_o $end
$var wire 1 d min_dezenas[1]~output_o $end
$var wire 1 e min_dezenas[2]~output_o $end
$var wire 1 f min_dezenas[3]~output_o $end
$var wire 1 g horas_unidades[0]~output_o $end
$var wire 1 h horas_unidades[1]~output_o $end
$var wire 1 i horas_unidades[2]~output_o $end
$var wire 1 j horas_unidades[3]~output_o $end
$var wire 1 k horas_dezenas[0]~output_o $end
$var wire 1 l horas_dezenas[1]~output_o $end
$var wire 1 m horas_dezenas[2]~output_o $end
$var wire 1 n horas_dezenas[3]~output_o $end
$var wire 1 o tc_segundos~output_o $end
$var wire 1 p tc_minutos~output_o $end
$var wire 1 q tc_horas~output_o $end
$var wire 1 r Seg7Output[0]~output_o $end
$var wire 1 s Seg7Output[1]~output_o $end
$var wire 1 t Seg7Output[2]~output_o $end
$var wire 1 u Seg7Output[3]~output_o $end
$var wire 1 v Seg7Output[4]~output_o $end
$var wire 1 w Seg7Output[5]~output_o $end
$var wire 1 x Seg7Output[6]~output_o $end
$var wire 1 y AnodeOutput[0]~output_o $end
$var wire 1 z AnodeOutput[1]~output_o $end
$var wire 1 { AnodeOutput[2]~output_o $end
$var wire 1 | AnodeOutput[3]~output_o $end
$var wire 1 } digito_selecionado[0]~output_o $end
$var wire 1 ~ digito_selecionado[1]~output_o $end
$var wire 1 !! digito_selecionado[2]~output_o $end
$var wire 1 "! digito_selecionado[3]~output_o $end
$var wire 1 #! ajuste~input_o $end
$var wire 1 $! clk~input_o $end
$var wire 1 %! cont_clock|count[0]~1_combout $end
$var wire 1 &! cont_clock|count[2]~2_combout $end
$var wire 1 '! cont_clock|count[3]~3_combout $end
$var wire 1 (! cont_clock|count[1]~0_combout $end
$var wire 1 )! cont_clock|op_4~0_combout $end
$var wire 1 *! cont_clock|op_3~0_combout $end
$var wire 1 +! cont_clock|flag~0_combout $end
$var wire 1 ,! _~0_combout $end
$var wire 1 -! _~0clkctrl_outclk $end
$var wire 1 .! mod10_seg|_~3_combout $end
$var wire 1 /! mod10_seg|_~4_combout $end
$var wire 1 0! mod10_seg|_~2_combout $end
$var wire 1 1! mod10_seg|_~1_combout $end
$var wire 1 2! _~1_combout $end
$var wire 1 3! _~1clkctrl_outclk $end
$var wire 1 4! mod6_seg|count[2]~2_combout $end
$var wire 1 5! mod10_seg|_~0_combout $end
$var wire 1 6! mod6_seg|count[1]~1_combout $end
$var wire 1 7! mod6_seg|count[0]~0_combout $end
$var wire 1 8! trocar~input_o $end
$var wire 1 9! select_dig|digito[3]~8_combout $end
$var wire 1 :! select_dig|digito[1]~5_combout $end
$var wire 1 ;! select_dig|count[2]~feeder_combout $end
$var wire 1 <! select_dig|_~0_combout $end
$var wire 1 =! up~input_o $end
$var wire 1 >! _~14_combout $end
$var wire 1 ?! _~2_combout $end
$var wire 1 @! _~2clkctrl_outclk $end
$var wire 1 A! mod6_seg|tc~2_combout $end
$var wire 1 B! _~12_combout $end
$var wire 1 C! mod10_min|count[2]~2_combout $end
$var wire 1 D! mod10_min|count[2]~feeder_combout $end
$var wire 1 E! mod10_min|op_2~0_combout $end
$var wire 1 F! mod10_min|count[3]~3_combout $end
$var wire 1 G! mod10_min|count[1]~1_combout $end
$var wire 1 H! mod10_min|op_1~0_combout $end
$var wire 1 I! mod10_min|count[0]~0_combout $end
$var wire 1 J! _~15_combout $end
$var wire 1 K! _~3_combout $end
$var wire 1 L! _~3clkctrl_outclk $end
$var wire 1 M! mod6_min|count[2]~2_combout $end
$var wire 1 N! mod10_min|tc~0_combout $end
$var wire 1 O! _~10_combout $end
$var wire 1 P! mod6_min|count[1]~1_combout $end
$var wire 1 Q! mod6_min|count[0]~0_combout $end
$var wire 1 R! _~16_combout $end
$var wire 1 S! _~4_combout $end
$var wire 1 T! _~4clkctrl_outclk $end
$var wire 1 U! mod6_min|tc~2_combout $end
$var wire 1 V! _~11_combout $end
$var wire 1 W! mod24|low[1]~3_combout $end
$var wire 1 X! mod24|time~2_combout $end
$var wire 1 Y! mod24|low[2]~4_combout $end
$var wire 1 Z! mod24|op_1~0_combout $end
$var wire 1 [! _~17_combout $end
$var wire 1 \! _~5_combout $end
$var wire 1 ]! _~5clkctrl_outclk $end
$var wire 1 ^! mod24|high[0]~0_combout $end
$var wire 1 _! mod6_min|tc~combout $end
$var wire 1 `! mod24|op_2~0_combout $end
$var wire 1 a! mod24|low[3]~5_combout $end
$var wire 1 b! mod24|_~4_combout $end
$var wire 1 c! mod24|high[0]~1_combout $end
$var wire 1 d! mod24|_~7_combout $end
$var wire 1 e! mod24|_~3_combout $end
$var wire 1 f! mod24|high[0]~2_combout $end
$var wire 1 g! mod24|high[1]~6_combout $end
$var wire 1 h! mod24|high[1]~4_combout $end
$var wire 1 i! mod24|_~6_combout $end
$var wire 1 j! mod24|high[1]~5_combout $end
$var wire 1 k! mod24|time~3_combout $end
$var wire 1 l! mod24|_~2_combout $end
$var wire 1 m! mod24|high[1]~3_combout $end
$var wire 1 n! mod24|high[1]~7_combout $end
$var wire 1 o! mod24|_~5_combout $end
$var wire 1 p! mod24|low[1]~0_combout $end
$var wire 1 q! mod24|low[1]~1_combout $end
$var wire 1 r! mod24|low[0]~2_combout $end
$var wire 1 s! mod6_seg|tc~combout $end
$var wire 1 t! mod24|time~4_combout $end
$var wire 1 u! refresh_clock|mod5|_~3_combout $end
$var wire 1 v! refresh_clock|mod5|_~2_combout $end
$var wire 1 w! refresh_clock|mod5|_~4_combout $end
$var wire 1 x! refresh_clock|mod5|count[0]~feeder_combout $end
$var wire 1 y! refresh_clock|mod5|_~0_combout $end
$var wire 1 z! refresh_clock|mod5_2|_~3_combout $end
$var wire 1 {! refresh_clock|mod5_2|_~2_combout $end
$var wire 1 |! refresh_clock|mod5_2|_~4_combout $end
$var wire 1 }! refresh_clock|mod5_2|count[0]~feeder_combout $end
$var wire 1 ~! refresh_clock|mod5_2|_~0_combout $end
$var wire 1 !" refresh_clock|mod5_3|_~4_combout $end
$var wire 1 "" refresh_clock|mod5_3|count[0]~feeder_combout $end
$var wire 1 #" refresh_clock|mod5_3|_~3_combout $end
$var wire 1 $" refresh_clock|mod5_3|_~2_combout $end
$var wire 1 %" refresh_clock|mod5_3|_~0_combout $end
$var wire 1 &" refresh_clock|mod5_4|_~3_combout $end
$var wire 1 '" refresh_clock|mod5_4|_~2_combout $end
$var wire 1 (" refresh_clock|mod5_4|_~4_combout $end
$var wire 1 )" refresh_clock|mod5_4|count[0]~feeder_combout $end
$var wire 1 *" refresh_clock|mod5_4|_~0_combout $end
$var wire 1 +" refresh_clock|mod10|_~5_combout $end
$var wire 1 ," refresh_clock|mod10|_~2_combout $end
$var wire 1 -" refresh_clock|mod10|_~4_combout $end
$var wire 1 ." refresh_clock|mod10|_~3_combout $end
$var wire 1 /" refresh_clock|mod10|count[0]~feeder_combout $end
$var wire 1 0" refresh_clock|mod10|_~0_combout $end
$var wire 1 1" refresh_clock|clk_saida~0_combout $end
$var wire 1 2" refresh_clock|clk_saida~feeder_combout $end
$var wire 1 3" refresh_clock|clk_saida~q $end
$var wire 1 4" refresh_clock|clk_saida~clkctrl_outclk $end
$var wire 1 5" chaveador|count[0]~1_combout $end
$var wire 1 6" chaveador|_~0_combout $end
$var wire 1 7" mux|dout[2]~18_combout $end
$var wire 1 8" mux|dout[0]~19_combout $end
$var wire 1 9" mux|dout[0]~20_combout $end
$var wire 1 :" mux|dout[1]~16_combout $end
$var wire 1 ;" mux|dout[1]~17_combout $end
$var wire 1 <" bcd_7Seg_dec|a~combout $end
$var wire 1 =" bcd_7Seg_dec|b~1_combout $end
$var wire 1 >" bcd_7Seg_dec|_~0_combout $end
$var wire 1 ?" bcd_7Seg_dec|d~2_combout $end
$var wire 1 @" bcd_7Seg_dec|e~1_combout $end
$var wire 1 A" bcd_7Seg_dec|f~0_combout $end
$var wire 1 B" bcd_7Seg_dec|g~1_combout $end
$var wire 1 C" decoder|saida[2]~4_combout $end
$var wire 1 D" decoder|saida[2]~5_combout $end
$var wire 1 E" decoder|saida[2]~6_combout $end
$var wire 1 F" decoder|saida[3]~7_combout $end
$var wire 1 G" select_dig|digito[0]~4_combout $end
$var wire 1 H" select_dig|digito[2]~6_combout $end
$var wire 1 I" select_dig|digito[3]~7_combout $end
$var wire 1 J" mod10_seg|count [3] $end
$var wire 1 K" mod10_seg|count [2] $end
$var wire 1 L" mod10_seg|count [1] $end
$var wire 1 M" mod10_seg|count [0] $end
$var wire 1 N" mod6_seg|count [3] $end
$var wire 1 O" mod6_seg|count [2] $end
$var wire 1 P" mod6_seg|count [1] $end
$var wire 1 Q" mod6_seg|count [0] $end
$var wire 1 R" mod6_min|count [3] $end
$var wire 1 S" mod6_min|count [2] $end
$var wire 1 T" mod6_min|count [1] $end
$var wire 1 U" mod6_min|count [0] $end
$var wire 1 V" mod10_min|count [3] $end
$var wire 1 W" mod10_min|count [2] $end
$var wire 1 X" mod10_min|count [1] $end
$var wire 1 Y" mod10_min|count [0] $end
$var wire 1 Z" select_dig|count [2] $end
$var wire 1 [" select_dig|count [1] $end
$var wire 1 \" select_dig|count [0] $end
$var wire 1 ]" mod24|low [3] $end
$var wire 1 ^" mod24|low [2] $end
$var wire 1 _" mod24|low [1] $end
$var wire 1 `" mod24|low [0] $end
$var wire 1 a" mux|dout [3] $end
$var wire 1 b" mux|dout [2] $end
$var wire 1 c" mux|dout [1] $end
$var wire 1 d" mux|dout [0] $end
$var wire 1 e" mod24|high [3] $end
$var wire 1 f" mod24|high [2] $end
$var wire 1 g" mod24|high [1] $end
$var wire 1 h" mod24|high [0] $end
$var wire 1 i" chaveador|count [1] $end
$var wire 1 j" chaveador|count [0] $end
$var wire 1 k" cont_clock|count [3] $end
$var wire 1 l" cont_clock|count [2] $end
$var wire 1 m" cont_clock|count [1] $end
$var wire 1 n" cont_clock|count [0] $end
$var wire 1 o" refresh_clock|mod10|count [3] $end
$var wire 1 p" refresh_clock|mod10|count [2] $end
$var wire 1 q" refresh_clock|mod10|count [1] $end
$var wire 1 r" refresh_clock|mod10|count [0] $end
$var wire 1 s" refresh_clock|mod5_4|count [2] $end
$var wire 1 t" refresh_clock|mod5_4|count [1] $end
$var wire 1 u" refresh_clock|mod5_4|count [0] $end
$var wire 1 v" refresh_clock|mod5_3|count [2] $end
$var wire 1 w" refresh_clock|mod5_3|count [1] $end
$var wire 1 x" refresh_clock|mod5_3|count [0] $end
$var wire 1 y" refresh_clock|mod5_2|count [2] $end
$var wire 1 z" refresh_clock|mod5_2|count [1] $end
$var wire 1 {" refresh_clock|mod5_2|count [0] $end
$var wire 1 |" refresh_clock|mod5|count [2] $end
$var wire 1 }" refresh_clock|mod5|count [1] $end
$var wire 1 ~" refresh_clock|mod5|count [0] $end
$upscope $end
$upscope $end
$enddefinitions $end
#0
$dumpvars
0!
0"
0#
0$
0%
1)
1(
1'
0&
0-
0,
0+
0*
01
00
0/
0.
05
04
03
02
09
08
07
06
0=
0<
0;
0:
0A
0@
0?
0>
0E
0D
0C
0B
0L
0K
0J
0I
0H
0G
1F
0M
0N
0O
0P
1Q
xR
1S
1T
1U
0V
0W
0X
0Y
0Z
0[
0\
0]
0^
0_
0`
0a
0b
0c
0d
0e
0f
0g
0h
0i
0j
0k
0l
0m
0n
0o
0p
0q
0r
0s
0t
0u
0v
0w
1x
1y
1z
1{
0|
0}
0~
0!!
0"!
0#!
0$!
1%!
0&!
0'!
0(!
0)!
1*!
0+!
0,!
0-!
0.!
0/!
00!
11!
02!
03!
04!
05!
06!
07!
08!
19!
0:!
0;!
0<!
0=!
0>!
0?!
0@!
0A!
0B!
0C!
0D!
0E!
0F!
0G!
1H!
0I!
0J!
0K!
0L!
0M!
0N!
0O!
0P!
0Q!
0R!
0S!
0T!
0U!
0V!
0W!
0X!
0Y!
1Z!
0[!
0\!
0]!
0^!
0_!
0`!
0a!
0b!
0c!
0d!
0e!
0f!
0g!
0h!
0i!
0j!
0k!
0l!
0m!
0n!
1o!
0p!
0q!
0r!
0s!
0t!
0u!
0v!
1w!
1x!
0y!
0z!
0{!
1|!
1}!
0~!
1!"
1""
0#"
0$"
0%"
0&"
0'"
1("
1)"
0*"
0+"
0,"
0-"
1."
1/"
00"
11"
12"
03"
04"
15"
06"
07"
08"
09"
0:"
1;"
0<"
0="
0>"
0?"
0@"
0A"
1B"
0C"
0D"
0E"
0F"
0G"
0H"
0I"
0M"
0L"
0K"
0J"
0Q"
0P"
0O"
zN"
0U"
0T"
0S"
zR"
0Y"
0X"
0W"
0V"
0\"
0["
0Z"
0`"
0_"
0^"
0]"
zd"
zc"
0b"
0a"
0h"
0g"
zf"
ze"
0j"
0i"
0n"
0m"
0l"
0k"
0r"
0q"
0p"
0o"
0u"
0t"
0s"
0x"
0w"
0v"
0{"
0z"
0y"
0~"
0}"
0|"
$end
#1000
1"
1$!
1~"
1n"
0w!
1u!
1(!
0%!
0x!
#2000
0"
0$!
#2500
1%
1=!
#3000
1"
1$!
0~"
1}"
1m"
0n"
1w!
1)!
1%!
1x!
#4000
0"
0$!
#5000
0%
1"
0=!
1$!
1~"
1n"
0w!
1v!
0u!
0(!
1&!
0%!
0x!
#6000
0"
0$!
#7000
1"
1$!
0~"
1|"
0}"
0m"
1l"
0n"
1y!
0v!
1%!
1{"
0|!
1z!
0}!
#7500
1%
1=!
#8000
0"
0$!
#9000
1"
1$!
0|"
1n"
1w!
0*!
0y!
1(!
0%!
1+!
1x!
1\!
1S!
1K!
1?!
12!
1,!
1-!
13!
1@!
1L!
1T!
1]!
1M"
1W
1E
01!
10!
#10000
1$
0%
0"
0=!
18!
0$!
1\"
1I"
1<!
09!
1"!
1*
#11000
1"
1$!
1~"
1m"
0n"
0w!
1u!
1%!
0x!
#12000
0"
0$!
#12500
1%
1=!
1[!
#13000
1"
1$!
0~"
1}"
1n"
1w!
0(!
1'!
0&!
0%!
1x!
#14000
0"
0$!
#15000
0%
1"
0=!
1$!
0[!
1~"
0m"
1k"
0l"
0n"
0w!
1*!
0)!
0+!
1v!
0u!
1%!
1+!
0\!
0S!
0K!
0?!
02!
0,!
0-!
03!
0@!
0L!
0T!
0]!
0x!
1\!
1S!
1K!
1?!
12!
1,!
1-!
13!
1@!
1L!
1T!
1]!
0M"
1L"
1X
0W
0E
1D
11!
#16000
0"
0$!
#17000
1"
1$!
0~"
1|"
0}"
1n"
1y!
0v!
1(!
0%!
0{"
1z"
1|!
1}!
#17500
1%
1=!
1[!
#18000
0"
0$!
#19000
1"
1$!
0|"
1m"
0n"
1w!
1)!
0y!
0(!
0'!
0+!
1x!
0\!
0S!
0K!
0?!
02!
0,!
0-!
03!
0@!
0L!
0T!
0]!
#20000
0$
0%
0"
0=!
08!
0$!
0[!
#21000
1"
1$!
1~"
0m"
0k"
0w!
0)!
1u!
1%!
0x!
#22000
0"
0$!
#22500
1%
1=!
1[!
#23000
1"
1$!
0~"
1}"
1n"
1w!
1(!
0%!
1x!
#24000
0"
0$!
#25000
0%
1"
0=!
1$!
0[!
1~"
1m"
0n"
0w!
1)!
1v!
0u!
1%!
0x!
#26000
0"
0$!
#27000
1"
1$!
0~"
1|"
0}"
1n"
1y!
0v!
0(!
1&!
0%!
1{"
0|!
1{!
0z!
0}!
#27500
1%
1=!
1[!
#28000
0"
0$!
#29000
1"
1$!
0|"
0m"
1l"
0n"
1w!
0y!
1%!
1x!
#30000
1$
0%
0"
0=!
18!
0$!
0[!
1["
0\"
0I"
1H"
19!
1!!
0"!
0*
1+
#31000
1"
1$!
1~"
1n"
0w!
0*!
1u!
1(!
0%!
1+!
0x!
1\!
1S!
1K!
1?!
12!
1,!
1-!
13!
1@!
1L!
1T!
1]!
1M"
1W
1E
01!
00!
1.!
#32000
0"
0$!
#32500
1%
1=!
1R!
#33000
1"
1$!
0~"
1}"
1m"
0n"
1w!
1%!
1x!
#34000
0"
0$!
#35000
0%
1"
0=!
1$!
0R!
1~"
1n"
0w!
1v!
0u!
0(!
1'!
0&!
0%!
0x!
#36000
0"
0$!
#37000
1"
1$!
0~"
1|"
0}"
0m"
1k"
0l"
0n"
1*!
0)!
0+!
1y!
0v!
1%!
1+!
0\!
0S!
0K!
0?!
02!
0,!
0-!
03!
0@!
0L!
0T!
0]!
1\!
1S!
1K!
1?!
12!
1,!
1-!
13!
1@!
1L!
1T!
1]!
0{"
1y"
0z"
0M"
0L"
1K"
1Y
0X
0W
0E
0D
1C
1~!
0{!
11!
1x"
0!"
1#"
0""
#37500
1%
1=!
1R!
#38000
0"
0$!
#39000
1"
1$!
0|"
1n"
1w!
0y!
1(!
0%!
1x!
#40000
0$
0%
0"
0=!
08!
0$!
0R!
#41000
1"
1$!
1~"
1m"
0n"
0w!
1)!
1u!
0(!
0'!
0+!
0x!
0\!
0S!
0K!
0?!
02!
0,!
0-!
03!
0@!
0L!
0T!
0]!
#42000
0"
0$!
#42500
1%
1=!
1R!
#43000
1"
1$!
0~"
1}"
0m"
0k"
1w!
0)!
1%!
1x!
#44000
0"
0$!
#45000
0%
1"
0=!
1$!
0R!
1~"
1n"
0w!
1v!
0u!
1(!
0%!
0x!
#46000
0"
0$!
#47000
1"
1$!
0~"
1|"
0}"
1m"
0n"
1)!
1y!
0v!
1%!
0y"
1|!
0~!
1}!
#47500
1%
1=!
1R!
#48000
0"
0$!
#49000
1"
1$!
0|"
1n"
1w!
0y!
0(!
1&!
0%!
1x!
#50000
1$
0%
0"
0=!
18!
0$!
0R!
1\"
0H"
0<!
1:!
09!
1~
0!!
0+
1,
1;!
#51000
1"
1$!
1~"
0m"
1l"
0n"
0w!
1u!
1%!
0x!
#52000
0"
0$!
#52500
1%
1=!
1J!
#53000
1"
1$!
0~"
1}"
1n"
1w!
0*!
1(!
0%!
1+!
1x!
1\!
1S!
1K!
1?!
12!
1,!
1-!
13!
1@!
1L!
1T!
1]!
1M"
1W
1E
01!
10!
#54000
0"
0$!
#55000
0%
1"
0=!
1$!
0J!
1~"
1m"
0n"
0w!
1v!
0u!
1%!
0x!
#56000
0"
0$!
#57000
1"
1$!
0~"
1|"
0}"
1n"
1y!
0v!
0(!
1'!
0&!
0%!
1{"
0|!
1z!
0}!
#57500
1%
1=!
1J!
#58000
0"
0$!
#59000
1"
1$!
0|"
0m"
1k"
0l"
0n"
1w!
1*!
0)!
0+!
0y!
1%!
1+!
0\!
0S!
0K!
0?!
02!
0,!
0-!
03!
0@!
0L!
0T!
0]!
1x!
1\!
1S!
1K!
1?!
12!
1,!
1-!
13!
1@!
1L!
1T!
1]!
0M"
1L"
1X
0W
0E
1D
11!
#60000
0$
0%
0"
0=!
08!
0$!
0J!
#61000
1"
1$!
1~"
1n"
0w!
1u!
1(!
0%!
0x!
#62000
0"
0$!
#62500
1%
1=!
1J!
#63000
1"
1$!
0~"
1}"
1m"
0n"
1w!
1)!
0(!
0'!
0+!
1x!
0\!
0S!
0K!
0?!
02!
0,!
0-!
03!
0@!
0L!
0T!
0]!
#64000
0"
0$!
#65000
0%
1"
0=!
1$!
0J!
1~"
0m"
0k"
0w!
0)!
1v!
0u!
1%!
0x!
#66000
0"
0$!
#67000
1"
1$!
0~"
1|"
0}"
1n"
1y!
0v!
1(!
0%!
0{"
1z"
1|!
1}!
#67500
1%
1=!
1J!
#68000
0"
0$!
#69000
1"
1$!
0|"
1m"
0n"
1w!
1)!
0y!
1%!
1x!
#70000
1$
0%
0"
0=!
18!
0$!
0J!
0["
1Z"
0\"
1G"
0:!
19!
0~
1}
1-
0,
0;!
#71000
1"
1$!
1~"
1n"
0w!
1u!
0(!
1&!
0%!
0x!
#72000
0"
0$!
#72500
1%
1=!
1>!
#73000
1"
1$!
0~"
1}"
0m"
1l"
0n"
1w!
1%!
1x!
#74000
0"
0$!
#75000
0%
1"
0=!
1$!
0>!
1~"
1n"
0w!
0*!
1v!
0u!
1(!
0%!
1+!
0x!
1\!
1S!
1K!
1?!
12!
1,!
1-!
13!
1@!
1L!
1T!
1]!
1M"
1W
1E
01!
00!
1/!
0.!
#76000
0"
0$!
#77000
1"
1$!
0~"
1|"
0}"
1m"
0n"
1y!
0v!
1%!
1{"
0|!
1{!
0z!
0}!
#77500
1%
1=!
1>!
#78000
0"
0$!
#79000
1"
1$!
0|"
1n"
1w!
0y!
0(!
1'!
0&!
0%!
1x!
#80000
0$
0%
0"
0=!
08!
0$!
0>!
#81000
1"
1$!
1~"
0m"
1k"
0l"
0n"
0w!
1*!
0)!
0+!
1u!
1%!
1+!
0\!
0S!
0K!
0?!
02!
0,!
0-!
03!
0@!
0L!
0T!
0]!
0x!
1\!
1S!
1K!
1?!
12!
1,!
1-!
13!
1@!
1L!
1T!
1]!
0M"
0L"
1J"
0K"
0Y
1Z
0X
0W
0E
0D
1B
0C
11!
#82000
0"
0$!
#82500
1%
1=!
1>!
#83000
1"
1$!
0~"
1}"
1n"
1w!
1(!
0%!
1x!
#84000
0"
0$!
#85000
0%
1"
0=!
1$!
0>!
1~"
1m"
0n"
0w!
1)!
1v!
0u!
0(!
0'!
0+!
0x!
0\!
0S!
0K!
0?!
02!
0,!
0-!
03!
0@!
0L!
0T!
0]!
#86000
0"
0$!
#87000
1"
1$!
0~"
1|"
0}"
0m"
0k"
0)!
1y!
0v!
1%!
0{"
1y"
0z"
1~!
0{!
1w"
0x"
1!"
1""
#87500
1%
1=!
1>!
#88000
0"
0$!
#89000
1"
1$!
0|"
1n"
1w!
0y!
1(!
0%!
1x!
#90000
1$
0%
0"
0=!
18!
0$!
0>!
0Z"
1\"
1I"
0G"
1<!
09!
0}
1"!
1*
0-
#91000
1"
1$!
1~"
1m"
0n"
0w!
1)!
1u!
1%!
0x!
#92000
0"
0$!
#92500
1%
1=!
1[!
#93000
1"
1$!
0~"
1}"
1n"
1w!
0(!
1&!
0%!
1x!
#94000
0"
0$!
#95000
0%
1"
0=!
1$!
0[!
1~"
0m"
1l"
0n"
0w!
1v!
0u!
1%!
0x!
#96000
0"
0$!
#97000
1"
1$!
0~"
1|"
0}"
1n"
0*!
1y!
0v!
1(!
0%!
1+!
1\!
1S!
1K!
1?!
12!
1,!
1-!
13!
1@!
1L!
1T!
1]!
0y"
1M"
1W
1|!
15!
1E
0~!
01!
0/!
1}!
17!
#97500
1%
1=!
1[!
#98000
0"
0$!
#99000
1"
1$!
0|"
1m"
0n"
1w!
0y!
1%!
1x!
#100000
0$
0%
0"
0=!
08!
0$!
0[!
#101000
1"
1$!
1~"
1n"
0w!
1u!
0(!
1'!
0&!
0%!
0x!
#102000
0"
0$!
#102500
1%
1=!
1[!
#103000
1"
1$!
0~"
1}"
0m"
1k"
0l"
0n"
1w!
1*!
0)!
0+!
1%!
1+!
0\!
0S!
0K!
0?!
02!
0,!
0-!
03!
0@!
0L!
0T!
0]!
1x!
1\!
1S!
1K!
1?!
12!
1,!
1-!
13!
1@!
1L!
1T!
1]!
0M"
0J"
1Q"
1[
0Z
0W
05!
0E
0B
1A
11!
07!
16!
17!
#104000
0"
0$!
#105000
0%
1"
0=!
1$!
0[!
1~"
1n"
0w!
1v!
0u!
1(!
0%!
0x!
#106000
0"
0$!
#107000
1"
1$!
0~"
1|"
0}"
1m"
0n"
1)!
1y!
0v!
0(!
0'!
0+!
0\!
0S!
0K!
0?!
02!
0,!
0-!
03!
0@!
0L!
0T!
0]!
1{"
0|!
1z!
0}!
#107500
1%
1=!
1[!
#108000
0"
0$!
#109000
1"
1$!
0|"
0m"
0k"
1w!
0)!
0y!
1%!
1x!
#110000
1$
0%
0"
0=!
18!
0$!
0[!
1["
0\"
0I"
1H"
19!
1!!
0"!
0*
1+
#111000
1"
1$!
1~"
1n"
0w!
1u!
1(!
0%!
0x!
#112000
0"
0$!
#112500
1%
1=!
1R!
#113000
1"
1$!
0~"
1}"
1m"
0n"
1w!
1)!
1%!
1x!
#114000
0"
0$!
#115000
0%
1"
0=!
1$!
0R!
1~"
1n"
0w!
1v!
0u!
0(!
1&!
0%!
0x!
#116000
0"
0$!
#117000
1"
1$!
0~"
1|"
0}"
0m"
1l"
0n"
1y!
0v!
1%!
0{"
1z"
1|!
1}!
#117500
1%
1=!
1R!
#118000
0"
0$!
#119000
1"
1$!
0|"
1n"
1w!
0*!
0y!
1(!
0%!
1+!
1x!
1\!
1S!
1K!
1?!
12!
1,!
1-!
13!
1@!
1L!
1T!
1]!
1M"
1W
1E
01!
10!
#120000
0$
0%
0"
0=!
08!
0$!
0R!
#121000
1"
1$!
1~"
1m"
0n"
0w!
1u!
1%!
0x!
#122000
0"
0$!
#122500
1%
1=!
1R!
#123000
1"
1$!
0~"
1}"
1n"
1w!
0(!
1'!
0&!
0%!
1x!
#124000
0"
0$!
#125000
0%
1"
0=!
1$!
0R!
1~"
0m"
1k"
0l"
0n"
0w!
1*!
0)!
0+!
1v!
0u!
1%!
1+!
0\!
0S!
0K!
0?!
02!
0,!
0-!
03!
0@!
0L!
0T!
0]!
0x!
1\!
1S!
1K!
1?!
12!
1,!
1-!
13!
1@!
1L!
1T!
1]!
0M"
1L"
1X
0W
0E
1D
11!
#126000
0"
0$!
#127000
1"
1$!
0~"
1|"
0}"
1n"
1y!
0v!
1(!
0%!
1{"
0|!
1{!
0z!
0}!
#127500
1%
1=!
1R!
#128000
0"
0$!
#129000
1"
1$!
0|"
1m"
0n"
1w!
1)!
0y!
0(!
0'!
0+!
1x!
0\!
0S!
0K!
0?!
02!
0,!
0-!
03!
0@!
0L!
0T!
0]!
#130000
1$
0%
0"
0=!
18!
0$!
0R!
1\"
0H"
0<!
1:!
09!
1~
0!!
0+
1,
1;!
#131000
1"
1$!
1~"
0m"
0k"
0w!
0)!
1u!
1%!
0x!
#132000
0"
0$!
#132500
1%
1=!
1J!
#133000
1"
1$!
0~"
1}"
1n"
1w!
1(!
0%!
1x!
#134000
0"
0$!
#135000
0%
1"
0=!
1$!
0J!
1~"
1m"
0n"
0w!
1)!
1v!
0u!
1%!
0x!
#136000
0"
0$!
#137000
1"
1$!
0~"
1|"
0}"
1n"
1y!
0v!
0(!
1&!
0%!
0{"
1y"
0z"
1~!
0{!
1x"
0!"
1$"
0#"
0""
#137500
1%
1=!
1J!
#138000
0"
0$!
#139000
1"
1$!
0|"
0m"
1l"
0n"
1w!
0y!
1%!
1x!
#140000
0$
0%
0"
0=!
08!
0$!
0J!
#141000
1"
1$!
1~"
1n"
0w!
0*!
1u!
1(!
0%!
1+!
0x!
1\!
1S!
1K!
1?!
12!
1,!
1-!
13!
1@!
1L!
1T!
1]!
1M"
1W
1E
01!
00!
1.!
#142000
0"
0$!
#142500
1%
1=!
1J!
#143000
1"
1$!
0~"
1}"
1m"
0n"
1w!
1%!
1x!
#144000
0"
0$!
#145000
0%
1"
0=!
1$!
0J!
1~"
1n"
0w!
1v!
0u!
0(!
1'!
0&!
0%!
0x!
#146000
0"
0$!
